Division,WeightClassKg,Place,Name,Team,BodyweightKg,Best3SquatKg,Best3BenchKg,Best3DeadliftKg,TotalKg,Equipment,Event,Sex,BirthDate
Boys,51.71,1,Jason Ramirez,Levelland,47.08,136.08,92.99,154.22,383.29,Single-ply,SBD,M,
Boys,51.71,2,Damion Gonzales,Lockney,48.99,131.54,74.84,138.35,344.73,Single-ply,SBD,M,
Boys,51.71,3,Nathan Rendon,Levelland,50.89,106.59,72.57,124.74,303.91,Single-ply,SBD,M,
Boys,51.71,4,Bobby Bowman,Whiteface,45.36,97.52,49.9,99.79,247.21,Single-ply,SBD,M,
Boys,51.71,5,Dagon Rangel,Whiteface,50.17,68.04,43.09,79.38,190.51,Single-ply,SBD,M,
Boys,51.71,6,Rj Lopez,Levelland,50.44,108.86,,,108.86,Single-ply,S,M,
Boys,55.79,1,Ceasar Amaya,Bovina,54.07,104.33,72.57,120.2,297.1,Single-ply,SBD,M,
Boys,55.79,2,Jovany Salazar,Bovina,55.25,102.06,56.7,127.01,285.76,Single-ply,SBD,M,
Boys,55.79,3,Miguel Lopez #8,Bovina,54.98,104.33,68.04,99.79,272.16,Single-ply,SBD,M,
Boys,55.79,DQ,Cason Couch,Whiteface,52.07,,,,,Single-ply,SBD,M,
Boys,59.87,1,Gabriel Reyes,Dimmitt,58.88,129.27,79.38,154.22,362.87,Single-ply,SBD,M,
Boys,59.87,2,Ryan Gamez,Brownfield,58.79,122.47,77.11,124.74,324.32,Single-ply,SBD,M,
Boys,67.13,1,Austin Ellis,Levelland,65.14,113.4,74.84,133.81,322.05,Single-ply,SBD,M,
Boys,67.13,2,Damian Ussery,Brownfield,60.15,111.13,68.04,136.08,315.25,Single-ply,SBD,M,
Boys,67.13,DQ,Eden Hernandez,Brownfield,66.04,,,,,Single-ply,SBD,M,
Boys,74.84,1,Christian Smith,Levelland,74.3,151.95,92.99,183.7,428.64,Single-ply,SBD,M,
Boys,74.84,2,Pancho Garza,Brownfield,74.57,158.76,111.13,158.76,428.64,Single-ply,SBD,M,
Boys,74.84,3,Tyler Valdez,Levelland,68.86,136.08,90.72,154.22,381.02,Single-ply,SBD,M,
Boys,74.84,4,Angel Camero,Levelland,73.57,127.01,83.91,170.1,381.02,Single-ply,SBD,M,
Boys,74.84,5,Devon Campbell,Whiteface,69.94,149.69,81.65,145.15,376.48,Single-ply,SBD,M,
Boys,74.84,6,Angel Catalan,Dimmitt,74.39,122.47,83.91,140.61,347,Single-ply,SBD,M,
Boys,74.84,7,Nathan Guevarra,Bovina,69.76,111.13,81.65,151.95,344.73,Single-ply,SBD,M,
Boys,74.84,8,Fernando Martinez #5,Bovina,70.03,113.4,65.77,158.76,337.93,Single-ply,SBD,M,
Boys,74.84,9,William VanZee,Dimmitt,72.67,102.06,70.31,113.4,285.76,Single-ply,SBD,M,
Boys,74.84,10,Noah Rendon,Whiteface,73.48,138.35,,,138.35,Single-ply,S,M,
Boys,74.84,DQ,Jagger Lopez,Levelland,67.49,,,,,Single-ply,SBD,M,
Boys,74.84,DQ,John Wall,Dimmitt,74.12,,,,,Single-ply,SBD,M,
Boys,82.1,1,Skyler Davis,Levelland,80.1,213.19,129.27,244.94,587.4,Single-ply,SBD,M,
Boys,89.81,1,Darian DeLaRosa,Bovina,82.92,154.22,102.06,181.44,437.72,Single-ply,SBD,M,
Boys,89.81,2,Caleb Pritchard,Lockney,87.09,165.56,102.06,158.76,426.38,Single-ply,SBD,M,
Boys,89.81,3,Robert Pina,Levelland,83.91,124.74,95.25,136.08,356.07,Single-ply,SBD,M,
Boys,89.81,4,Diego Garcia,Bovina,84.91,104.33,74.84,136.08,315.25,Single-ply,SBD,M,
Boys,89.81,5,Luke Brooker,Whiteface,82.19,142.88,,,142.88,Single-ply,S,M,
Boys,89.81,6,Yandel DeLeon,Bovina,86.09,131.54,,,131.54,Single-ply,S,M,
Boys,89.81,DQ,Jose Guerra,Bovina,85.91,,,,,Single-ply,SBD,M,
Boys,99.79,1,Misael Castaneda,Whiteface,96.98,244.94,149.69,238.14,632.76,Single-ply,SBD,M,
Boys,99.79,2,Gerardo Gonzales,Dimmitt,96.07,192.78,113.4,235.87,542.04,Single-ply,SBD,M,
Boys,99.79,3,Jesus Lopez,Dimmitt,94.35,204.12,95.25,197.31,496.68,Single-ply,SBD,M,
Boys,109.77,1,Kesean Dever,Brownfield,105.96,190.51,124.74,210.92,526.17,Single-ply,SBD,M,
Boys,109.77,2,Chase Pickering,Levelland,102.15,108.86,79.38,113.4,301.64,Single-ply,SBD,M,
Boys,124.74,1,Fernando Mendez,Brownfield,124.01,170.1,122.47,185.97,478.54,Single-ply,SBD,M,
Boys,139.71,1,John Rodriguez,Levelland,138.62,183.7,124.74,167.83,476.27,Single-ply,SBD,M,
Boys,139.71,2,Caden Pritchard,Lockney,132.72,136.08,90.72,136.08,362.87,Single-ply,SBD,M,
Boys,139.71+,1,Sean Castillo,Brownfield,204.12,231.33,127.01,195.04,553.38,Single-ply,SBD,M,
Boys,,NS,Beu Teague,Bovina,,,,,,Single-ply,SBD,M,
Boys,,NS,Elian Munoz,Bovina,,,,,,Single-ply,SBD,M,
Boys,,NS,Daniel Ponce,Bovina,,,,,,Single-ply,SBD,M,
Boys,,NS,Damian Arriaga,Dimmitt,,,,,,Single-ply,SBD,M,
Boys,,NS,Abraham Loeza,Dimmitt,,,,,,Single-ply,SBD,M,
Boys,,NS,Kaden Coats,Whiteface,,,,,,Single-ply,SBD,M,
Boys,,NS,Riley Rodriguez,Whiteface,,,,,,Single-ply,SBD,M,
