Division,WeightClassKg,Place,Name,Team,BodyweightKg,Best3SquatKg,Best3BenchKg,Best3DeadliftKg,TotalKg,Equipment,Event,Sex,BirthDate
Boys,51.71,1,Kaden Vela,Lamesa,48.35,108.86,58.97,120.2,288.03,Single-ply,SBD,M,
Boys,51.71,2,Jaime Reyna,Olton,43.64,90.72,61.23,122.47,274.42,Single-ply,SBD,M,
Boys,51.71,3,Christian Guzman,Lamesa,51.53,88.45,47.63,95.25,231.33,Single-ply,SBD,M,
Boys,51.71,4,Jose Soliz,Whiteface,45.63,65.77,36.29,74.84,176.9,Single-ply,SBD,M,
Boys,51.71,DQ,Joe Zermeno,Olton,47.63,,,,,Single-ply,SBD,M,
Boys,55.79,1,Michael Salazar,Sundown,55.25,140.61,74.84,167.83,383.29,Single-ply,SBD,M,
Boys,55.79,2,Devin Russell,Olton,55.16,120.2,77.11,145.15,342.46,Single-ply,SBD,M,
Boys,55.79,3,Aiden Trevino,Lamesa,54.52,120.2,61.23,138.35,319.78,Single-ply,SBD,M,
Boys,55.79,4,Gabriel Ramos,Friona,55.34,102.06,74.84,117.93,294.84,Single-ply,SBD,M,
Boys,55.79,5,Chris Olguin,Whiteface,54.61,102.06,65.77,122.47,290.3,Single-ply,SBD,M,
Boys,55.79,6,Davian Castilleja,Kress,52.25,99.79,61.23,124.74,285.76,Single-ply,SBD,M,
Boys,55.79,7,Riley Rodriguez,Whiteface,54.79,81.65,54.43,127.01,263.08,Single-ply,SBD,M,
Boys,55.79,DQ,Eric Valencia,Olton,55.7,136.08,,,,Single-ply,SBD,M,
Boys,59.87,1,Josh Granillo,Olton,57.61,129.27,72.57,163.29,365.14,Single-ply,SBD,M,
Boys,59.87,2,Diego Cedillo,Kress,58.69,117.93,65.77,133.81,317.51,Single-ply,SBD,M,
Boys,59.87,3,Shiv Bhakta,Lamesa,59.42,102.06,56.7,147.42,306.17,Single-ply,SBD,M,
Boys,59.87,4,Victor Avendando,Olton,59.6,86.18,70.31,142.88,299.37,Single-ply,SBD,M,
Boys,59.87,5,Gavin Baker,Whiteface,55.97,83.91,56.7,102.06,242.67,Single-ply,SBD,M,
Boys,67.13,1,Rickey Melendez,Sundown,66.86,217.72,127.01,183.7,528.44,Single-ply,SBD,M,
Boys,67.13,2,Mark Rubalcava,Sundown,65.23,192.78,120.2,206.38,519.36,Single-ply,SBD,M,
Boys,67.13,3,Xuan Garcia,Friona,65.86,158.76,95.25,183.7,437.72,Single-ply,SBD,M,
Boys,67.13,4,Jacob Casarez,Lamesa,66.86,167.83,79.38,174.63,421.84,Single-ply,SBD,M,
Boys,67.13,5,Thomas Sullivan,Tahoka,67.13,142.88,86.18,167.83,396.89,Single-ply,SBD,M,
Boys,67.13,6,Reice Hixon,Sundown,66.68,145.15,90.72,154.22,390.09,Single-ply,SBD,M,
Boys,67.13,7,Izaic Gonzales,Lamesa,67.13,140.61,86.18,151.95,378.75,Single-ply,SBD,M,
Boys,67.13,8,Noah Rendon,Whiteface,66.77,147.42,90.72,133.81,371.95,Single-ply,SBD,M,
Boys,67.13,9,Christian Zapata,Kress,63.14,138.35,70.31,154.22,362.87,Single-ply,SBD,M,
Boys,67.13,10,Aj Gutierrez,Tahoka,62.87,127.01,65.77,136.08,328.85,Single-ply,SBD,M,
Boys,67.13,11,Jaxon Heflin,Whiteface,66.04,113.4,70.31,140.61,324.32,Single-ply,SBD,M,
Boys,67.13,DQ,Diego Gallegos,Olton,63.78,140.61,90.72,,,Single-ply,SBD,M,
Boys,67.13,DQ,Diego Viduarre,Lamesa,66.59,145.15,,,,Single-ply,SBD,M,
Boys,74.84,1,Michael Guzman,Kress,73.12,163.29,113.4,190.51,467.2,Single-ply,SBD,M,
Boys,74.84,2,Stephen Hernandez,Tahoka,69.76,170.1,95.25,176.9,442.25,Single-ply,SBD,M,
Boys,74.84,3,Damian Marquez,Olton,73.75,138.35,113.4,183.7,435.45,Single-ply,SBD,M,
Boys,74.84,4,Josh Marquez,Olton,73.21,151.95,83.91,174.63,410.5,Single-ply,SBD,M,
Boys,74.84,5,Tyler Campbell,Whiteface,72.03,138.35,90.72,165.56,394.63,Single-ply,SBD,M,
Boys,74.84,6,Izaak Trejo,Lamesa,73.84,142.88,61.23,151.95,356.07,Single-ply,SBD,M,
Boys,74.84,7,Ethan Kauffman,Whiteface,73.21,142.88,77.11,133.81,353.8,Single-ply,SBD,M,
Boys,74.84,8,Ben Reynolds,Sundown,70.13,129.27,72.57,145.15,347,Single-ply,SBD,M,
Boys,74.84,9,David Hernandez,Tahoka,73.84,120.2,81.65,145.15,347,Single-ply,SBD,M,
Boys,74.84,10,Zayden Flynn,Sundown,70.31,124.74,92.99,124.74,342.46,Single-ply,SBD,M,
Boys,74.84,11,Zyren Gonzales,Lamesa,73.84,113.4,70.31,147.42,331.12,Single-ply,SBD,M,
Boys,74.84,12,Víctor Reyes,Olton,74.57,97.52,65.77,149.69,312.98,Single-ply,SBD,M,
Boys,82.1,1,Kevin Garcia,Sundown,81.37,254.01,158.76,256.28,669.05,Single-ply,SBD,M,
Boys,82.1,2,EJ Hernandez,Sundown,78.38,226.8,145.15,222.26,594.21,Single-ply,SBD,M,
Boys,82.1,3,Isiah Flores,Sundown,80.65,204.12,102.06,195.04,501.22,Single-ply,SBD,M,
Boys,82.1,4,Devon Campbell,Whiteface,75.21,172.37,102.06,192.78,467.2,Single-ply,SBD,M,
Boys,82.1,5,Jeremy Soliz,Whiteface,80.56,142.88,74.84,149.69,367.41,Single-ply,SBD,M,
Boys,82.1,DQ,Grady Roberts,Olton,81.28,163.29,,,,Single-ply,SBD,M,
Boys,89.81,1,Diego Hernandez,Sundown,88.54,235.87,147.42,231.33,614.62,Single-ply,SBD,M,
Boys,89.81,2,Luke Brooker,Whiteface,83.55,195.04,136.08,213.19,544.31,Single-ply,SBD,M,
Boys,89.81,3,Jaxon Rodriguez,Sundown,87,176.9,95.25,195.04,467.2,Single-ply,SBD,M,
Boys,89.81,4,Jadon McAdams,Sundown,89.45,165.56,106.59,176.9,449.06,Single-ply,SBD,M,
Boys,89.81,5,Landon Sehon,Sundown,88.99,172.37,115.67,151.95,439.98,Single-ply,SBD,M,
Boys,89.81,6,Donovan Almager,Whiteface,87.72,122.47,88.45,136.08,347,Single-ply,SBD,M,
Boys,89.81,DQ,Rylee Davidson #2,Whiteface,89.09,,,,,Single-ply,SBD,M,
Boys,89.81,DQ,Brady Barcheers,Tahoka,85.18,163.29,104.33,,,Single-ply,SBD,M,
Boys,99.79,1,Andrew Hernandez,Sundown,96.98,276.69,167.83,226.8,671.32,Single-ply,SBD,M,
Boys,99.79,2,Brighton Scoggins,Whiteface,98.16,204.12,117.93,204.12,526.17,Single-ply,SBD,M,
Boys,99.79,3,Damian Casteneda,Whiteface,97.98,188.24,99.79,204.12,492.15,Single-ply,SBD,M,
Boys,99.79,4,Zed Mendez,Whiteface,99.25,204.12,117.93,170.1,492.15,Single-ply,SBD,M,
Boys,99.79,5,Justin Vasquez,Lamesa,95.62,149.69,86.18,163.29,399.16,Single-ply,SBD,M,
Boys,99.79,6,Adolfo Garcia,Olton,96.07,151.95,90.72,154.22,396.89,Single-ply,SBD,M,
Boys,99.79,7,Eric Alvarez,Whiteface,98.52,131.54,74.84,131.54,337.93,Single-ply,SBD,M,
Boys,109.77,1,Andy Castillo,Sundown,108.41,272.16,174.63,263.08,709.87,Single-ply,SBD,M,
Boys,109.77,2,Xavyn Garcia,Sundown,108.77,226.8,145.15,190.51,562.45,Single-ply,SBD,M,
Boys,109.77,3,Ishmael Flores,Friona,101.06,231.33,122.47,201.85,555.65,Single-ply,SBD,M,
Boys,109.77,4,Michael Sanchez,Whiteface,103.33,158.76,104.33,192.78,455.86,Single-ply,SBD,M,
Boys,109.77,5,Austin Reyes,Sundown,105.23,181.44,95.25,172.37,449.06,Single-ply,SBD,M,
Boys,109.77,6,Kaden Dobson,Whiteface,103.6,161.03,88.45,147.42,396.89,Single-ply,SBD,M,
Boys,109.77,7,Brock Case,Tahoka,108.14,147.42,65.77,158.76,371.95,Single-ply,SBD,M,
Boys,124.74,1,Jeffery Rodriguez,Sundown,116.48,242.67,156.49,233.6,632.76,Single-ply,SBD,M,
Boys,124.74,2,Chris Castillo,Sundown,122.11,240.4,163.29,229.06,632.76,Single-ply,SBD,M,
Boys,124.74,3,Dekota Golightly,Sundown,110.22,242.67,151.95,206.38,601.01,Single-ply,SBD,M,
Boys,124.74,4,Anthony Abarca,Friona,112.22,226.8,108.86,215.46,551.11,Single-ply,SBD,M,
Boys,124.74,5,Beau Brewer,Whiteface,115.39,206.38,122.47,181.44,510.29,Single-ply,SBD,M,
Boys,124.74,6,Chris Arrington,Tahoka,111.86,176.9,104.33,190.51,471.74,Single-ply,SBD,M,
Boys,139.71,1,Aiden Marmolejo,Lamesa,130.54,174.63,117.93,201.85,494.42,Single-ply,SBD,M,
Boys,139.71+,1,Evan Sepeda,Lamesa,187.42,251.74,115.67,208.65,576.06,Single-ply,SBD,M,
Boys,139.71+,2,Jesus Rodriguez,Sundown,143.24,233.6,127.01,199.58,560.19,Single-ply,SBD,M,
Boys,,NS,Eric Jaramillo,Friona,,,,,,Single-ply,SBD,M,
Boys,,NS,Xavier Ellis,Kress,,,,,,Single-ply,SBD,M,
Boys,,NS,Davonte Baker,Kress,,,,,,Single-ply,SBD,M,
Boys,,NS,Jose Castillo,Kress,,,,,,Single-ply,SBD,M,
Boys,,NS,Alfonso Chapa,Kress,,,,,,Single-ply,SBD,M,
Boys,,NS,Devion Ellis,Kress,,,,,,Single-ply,SBD,M,
Boys,,NS,Jaden Noriega,Kress,,,,,,Single-ply,SBD,M,
Boys,,NS,Ja'Quaveien Ellis,Kress,,,,,,Single-ply,SBD,M,
Boys,,NS,Jake Dixon,Kress,,,,,,Single-ply,SBD,M,
Boys,,NS,James Walker,Kress,,,,,,Single-ply,SBD,M,
Boys,,NS,Marcos Ogeda,Lamesa,,,,,,Single-ply,SBD,M,
Boys,,NS,Robert Noriega,Kress,,,,,,Single-ply,SBD,M,
