Division,WeightClassKg,Place,Name,Team,BodyweightKg,Best3SquatKg,Best3BenchKg,Best3DeadliftKg,TotalKg,Equipment,Event,Sex,BirthDate
Boys,51.71,1,Julio Velasco,Brownsville Lopez,48.26,124.74,77.11,142.88,344.73,Single-ply,SBD,M,
Boys,51.71,2,Israel Juarez,San Benito,50.44,122.47,83.91,124.74,331.12,Single-ply,SBD,M,
Boys,51.71,3,Gabriel Ozuna,Edinburg Vela,51.71,111.13,52.16,136.08,299.37,Single-ply,SBD,M,
Boys,51.71,4,Angel Cano,San Benito,51.44,90.72,56.7,102.06,249.48,Single-ply,SBD,M,
Boys,51.71,DQ,Joseph Soto,PSJA Memorial,50.89,102.06,74.84,,,Single-ply,SBD,M,
Boys,55.79,1,Lucio Zamora,Brownsville Lopez,55.7,142.88,74.84,133.81,351.53,Single-ply,SBD,M,
Boys,55.79,DQ,Oscar Duarte,PSJA Memorial,53.16,147.42,83.91,,,Single-ply,SBD,M,
Boys,59.87,1,Brenden Gonzalez,PSJA Memorial,59.51,158.76,158.76,142.88,460.4,Single-ply,SBD,M,
Boys,59.87,2,Damian Ramirez,PSJA Memorial,57.97,142.88,142.88,138.35,424.11,Single-ply,SBD,M,
Boys,59.87,3,Juan Ramirez,PSJA Memorial,58.79,136.08,136.08,145.15,417.3,Single-ply,SBD,M,
Boys,59.87,DQ,Gabriel Garza,Brownsville Lopez,59.87,192.78,192.78,,,Single-ply,SBD,M,
Boys,67.13,1,Dylan Ybarra,San Benito,66.41,213.19,140.61,199.58,553.38,Single-ply,SBD,M,
Boys,67.13,2,Kyle Yanez,Edinburg Vela,66.77,226.8,120.2,197.31,544.31,Single-ply,SBD,M,
Boys,67.13,3,Alex Perez,Brownsville Porter,65.5,195.04,99.79,190.51,485.34,Single-ply,SBD,M,
Boys,67.13,4,Mario Espinosa,Edinburg Vela,61.51,133.81,72.57,161.03,367.41,Single-ply,SBD,M,
Boys,74.84,1,Jonah Villareal,Edinburg Vela,73.75,235.87,138.35,224.53,598.74,Single-ply,SBD,M,
Boys,74.84,2,Diego Sixtos,Brownsville Lopez,74.84,233.6,127.01,206.38,566.99,Single-ply,SBD,M,
Boys,74.84,3,Braeden Chapa,Edinburg Vela,73.66,185.97,127.01,165.56,478.54,Single-ply,SBD,M,
Boys,74.84,4,Derek Toscano,Edinburg Vela,69.49,124.74,61.23,183.7,369.68,Single-ply,SBD,M,
Boys,82.1,1,Atticus De Leon,San Benito,79.11,226.8,124.74,176.9,528.44,Single-ply,SBD,M,
Boys,82.1,2,Juan Zavala,Brownsville Porter,80.56,204.12,115.67,199.58,519.36,Single-ply,SBD,M,
Boys,82.1,3,Ruben Trevino,Edinburg Vela,80.01,183.7,104.33,195.04,483.08,Single-ply,SBD,M,
Boys,82.1,DQ,Andrew Radar,Brownsville Lopez,77.47,222.26,,,,Single-ply,SBD,M,
Boys,82.1,DQ,Brandon Compian,San Benito,77.11,210.92,136.08,,,Single-ply,SBD,M,
Boys,89.81,1,John Vasquez,Edinburg Vela,86.27,249.48,145.15,251.74,646.37,Single-ply,SBD,M,
Boys,89.81,2,Jesus Garcia,Edinburg Vela,87.09,240.4,142.88,224.53,607.81,Single-ply,SBD,M,
Boys,89.81,3,Efren Munoz,Edinburg Vela,86.27,165.56,131.54,197.31,494.42,Single-ply,SBD,M,
Boys,89.81,4,Alejandro Corona,PSJA Memorial,89.09,183.7,131.54,170.1,485.34,Single-ply,SBD,M,
Boys,89.81,DQ,Robert Trevino,San Benito,88.72,244.94,138.35,,,Single-ply,SBD,M,
Boys,99.79,1,Omar Cervantes,Brownsville Lopez,93.53,242.67,138.35,190.51,571.53,Single-ply,SBD,M,
Boys,99.79,2,Angel Giron,Brownsville Porter,99.79,208.65,113.4,219.99,542.04,Single-ply,SBD,M,
Boys,99.79,3,Isaac Ramirez,San Benito,91.26,201.85,129.27,208.65,539.77,Single-ply,SBD,M,
Boys,99.79,DQ,Juan Guerrero,Brownsville Lopez,99.79,,,,,Single-ply,SBD,M,
Boys,99.79,DQ,Mark Pena,PSJA Memorial,98.88,,,,,Single-ply,SBD,M,
Boys,99.79,DQ,Victor Martinez,PSJA Memorial,99.79,,,,,Single-ply,SBD,M,
Boys,109.77,1,Nate Garcia,San Benito,108.32,249.48,147.42,254.01,650.91,Single-ply,SBD,M,
Boys,109.77,DQ,Ronaldo Rocha,Brownsville St. Joseph Academy,109.54,197.31,115.67,,,Single-ply,SBD,M,
Boys,124.74,1,Abraham Villalon,Brownsville Porter,123.01,272.16,149.69,242.67,664.51,Single-ply,SBD,M,
Boys,124.74,2,Oscar Nieves,Brownsville Lopez,120.2,233.6,158.76,224.53,616.89,Single-ply,SBD,M,
Boys,124.74,3,Vicente Meza,Edinburg Vela,111.77,224.53,170.1,215.46,610.08,Single-ply,SBD,M,
Boys,124.74,4,Brandon Longoria,Brownsville Lopez,120.02,226.8,131.54,224.53,582.87,Single-ply,SBD,M,
Boys,124.74,5,Aaron Palacios,Brownsville Porter,121.65,174.63,104.33,163.29,442.25,Single-ply,SBD,M,
Boys,124.74,6,Jason Paniagua,Brownsville Lopez,111.4,165.56,74.84,151.95,392.36,Single-ply,SBD,M,
Boys,124.74,DQ,Julian Lopez,PSJA Memorial,111.58,224.53,,,,Single-ply,SBD,M,
Boys,124.74,DQ,Jerry Alvarez,San Benito,123.38,181.44,,,,Single-ply,SBD,M,
Boys,139.71,1,Frank Medina,San Benito,133.08,272.16,149.69,244.94,666.78,Single-ply,SBD,M,
Boys,139.71,2,Jose Martinez,San Benito,133.99,272.16,158.76,226.8,657.71,Single-ply,SBD,M,
Boys,139.71,3,Leo Pineda,PSJA Memorial,137.62,233.6,142.88,190.51,566.99,Single-ply,SBD,M,
Boys,139.71+,1,Marco Diaz,Edinburg Vela,181.44,170.1,124.74,174.63,469.47,Single-ply,SBD,M,
Boys,139.71+,DQ,Diego Castillo,Brownsville Lopez,148.42,242.67,147.42,,,Single-ply,SBD,M,
Boys,,NS,Estevan Cisneros,Brownsville Porter,,,,,,Single-ply,SBD,M,
Boys,,NS,David Pollard,PSJA Memorial,,,,,,Single-ply,SBD,M,
Boys,,NS,Nova Bajaran,San Benito,,,,,,Single-ply,SBD,M,
