Division,WeightClassKg,Place,Name,Team,BodyweightKg,Best3SquatKg,Best3BenchKg,Best3DeadliftKg,TotalKg,Equipment,Event,Sex,BirthDate
Boys,51.71,1,Tristan Brown,Nederland,51.62,147.42,72.57,151.95,371.95,Single-ply,SBD,M,
Boys,51.71,2,Tyler Hoang,Nederland,50.71,136.08,83.91,136.08,356.07,Single-ply,SBD,M,
Boys,51.71,3,Caleb Johnson,Lumberton,50.53,136.08,81.65,131.54,349.27,Single-ply,SBD,M,
Boys,51.71,4,Marcelo Avalos,Vidor,51.12,113.4,65.77,117.93,297.1,Single-ply,SBD,M,
Boys,51.71,5,Brandan Goodman,Nederland,37.19,79.38,58.97,86.18,224.53,Single-ply,SBD,M,
Boys,51.71,6,Griffin Guidry,Nederland,36.29,79.38,38.56,83.91,201.85,Single-ply,SBD,M,
Boys,55.79,1,Evan Ceja,Nederland,55.43,197.31,104.33,183.7,485.34,Single-ply,SBD,M,
Boys,55.79,DQ,Kellen McCracken,Sour Lake Hardin-Jefferson,55.79,,,,,Single-ply,SBD,M,
Boys,59.87,1,Aston Broussard,Sour Lake Hardin-Jefferson,59.6,149.69,77.11,181.44,408.23,Single-ply,SBD,M,
Boys,59.87,2,Cade Miller,Sour Lake Hardin-Jefferson,58.06,129.27,79.38,127.01,335.66,Single-ply,SBD,M,
Boys,59.87,3,Terron Young,Sour Lake Hardin-Jefferson,58.47,117.93,61.23,138.35,317.51,Single-ply,SBD,M,
Boys,67.13,1,Roberto Suarez,Lumberton,63.28,185.97,111.13,183.7,480.81,Single-ply,SBD,M,
Boys,67.13,2,Seth Miller,Sour Lake Hardin-Jefferson,63.28,136.08,68.04,151.95,356.07,Single-ply,SBD,M,
Boys,74.84,1,Moises Padilla,Sour Lake Hardin-Jefferson,74.53,183.7,99.79,192.78,476.27,Single-ply,SBD,M,
Boys,74.84,2,Kasey McClory,Lumberton,72.85,154.22,88.45,199.58,442.25,Single-ply,SBD,M,
Boys,74.84,3,Aiden Hewitt,Nederland,72.21,161.03,102.06,165.56,428.64,Single-ply,SBD,M,
Boys,74.84,4,Hayden Keith,Lumberton,69.76,151.95,79.38,140.61,371.95,Single-ply,SBD,M,
Boys,74.84,5,Carter Cloud,Lumberton,72.85,127.01,79.38,158.76,365.14,Single-ply,SBD,M,
Boys,82.1,1,Jesse Myers,Vidor,81.47,235.87,131.54,195.04,562.45,Single-ply,SBD,M,
Boys,82.1,2,Seth Rodgers,Vidor,75.61,213.19,115.67,210.92,539.77,Single-ply,SBD,M,
Boys,82.1,3,Riley Marlow,Vidor,77.66,204.12,133.81,199.58,537.51,Single-ply,SBD,M,
Boys,82.1,4,Ricky Bynum,Vidor,81.28,217.72,102.06,190.51,510.29,Single-ply,SBD,M,
Boys,82.1,5,Joshua Samler,Sour Lake Hardin-Jefferson,75.98,179.17,106.59,199.58,485.34,Single-ply,SBD,M,
Boys,82.1,6,Michael Tate,Lumberton,82.1,181.44,95.25,170.1,446.79,Single-ply,SBD,M,
Boys,89.81,1,Caysen Guerra,Nederland,88.45,235.87,124.74,226.8,587.4,Single-ply,SBD,M,
Boys,89.81,2,Johnnie Torres,Nederland,89.81,229.06,102.06,244.94,576.06,Single-ply,SBD,M,
Boys,89.81,3,Chris Cantu,Vidor,88.45,201.85,127.01,213.19,542.04,Single-ply,SBD,M,
Boys,89.81,4,Gavin Goode,Lumberton,89.45,204.12,129.27,197.31,530.7,Single-ply,SBD,M,
Boys,89.81,5,Akzayakatl Zambrano,Vidor,89.13,199.58,104.33,204.12,508.02,Single-ply,SBD,M,
Boys,89.81,6,Brooklyn Freeman,Vidor,85.91,195.04,111.13,172.37,478.54,Single-ply,SBD,M,
Boys,89.81,7,Paul Moore,Sour Lake Hardin-Jefferson,89.81,174.63,102.06,170.1,446.79,Single-ply,SBD,M,
Boys,89.81,8,Hunter Keith,Lumberton,86.27,183.7,104.33,149.69,437.72,Single-ply,SBD,M,
Boys,89.81,9,Cole Guidroz,Nederland,89.81,158.76,113.4,149.69,421.84,Single-ply,SBD,M,
Boys,89.81,10,Ty Kelly,Lumberton,85.37,145.15,88.45,142.88,376.48,Single-ply,SBD,M,
Boys,99.79,1,Cade McKinstry,Lumberton,98.43,238.14,149.69,233.6,621.42,Single-ply,SBD,M,
Boys,99.79,2,Robert Hendon,Lumberton,98.07,242.67,117.93,192.78,553.38,Single-ply,SBD,M,
Boys,99.79,3,Logan Hodges,Sour Lake Hardin-Jefferson,91.35,208.65,115.67,199.58,523.9,Single-ply,SBD,M,
Boys,99.79,4,Carter Concienne,Nederland,95.25,215.46,113.4,183.7,512.56,Single-ply,SBD,M,
Boys,109.77,1,Lane Leviness,Vidor,104.64,226.8,140.61,190.51,557.92,Single-ply,SBD,M,
Boys,109.77,2,Brayden Bolders,Lumberton,108.86,219.99,113.4,192.78,526.17,Single-ply,SBD,M,
Boys,109.77,DQ,Grayden Spencer,Lumberton,107.32,244.94,,,,Single-ply,SBD,M,
Boys,124.74,1,Gabe Hernandez,Lumberton,121.47,238.14,158.76,208.65,605.55,Single-ply,SBD,M,
Boys,124.74,2,Wacy Blanchard,Nederland,114.03,244.94,106.59,197.31,548.85,Single-ply,SBD,M,
Boys,124.74,3,Rylan Morgan,Sour Lake Hardin-Jefferson,120.61,226.8,133.81,161.03,521.63,Single-ply,SBD,M,
Boys,139.71,1,Holden Craver,Nederland,137.89,303.91,154.22,215.46,673.58,Single-ply,SBD,M,
Boys,139.71,2,Peter Thielen,Sour Lake Hardin-Jefferson,124.92,260.82,163.29,215.46,639.57,Single-ply,SBD,M,
Boys,139.71,3,Colby Smith,Nederland,129.73,219.99,129.27,174.63,523.9,Single-ply,SBD,M,
Boys,139.71,4,Jason Marchuk,Lumberton,126.78,172.37,117.93,161.03,451.32,Single-ply,SBD,M,
Boys,139.71,5,Holden Metts,Nederland,131.54,158.76,90.72,149.69,399.16,Single-ply,SBD,M,
Boys,139.71+,1,Andrew Hall,Nederland,169.19,251.74,156.49,215.46,623.69,Single-ply,SBD,M,
