Division,WeightClassKg,Place,Name,Team,BodyweightKg,Best3SquatKg,Best3BenchKg,Best3DeadliftKg,TotalKg,Equipment,Event,Sex,BirthDate
Boys,55.79,1,Preston Goodman,Georgetown,55.25,102.06,54.43,113.4,269.89,Single-ply,SBD,M,
Boys,59.87,1,Gavin Salinas,Liberty Hill,59.87,170.1,95.25,167.83,433.18,Single-ply,SBD,M,
Boys,59.87,2,Reggie Ward,Pflugerville Hendrickson,58.33,136.08,70.31,149.69,356.07,Single-ply,SBD,M,
Boys,59.87,3,Tanner Namken,Georgetown East View,57.79,108.86,58.97,115.67,283.5,Single-ply,SBD,M,
Boys,67.13,1,Ben Carter,Liberty Hill,67.13,183.7,106.59,147.42,437.72,Single-ply,SBD,M,
Boys,67.13,2,Mathew Jimenez,Pflugerville Hendrickson,63.78,127.01,86.18,140.61,353.8,Single-ply,SBD,M,
Boys,67.13,3,Antonio Reyes,Georgetown,65.05,122.47,77.11,136.08,335.66,Single-ply,SBD,M,
Boys,67.13,4,Aaron Garza,Georgetown East View,62.6,95.25,70.31,113.4,278.96,Single-ply,SBD,M,
Boys,67.13,DQ,Zachary Nolan,Liberty Hill,65.59,,,,,Single-ply,SBD,M,
Boys,67.13,DQ,Jackson Coe,Georgetown East View,65.68,170.1,106.59,,,Single-ply,SBD,M,
Boys,74.84,1,Tyler Lawson,Georgetown,67.22,195.04,117.93,213.19,526.17,Single-ply,SBD,M,
Boys,74.84,2,Nikko Vasquez,Liberty Hill,74.39,170.1,106.59,176.9,453.59,Single-ply,SBD,M,
Boys,74.84,3,Jacob Morris,Liberty Hill,74.48,161.03,102.06,190.51,453.59,Single-ply,SBD,M,
Boys,74.84,4,Avery Bourgeois,Liberty Hill,72.76,176.9,97.52,154.22,428.64,Single-ply,SBD,M,
Boys,74.84,5,Tyler DeAnda,Georgetown,72.94,161.03,79.38,161.03,401.43,Single-ply,SBD,M,
Boys,74.84,6,Joseph Dovey,Georgetown,74.66,131.54,79.38,167.83,378.75,Single-ply,SBD,M,
Boys,74.84,7,Leo Soto,Georgetown,70.49,120.2,86.18,142.88,349.27,Single-ply,SBD,M,
Boys,74.84,8,Jayden Ridings,Georgetown,69.76,90.72,61.23,90.72,242.67,Single-ply,SBD,M,
Boys,82.1,1,Reid Bynum,Liberty Hill,82.01,256.28,145.15,226.8,628.23,Single-ply,SBD,M,
Boys,82.1,2,Lucas Friggle,Georgetown East View,79.2,170.1,97.52,181.44,449.06,Single-ply,SBD,M,
Boys,82.1,3,Joshua Langwell,Liberty Hill,80.29,179.17,97.52,167.83,444.52,Single-ply,SBD,M,
Boys,82.1,4,Cole Smith,Liberty Hill,76.02,165.56,90.72,172.37,428.64,Single-ply,SBD,M,
Boys,82.1,5,Jackson Zane,Georgetown East View,77.38,145.15,88.45,165.56,399.16,Single-ply,SBD,M,
Boys,82.1,6,Finn Howell,Georgetown,81.47,136.08,79.38,136.08,351.53,Single-ply,SBD,M,
Boys,89.81,1,Drake Torno,Liberty Hill,86.64,217.72,136.08,195.04,548.85,Single-ply,SBD,M,
Boys,89.81,2,Amar Boutchich,Georgetown East View,89.54,190.51,111.13,199.58,501.22,Single-ply,SBD,M,
Boys,89.81,3,Connor Burkes,Georgetown,84.55,190.51,111.13,181.44,483.08,Single-ply,SBD,M,
Boys,89.81,4,Garret Hevey,Georgetown,84.19,142.88,102.06,145.15,390.09,Single-ply,SBD,M,
Boys,99.79,1,Thomas Thornburg,Georgetown East View,96.34,272.16,147.42,263.08,682.66,Single-ply,SBD,M,
Boys,99.79,2,Aron Olague,Georgetown East View,96.52,201.85,136.08,229.06,566.99,Single-ply,SBD,M,
Boys,99.79,3,Davis Jones,Georgetown East View,98.25,167.83,102.06,199.58,469.47,Single-ply,SBD,M,
Boys,99.79,4,Matthew Garza,Georgetown East View,94.26,174.63,99.79,149.69,424.11,Single-ply,SBD,M,
Boys,109.77,1,Alex Diaz,Georgetown,107.86,242.67,113.4,244.94,601.01,Single-ply,SBD,M,
Boys,109.77,2,Christopher McCravy,Georgetown East View,107.68,244.94,127.01,226.8,598.74,Single-ply,SBD,M,
Boys,109.77,3,Julius Osborne,Liberty Hill,108.23,210.92,117.93,199.58,528.44,Single-ply,SBD,M,
Boys,109.77,4,Makhi Wilder,Georgetown East View,100.88,208.65,111.13,199.58,519.36,Single-ply,SBD,M,
Boys,124.74,1,Ryan McIntire,Liberty Hill,119.75,188.24,124.74,174.63,487.61,Single-ply,SBD,M,
Boys,124.74,2,Juan Salazar,Georgetown,114.76,183.7,124.74,170.1,478.54,Single-ply,SBD,M,
Boys,139.71+,1,Thomas Badour,Georgetown,140.52,195.04,106.59,190.51,492.15,Single-ply,SBD,M,
