Division,WeightClassKg,Place,Name,Team,BodyweightKg,Best3SquatKg,Best3BenchKg,Best3DeadliftKg,TotalKg,Equipment,Event,Sex,BirthDate
Boys,55.79,1,Ryan Ramirez #2,Monahans,53.07,97.52,56.7,120.2,274.42,Single-ply,SBD,M,
Boys,55.79,2,Daniel Renteria,Fort Stockton,54.88,86.18,61.23,102.06,249.48,Single-ply,SBD,M,
Boys,59.87,1,Ivan Zamora,Andrews,58.6,176.9,108.86,210.92,496.68,Single-ply,SBD,M,
Boys,59.87,2,Caison Burrus,Fort Stockton,58.06,140.61,72.57,147.42,360.61,Single-ply,SBD,M,
Boys,59.87,3,Caleb Lee,Monahans,56.06,127.01,65.77,120.2,312.98,Single-ply,SBD,M,
Boys,59.87,4,Darian Renteria,Fort Stockton,59.87,113.4,54.43,106.59,274.42,Single-ply,SBD,M,
Boys,67.13,1,Jaylee Ibarra,Fort Stockton,65.68,185.97,117.93,154.22,458.13,Single-ply,SBD,M,
Boys,67.13,2,Kendrick Porras,Fort Stockton,61.87,154.22,86.18,188.24,428.64,Single-ply,SBD,M,
Boys,67.13,3,Matthew Rosas,McCamey,66.13,158.76,86.18,181.44,426.38,Single-ply,SBD,M,
Boys,67.13,4,Alex Miranda,Monahans,66.86,108.86,65.77,127.01,301.64,Single-ply,SBD,M,
Boys,74.84,1,George Wagner,Andrews,73.57,170.1,99.79,179.17,449.06,Single-ply,SBD,M,
Boys,74.84,2,Syreal Biaza,McCamey,72.67,167.83,108.86,151.95,428.64,Single-ply,SBD,M,
Boys,74.84,3,Ramiro Lopez,Andrews,74.66,174.63,97.52,149.69,421.84,Single-ply,SBD,M,
Boys,74.84,4,Tanner Jones,Monahans,71.94,131.54,92.99,151.95,376.48,Single-ply,SBD,M,
Boys,74.84,5,Adan Saucedo,Monahans,73.21,124.74,83.91,154.22,362.87,Single-ply,SBD,M,
Boys,74.84,6,Jose Armendariz,Andrews,72.23,113.4,83.91,149.69,347,Single-ply,SBD,M,
Boys,74.84,7,Rene Orona,Monahans,70.31,113.4,81.65,142.88,337.93,Single-ply,SBD,M,
Boys,74.84,DQ,Conner McCrary,Andrews,74.84,140.61,,,,Single-ply,SBD,M,
Boys,74.84,DQ,Javier Garcia #11,Andrews,74.84,,,,,Single-ply,SBD,M,
Boys,74.84,DQ,Ricardo Pacheco,Fort Stockton,68.4,127.01,,,,Single-ply,SBD,M,
Boys,74.84,DQ,Daren Ureste,Fort Stockton,73.75,,,,,Single-ply,SBD,M,
Boys,74.84,DQ,Gavin Rhodes,Andrews,72.57,147.42,,,,Single-ply,SBD,M,
Boys,82.1,1,Jaydrien Ramirez,Fort Stockton,81.1,219.99,138.35,192.78,551.11,Single-ply,SBD,M,
Boys,82.1,2,Alex Natera,Alpine,79.83,183.7,120.2,204.12,508.02,Single-ply,SBD,M,
Boys,82.1,3,Matthew Valenzuela,Andrews,80.56,102.06,102.06,142.88,347,Single-ply,SBD,M,
Boys,82.1,DQ,Ricardo Tarango,Alpine,77.56,,,,,Single-ply,SBD,M,
Boys,89.81,1,Brandon Castillo,Andrews,89.81,210.92,111.13,181.44,503.49,Single-ply,SBD,M,
Boys,89.81,2,Justin Sanchez,Fort Stockton,89.81,154.22,136.08,188.24,478.54,Single-ply,SBD,M,
Boys,89.81,3,Robert Vasquez,Alpine,83.64,133.81,61.23,138.35,333.39,Single-ply,SBD,M,
Boys,89.81,4,Tristan Smith,Alpine,89.81,115.67,74.84,108.86,299.37,Single-ply,SBD,M,
Boys,89.81,DQ,Jose Hernandez #22,Fort Stockton,89.81,140.61,92.99,,,Single-ply,SBD,M,
Boys,99.79,1,Josh Lackey,Monahans,96.98,163.29,127.01,195.04,485.34,Single-ply,SBD,M,
Boys,99.79,2,Lucas Ordonez #1,Monahans,96.52,181.44,111.13,183.7,476.27,Single-ply,SBD,M,
Boys,99.79,3,Joseph Vowles,Monahans,91.99,161.03,97.52,165.56,424.11,Single-ply,SBD,M,
Boys,99.79,4,Oscar Carnero,Andrews,91.81,156.49,92.99,167.83,417.3,Single-ply,SBD,M,
Boys,99.79,5,Rigo Molina,McCamey,99.79,142.88,90.72,149.69,383.29,Single-ply,SBD,M,
Boys,99.79,6,Miguel Sanchez,McCamey,90.99,138.35,88.45,149.69,376.48,Single-ply,SBD,M,
Boys,99.79,7,Vidal Diaz,McCamey,96.34,140.61,86.18,142.88,369.68,Single-ply,SBD,M,
Boys,109.77,1,Tucker Tippen,Andrews,100.06,151.95,81.65,156.49,390.09,Single-ply,SBD,M,
Boys,109.77,2,Alec Aranda,Alpine,106.96,92.99,54.43,136.08,283.5,Single-ply,SBD,M,
Boys,124.74,1,Jayson Pagen,McCamey,116.3,249.48,138.35,217.72,605.55,Single-ply,SBD,M,
Boys,124.74,2,Josiah Flores,Andrews,117.21,238.14,147.42,208.65,594.21,Single-ply,SBD,M,
Boys,124.74,3,Drew Coker,Monahans,113.94,181.44,120.2,192.78,494.42,Single-ply,SBD,M,
Boys,124.74,4,Jacob Alston,Monahans,114.76,167.83,120.2,188.24,476.27,Single-ply,SBD,M,
Boys,124.74,5,Kenneth Ramsey,Monahans,124.74,149.69,117.93,201.85,469.47,Single-ply,SBD,M,
Boys,124.74,6,Cade Bayer,Fort Stockton,124.74,183.7,111.13,170.1,464.93,Single-ply,SBD,M,
Boys,139.71,1,Isaiah Garcia,McCamey,125.83,238.14,117.93,219.99,576.06,Single-ply,SBD,M,
Boys,139.71,2,Luis Mendoza,Fort Stockton,135.9,199.58,129.27,165.56,494.42,Single-ply,SBD,M,
Boys,139.71,3,Ernesto Martinez,Alpine,137.62,102.06,56.7,113.4,272.16,Single-ply,SBD,M,
