Name,Team,Division,BodyweightKg,WeightClassKg,AgeRange,Squat1Kg,Squat2Kg,Squat3Kg,Best3SquatKg,Bench1Kg,Bench2Kg,Bench3Kg,Best3BenchKg,Deadlift1Kg,Deadlift2Kg,Deadlift3Kg,Best3DeadliftKg,TotalKg,Place,Sex,Event,Equipment,Age,State
Dawn Morrell,W&G,F-E-M1,69.7,72,39.5-49.5,-100,100,-110,100,55,57.5,60,60,120,127.5,135,135,295,1,F,SBD,Single-ply,,SW
Sofia Rufus,Guest,F-C-G,51,52,39.5-49.5,105,112.5,-117.5,112.5,47.5,52.5,55,55,112.5,120,127.5,127.5,295,G,F,SBD,Raw,,
Rebecca Ferris,W&G,F-C-M1,51,52,39.5-49.5,67.5,72.5,-77.5,72.5,35,37.5,-40,37.5,95,100,-105,100,210,2,F,SBD,Raw,,SW
Samantha Cox #2,W&G,F-C-M1,61.7,63,39.5-49.5,92.5,97.5,102.5,102.5,-50,52.5,-57.5,52.5,100,-110,-110,100,255,1,F,SBD,Raw,,SW
Fenella Powell,Guest,F-C-G,53.9,57,23.5-38.5,90,-95,-97.5,90,45,47.5,-50,47.5,105,107.5,112.5,112.5,250,G,F,SBD,Raw,,
Kat Armstrong,W&G,F-C-Open,60.7,63,23.5-38.5,75,82.5,90,90,35,40,-45,40,80,87.5,92.5,92.5,222.5,1,F,SBD,Raw,,SW
Indiana Montaque,Guest,F-C-G,66.9,72,23.5-38.5,107.5,112.5,117.5,117.5,57.5,62.5,65,65,162.5,173,181,181,363.5,G,F,SBD,Raw,,
Claire Salem,Guest,F-C-G,69.6,72,23.5-38.5,90,95,-100,95,47.5,52.5,-55,52.5,120,127.5,-132.5,127.5,275,G,F,SBD,Raw,,
Sarah Watkins #2,W&G,F-C-Open,80.3,84,23.5-38.5,115,117.5,120,120,47.5,50,-52.5,50,135,140,145,145,315,1,F,SBD,Raw,,SW
Rebekah Coveney,Guest,F-C-G,76.5,84,23.5-38.5,85,90,-95,90,-55,55,-57.5,55,110,117.5,122.5,122.5,267.5,G,F,SBD,Raw,,
Lucy Ross,Guest,F-C-G,82.8,84,23.5-38.5,90,97.5,102.5,102.5,40,47.5,-52.5,47.5,110,117.5,-125,117.5,267.5,G,F,SBD,Raw,,
Sabrina Rew,Guest,F-C-G,56.2,57,18.5-23.5,95,102.5,110,110,52.5,57.5,62.5,62.5,100,107.5,110,110,282.5,G,F,SBD,Raw,,
Olivia Price,W&G,F-C-U23,61.4,63,18.5-23.5,92.5,-97.5,100,100,50,55,60,60,120,125,130,130,290,1,F,SBD,Raw,,SW
Drew Fackrell,Guest,F-C-G,77.1,84,18.5-23.5,137.5,145,150,150,62.5,67.5,70,70,147.5,155,160,160,380,G,F,SBD,Raw,,
Hannah Beard,Guest,F-C-G,79.6,84,18.5-23.5,112.5,117.5,120,120,50,52.5,55,55,120,127.5,135,135,310,G,F,SBD,Raw,,
Lucy Hepburn,W&G,F-C-U23,78.1,84,18.5-23.5,92.5,-100,107.5,107.5,50,-55,55,55,122.5,130,137.5,137.5,300,3,F,SBD,Raw,,SW
Melissa Bird,W&G,F-C-U23,103.9,84+,18.5-23.5,80,100,120,120,70,77.5,82.5,82.5,100,130,147.5,147.5,350,1,F,SBD,Raw,,SW
Mollie Thorpe,Guest,F-C-G,67.9,72,18.5-23.5,102.5,115,-120,115,50,57.5,62.5,62.5,100,115,122.5,122.5,300,G,F,SBD,Raw,,
Shaun Bateman,W&G,M-C-M2,58.3,59,49.5-59.5,120,130,140,140,85,95,100,100,160,170,180,180,420,1,M,SBD,Raw,,SW
Alex Knox,W&G,M-C-M1,91.2,93,39.5-49.5,-170,170,180,180,100,105,107.5,107.5,180,-200,,180,467.5,1,M,SBD,Raw,,SW
Josh Nicoll,W&G,M-C-Open,66,66,23.5-38.5,125,130,-135,130,102.5,105,-107.5,105,165,175,182.5,182.5,417.5,1,M,SBD,Raw,,SW
Christian Ayandokun,W&G,M-C-Open,74,74,23.5-38.5,180,200,215,215,120,135,147.5,147.5,230,255,275,275,637.5,1,M,SBD,Raw,,SW
Adam Ferret,Guest,M-C-G,79.21,83,23.5-38.5,185,195,205,205,117.5,122.5,-125,122.5,255,265.5,-272.5,265.5,593,G,M,SBD,Raw,,
Jamie Gee,Guest,M-C-G,82.22,83,23.5-38.5,180,200,-205,200,140,-145,145,145,200,210,-215,210,555,G,M,SBD,Raw,,
James Churchill,W&G,M-C-Open,82.27,83,23.5-38.5,145,165,175,175,115,125,132.5,132.5,180,192.5,205,205,512.5,3,M,SBD,Raw,,SW
Christopher Boyd,W&G,M-C-Open,81.35,83,23.5-38.5,-130,130,155,155,90,105,112.5,112.5,150,170,192.5,192.5,460,4,M,SBD,Raw,,SW
Thomas Win,W&G,M-C-Open,81.16,83,23.5-38.5,135,137.5,140,140,65,-70,70,70,160,165,175,175,385,5,M,SBD,Raw,,SW
James Horwood,W&G,M-C-Open,87.11,93,23.5-38.5,155,165,175,175,105,115,120,120,180,200,220,220,515,1,M,SBD,Raw,,SW
Chris Brown #2,W&G,M-C-Open,103.35,105,23.5-38.5,195,207.5,215,215,150,157.5,162.5,162.5,240,255,265,265,642.5,1,M,SBD,Raw,,SW
Doug Arnold #1,Guest,M-C-G,102.95,105,23.5-38.5,205,217.5,227.5,227.5,120,130,137.5,137.5,240,255,260,260,625,G,M,SBD,Raw,,
Ryan Kibble,W&G,M-C-Open,99.17,105,23.5-38.5,170,175,-180,175,142.5,145,-150,145,220,230,-240,230,550,3,M,SBD,Raw,,SW
Ryan Sharvell-Smith,Guest,M-C-G,102.21,105,23.5-38.5,-180,180,190,190,105,-115,115,115,205,215,225,225,530,G,M,SBD,Raw,,
Daniel Coles,W&G,M-C-Open,98.92,105,23.5-38.5,120,130,140,140,70,75,-80,75,190,200,210,210,425,5,M,SBD,Raw,,SW
Paul Bennett #1,W&G,M-C-Open,110,120,23.5-38.5,180,200,220,220,150,165,-175,165,235,260,280,280,665,1,M,SBD,Raw,,SW
James Coleman,Guest,M-C-G,73.41,74,18.5-23.5,-210,210,,210,150,-157.5,-157.5,150,217.5,-230,,217.5,577.5,G,M,SBD,Raw,,
Jim Wilson #3,Guest,M-C-G,73.4,74,18.5-23.5,185,195,205,205,130,140,-145,140,200,210,217.5,217.5,562.5,G,M,SBD,Raw,,
Oliver Smail,Guest,M-C-G,72,74,18.5-23.5,160,167.5,-172.5,167.5,107.5,112.5,-115,112.5,220,232.5,245.5,245.5,525.5,G,M,SBD,Raw,,
James Lopez,Guest,M-C-G,68.41,74,18.5-23.5,95,102.5,107.5,107.5,65,70,75,75,115,125,135,135,317.5,G,M,SBD,Raw,,
Greg Dix,W&G,M-C-U23,81.23,83,18.5-23.5,105,110,115,115,57.5,62.5,65,65,122.5,130,135,135,315,1,M,SBD,Raw,,SW
Jack Clark,Guest,M-C-G,92.08,93,18.5-23.5,215,227.5,235,235,145,150,155,155,255,-265,265,265,655,G,M,SBD,Raw,,
Jack Taylor #2,W&G,M-C-U23,92.46,93,18.5-23.5,200,212.5,220,220,127.5,135,-140,135,225,240,250,250,605,2,M,SBD,Raw,,SW
Sam Kenyon,W&G,M-C-U23,91.86,93,18.5-23.5,175,187.5,195,195,125,132.5,-140,132.5,220,232.5,-240,232.5,560,3,M,SBD,Raw,,SW
Jonathan Hulin,Guest,M-C-G,85.62,93,18.5-23.5,180,190,200,200,125,130,-135,130,200,220,-230,220,550,G,M,SBD,Raw,,
Harry Martin,W&G,M-C-U23,97.94,105,18.5-23.5,-165,170,180,180,120,130,135,135,200,220,-227.5,220,535,1,M,SBD,Raw,,SW
Jake Speller,Guest,M-C-G,116.65,120,18.5-23.5,245,255,-270,255,140,145,150,150,220,240,-262.5,240,645,G,M,SBD,Raw,,
Elliot Leadbeater,Guest,M-C-G,107,120,18.5-23.5,187.5,200,207.5,207.5,130,137.5,147.5,147.5,240,257.5,272.5,272.5,627.5,G,M,SBD,Raw,20,
Harry Fletcher,W&G,M-C-U23,116.43,120,18.5-23.5,-190,190,-195,190,90,100,-105,100,190,200,210,210,500,3,M,SBD,Raw,,SW
Nick Mellor,W&G,M-C-U23,145.63,120+,18.5-23.5,265,280,302.5,302.5,165,175,185,185,260,275,-285,275,762.5,1,M,SBD,Raw,,SW
Joseph Guis-Bourne,W&G,M-C-U23,145.3,120+,18.5-23.5,237.5,250,260,260,177.5,190,-195,190,272.5,287.5,300,300,750,2,M,SBD,Raw,,SW
Matt Botham,W&G,M-C-U18,63.67,66,18.5-23.5,-140,155,170,170,-85,85,90,90,180,-190,190,190,450,1,M,SBD,Raw,,SW
Thomas Ford,W&G,M-C-U18,71.41,74,18.5-23.5,120,127.5,-130,127.5,-120,-125,125,125,160,175,-182.5,175,427.5,1,M,SBD,Raw,,SW
Jed Rawlings,W&G,M-C-U18,67.82,74,18.5-23.5,180,185,-190,185,-120,-125,-125,,215,220,-225,220,,DQ,M,SBD,Raw,,SW
Thomas Russel Cox,W&G,M-C-M4,91.52,93,69.5-79.5,,,,,107.5,112.5,117.5,117.5,,,,,117.5,1,M,B,Raw,,SW
