Division,WeightClassKg,Place,Name,Team,BodyweightKg,Best3SquatKg,Best3BenchKg,Best3DeadliftKg,TotalKg,Equipment,Event,Sex,BirthDate
Boys,51.71,1,Joseph Soto,PSJA Memorial,51.35,92.99,56.7,120.2,269.89,Single-ply,SBD,M,
Boys,51.71,2,Romeo Ramos,PSJA,51.71,72.57,52.16,83.91,208.65,Single-ply,SBD,M,
Boys,55.79,1,Oscar Durate,PSJA Memorial,55.07,136.08,83.91,133.81,353.8,Single-ply,SBD,M,
Boys,55.79,2,Ivan Hernandez,PSJA,55.34,92.99,63.5,90.72,247.21,Single-ply,SBD,M,
Boys,59.87,1,Jacob Solis,PSJA,56.97,174.63,102.06,170.1,446.79,Single-ply,SBD,M,
Boys,59.87,2,Brenden Gonzalez,PSJA Memorial,59.56,129.27,90.72,147.42,367.41,Single-ply,SBD,M,
Boys,59.87,3,Aaron Martinez,PSJA Southwest,56.84,136.08,79.38,149.69,365.14,Single-ply,SBD,M,
Boys,59.87,4,Juan Ramirez,PSJA Memorial,59.47,120.2,61.23,151.95,333.39,Single-ply,SBD,M,
Boys,67.13,1,Tyler Rosales,PSJA North,66.81,215.46,136.08,219.99,571.53,Single-ply,SBD,M,
Boys,67.13,2,Michael Morgan,PSJA Memorial,65.09,188.24,133.81,183.7,505.76,Single-ply,SBD,M,
Boys,67.13,3,Joel Sanchez,PSJA Southwest,61.46,122.47,72.57,117.93,312.98,Single-ply,SBD,M,
Boys,67.13,4,Eduardo Lopez,PSJA Southwest,60.42,86.18,49.9,117.93,254.01,Single-ply,SBD,M,
Boys,67.13,5,Sergio Reyes,PSJA Southwest,67.09,74.84,61.23,97.52,233.6,Single-ply,SBD,M,
Boys,74.84,1,Ramiro Yanez,PSJA,74.07,254.01,136.08,258.55,648.64,Single-ply,SBD,M,
Boys,74.84,2,Jacob Olivarez,PSJA Memorial,73.26,229.06,140.61,226.8,596.47,Single-ply,SBD,M,
Boys,74.84,3,Ethan Soto,PSJA North,74.8,206.38,122.47,210.92,539.77,Single-ply,SBD,M,
Boys,74.84,4,Edgar Duran,PSJA North,73.62,206.38,124.74,206.38,537.51,Single-ply,SBD,M,
Boys,74.84,5,Luis Sanchez,PSJA North,74.53,192.78,122.47,210.92,526.17,Single-ply,SBD,M,
Boys,74.84,6,Mauricio Alaniz,PSJA Memorial,74.48,190.51,124.74,192.78,508.02,Single-ply,SBD,M,
Boys,74.84,7,Sahdra Ortega,PSJA Southwest,71.03,106.59,74.84,131.54,312.98,Single-ply,SBD,M,
Boys,82.1,1,Jael Bernal,PSJA,80.65,238.14,147.42,208.65,594.21,Single-ply,SBD,M,
Boys,82.1,2,Edgardo Duran,PSJA North,81.33,192.78,88.45,174.63,455.86,Single-ply,SBD,M,
Boys,82.1,3,Lupe Garcia,PSJA Southwest,77.75,154.22,108.86,183.7,446.79,Single-ply,SBD,M,
Boys,82.1,4,Andres Garza,PSJA North,79.65,174.63,106.59,142.88,424.11,Single-ply,SBD,M,
Boys,82.1,5,Roland Escobar,PSJA,80.24,149.69,97.52,149.69,396.89,Single-ply,SBD,M,
Boys,82.1,6,Jetzael Ramos,PSJA Southwest,81.15,138.35,68.04,142.88,349.27,Single-ply,SBD,M,
Boys,89.81,1,Naven Ledesma,PSJA North,84.19,201.85,129.27,183.7,514.83,Single-ply,SBD,M,
Boys,89.81,2,Eluid Serna,PSJA,85.28,181.44,122.47,181.44,485.34,Single-ply,SBD,M,
Boys,89.81,3,Alejandro Corona,PSJA Memorial,89.45,176.9,120.2,172.37,469.47,Single-ply,SBD,M,
Boys,89.81,DQ,Nathan Ledesma,PSJA North,85.82,197.31,129.27,,,Single-ply,SBD,M,
Boys,99.79,1,Isaac Sanchez,PSJA,97.2,217.72,161.03,185.97,564.72,Single-ply,SBD,M,
Boys,99.79,2,Mark Pena,PSJA Memorial,99.16,199.58,129.27,208.65,537.51,Single-ply,SBD,M,
Boys,99.79,3,Herieberto Rocha,PSJA Southwest,93.71,138.35,106.59,151.95,396.89,Single-ply,SBD,M,
Boys,99.79,4,Eddie Guijarro,PSJA Southwest,97.98,122.47,74.84,124.74,322.05,Single-ply,SBD,M,
Boys,99.79,5,Jesus Ponce,PSJA Southwest,92.26,124.74,58.97,113.4,297.1,Single-ply,SBD,M,
Boys,109.77,1,Ayden Sanchez,PSJA North,109.23,249.48,129.27,215.46,594.21,Single-ply,SBD,M,
Boys,109.77,2,Victor Martinez,PSJA Memorial,102.6,233.6,136.08,206.38,576.06,Single-ply,SBD,M,
Boys,109.77,3,Branden Ocha,PSJA,107.05,197.31,120.2,181.44,498.95,Single-ply,SBD,M,
Boys,124.74,1,Anthony Garcia,PSJA North,121.56,299.37,161.03,217.72,678.12,Single-ply,SBD,M,
Boys,124.74,2,Julian Lopez,PSJA Memorial,111.7,249.48,133.81,224.53,607.81,Single-ply,SBD,M,
Boys,124.74,3,Salvador Sanchez,PSJA North,122.92,226.8,147.42,183.7,557.92,Single-ply,SBD,M,
Boys,124.74,4,Sergio Avitua,PSJA,122.47,215.46,117.93,192.78,526.17,Single-ply,SBD,M,
Boys,124.74,5,Lupe Medrano,PSJA,123.2,192.78,106.59,158.76,458.13,Single-ply,SBD,M,
Boys,124.74,6,Josue Martinez,PSJA Southwest,112.49,136.08,90.72,124.74,351.53,Single-ply,SBD,M,
Boys,139.71,1,Leo Pineda,PSJA Memorial,139.16,215.46,136.08,188.24,539.77,Single-ply,SBD,M,
Boys,139.71,2,Jordan Brewster,PSJA North,139.12,206.38,104.33,170.1,480.81,Single-ply,SBD,M,
Boys,139.71,3,Carlos Becerra,PSJA Southwest,139.39,108.86,83.91,124.74,317.51,Single-ply,SBD,M,
Boys,139.71+,1,Jorge Rendon,PSJA,144.24,238.14,154.22,190.51,582.87,Single-ply,SBD,M,
