Division,WeightClassKg,Place,Name,Team,BodyweightKg,Best3SquatKg,Best3BenchKg,Best3DeadliftKg,TotalKg,Equipment,Event,Sex,BirthDate
Boys,55.79,1,Bayardo Arauz,Houston Chavez,55.79,113.4,70.31,102.06,285.76,Single-ply,SBD,M,
Boys,67.13,1,Marco Rodriguez,Dickinson,61.23,140.61,83.91,156.49,381.02,Single-ply,SBD,M,
Boys,67.13,2,Jayden Wagner,Dickinson,63.5,129.27,68.04,181.44,378.75,Single-ply,SBD,M,
Boys,67.13,3,Ernesto Trevino,Dickinson,61.35,129.27,83.91,151.95,365.14,Single-ply,SBD,M,
Boys,67.13,4,Zachary Mullenax,Dickinson,62.6,102.06,58.97,120.2,281.23,Single-ply,SBD,M,
Boys,74.84,1,Jake Pubentz,Houston Clear Lake,73.48,206.38,138.35,183.7,528.44,Single-ply,SBD,M,
Boys,74.84,2,Aaron Arratia,Dickinson,69.97,158.76,70.31,170.1,399.16,Single-ply,SBD,M,
Boys,74.84,3,Nicholas Ross,Dickinson,70.87,127.01,74.84,136.08,337.93,Single-ply,SBD,M,
Boys,74.84,4,Tristen Munoz,Dickinson,71.78,127.01,72.57,136.08,335.66,Single-ply,SBD,M,
Boys,74.84,5,Johnny Sanchez,Houston Chavez,68.95,104.33,70.31,113.4,288.03,Single-ply,SBD,M,
Boys,74.84,6,Haven Livington,Houston Chavez,69.97,113.4,70.31,92.99,276.69,Single-ply,SBD,M,
Boys,82.1,1,Esteban Nava,Pasadena Rayburn,81.65,174.63,104.33,235.87,514.83,Single-ply,SBD,M,
Boys,82.1,2,Clinton Perkins,Dickinson,79.04,145.15,92.99,163.29,401.43,Single-ply,SBD,M,
Boys,82.1,3,Taylor Vercher,Pasadena Rayburn,80.4,113.4,77.11,136.08,326.59,Single-ply,SBD,M,
Boys,89.81,1,Kane Jordan,Dickinson,82.55,183.7,99.79,183.7,467.2,Single-ply,SBD,M,
Boys,89.81,2,Bryce Causey,Dickinson,85.16,147.42,83.91,142.88,374.21,Single-ply,SBD,M,
Boys,89.81,3,Austin Maki,Dickinson,84.71,117.93,56.7,133.81,308.44,Single-ply,SBD,M,
Boys,99.79,1,Oscar Flores,Dickinson,94.57,185.97,117.93,204.12,508.02,Single-ply,SBD,M,
Boys,99.79,2,Alex Allen,Dickinson,95.37,204.12,102.06,192.78,498.95,Single-ply,SBD,M,
Boys,99.79,3,Lane Orchard,Dickinson,90.83,172.37,90.72,190.51,453.59,Single-ply,SBD,M,
Boys,99.79,4,Kleber Blanco,Pasadena Rayburn,98.77,156.49,81.65,174.63,412.77,Single-ply,SBD,M,
Boys,99.79,5,Aaron Hernandez,Dickinson,97.52,117.93,72.57,142.88,333.39,Single-ply,SBD,M,
Boys,109.77,1,Max Vasquez,Dickinson,107.95,163.29,79.38,149.69,392.36,Single-ply,SBD,M,
Boys,109.77,2,Levi Miller,Dickinson,108.52,145.15,90.72,136.08,371.95,Single-ply,SBD,M,
Boys,109.77,3,Alejandro Guajardo,Pasadena Rayburn,106.93,106.59,56.7,115.67,278.96,Single-ply,SBD,M,
Boys,124.74,1,DeShawn King,Pasadena Rayburn,112.6,204.12,113.4,199.58,517.1,Single-ply,SBD,M,
Boys,124.74,2,Aaron Moran,Dickinson,112.04,127.01,83.91,145.15,356.07,Single-ply,SBD,M,
Boys,124.74,3,Richard Hernandez,Houston Chavez,124.74,120.2,65.77,113.4,299.37,Single-ply,SBD,M,
Boys,139.71,1,Riley Hall,Dickinson,135.06,183.7,111.13,170.1,464.93,Single-ply,SBD,M,
Boys,139.71+,1,Marlaun Frank,Houston Chavez,174.91,138.35,79.38,136.08,353.8,Single-ply,SBD,M,
