Division,WeightClassKg,Place,Name,Team,BodyweightKg,Best3SquatKg,Best3BenchKg,Best3DeadliftKg,TotalKg,Equipment,Event,Sex,BirthDate
Boys,51.71,1,Jordan Barlagne,Leonard,51.48,133.81,74.84,142.88,351.53,Single-ply,SBD,M,
Boys,51.71,2,Joseph McClure,Peaster,51.53,129.27,68.04,136.08,333.39,Single-ply,SBD,M,
Boys,51.71,3,Joel Gainzar,Pilot Point,51.39,120.2,68.04,124.74,312.98,Single-ply,SBD,M,
Boys,51.71,4,Nicky Diaz,Nocona,51.26,111.13,72.57,106.59,290.3,Single-ply,SBD,M,
Boys,51.71,5,Brian Usrey,Bells,45.77,83.91,47.63,92.99,224.53,Single-ply,SBD,M,
Boys,51.71,6,Cole Welch,Brock,47.81,86.18,40.82,90.72,217.72,Single-ply,SBD,M,
Boys,51.71,NS,Hank Hamilton,Callisburg,,,,,,Single-ply,SBD,M,
Boys,51.71,NS,Aiden Galaviz,Valley View,,,,,,Single-ply,SBD,M,
Boys,51.71,DQ,Gage Dyer,Valley View,51.03,113.4,45.36,,,Single-ply,SBD,M,
Boys,51.71,DQ,Colby Murphey,Ponder,49.99,,,,,Single-ply,SBD,M,
Boys,55.79,1,Destin Warr,Callisburg,54.98,151.95,97.52,167.83,417.3,Single-ply,SBD,M,
Boys,55.79,2,Miguel Olivares,Nocona,55.7,149.69,86.18,158.76,394.63,Single-ply,SBD,M,
Boys,55.79,3,Lisandro Ortiz,Dublin,55.34,142.88,83.91,165.56,392.36,Single-ply,SBD,M,
Boys,55.79,4,Jose Martinez,Commerce,53.61,142.88,79.38,161.03,383.29,Single-ply,SBD,M,
Boys,55.79,5,Colton Covington,Bowie,53.39,127.01,83.91,149.69,360.61,Single-ply,SBD,M,
Boys,55.79,6,Kyle Gore,Millsap,55.43,136.08,86.18,129.27,351.53,Single-ply,SBD,M,
Boys,55.79,7,Christian Brock,Bonham,55.66,108.86,83.91,129.27,322.05,Single-ply,SBD,M,
Boys,55.79,8,James Allison,Bowie,54.39,117.93,70.31,115.67,303.91,Single-ply,SBD,M,
Boys,55.79,9,Nick Mills,Henrietta,54.2,104.33,68.04,124.74,297.1,Single-ply,SBD,M,
Boys,55.79,10,Gavin Garcia,Brock,55.52,102.06,58.97,117.93,278.96,Single-ply,SBD,M,
Boys,55.79,11,Bryson Brunson,Brock,54.98,111.13,45.36,113.4,269.89,Single-ply,SBD,M,
Boys,55.79,12,Riley Newbanks,Ponder,55.79,95.25,54.43,113.4,263.08,Single-ply,SBD,M,
Boys,59.87,1,Payton Cole,Bells,58.11,190.51,120.2,167.83,478.54,Single-ply,SBD,M,
Boys,59.87,2,Cooper McShan,Bowie,57.15,165.56,102.06,163.29,430.91,Single-ply,SBD,M,
Boys,59.87,3,Damian Estrada,Paradise,59.87,172.37,97.52,149.69,419.57,Single-ply,SBD,M,
Boys,59.87,4,Dorian Ellis,Nocona,59.24,147.42,83.91,167.83,399.16,Single-ply,SBD,M,
Boys,59.87,5,Michael Williams,Henrietta,59.6,147.42,77.11,156.49,381.02,Single-ply,SBD,M,
Boys,59.87,6,Adam Spharler,Dublin,58.47,136.08,83.91,158.76,378.75,Single-ply,SBD,M,
Boys,59.87,7,Cameron Patton,Dublin,58.92,140.61,99.79,136.08,376.48,Single-ply,SBD,M,
Boys,59.87,8,Lewis Northridge,Comanche,59.6,136.08,88.45,142.88,367.41,Single-ply,SBD,M,
Boys,59.87,9,Kendall Andrade,Breckenridge,59.51,136.08,74.84,149.69,360.61,Single-ply,SBD,M,
Boys,59.87,10,John Sackett,Breckenridge,58.92,127.01,68.04,138.35,333.39,Single-ply,SBD,M,
Boys,59.87,NS,Claetyn Moore,Ponder,,,,,,Single-ply,SBD,M,
Boys,59.87,DQ,Axel Rangel,Comanche,57.24,,,,,Single-ply,SBD,M,
Boys,59.87,DQ,Alex Saucedo,Breckenridge,57.52,,,,,Single-ply,SBD,M,
Boys,67.13,1,Ignacio Salas,Whitesboro,66.81,233.6,149.69,238.14,621.42,Single-ply,SBD,M,
Boys,67.13,2,Jeffrey Boyd,Bells,66.54,210.92,133.81,213.19,557.92,Single-ply,SBD,M,
Boys,67.13,3,Josh Barlagne,Leonard,66,195.04,113.4,192.78,501.22,Single-ply,SBD,M,
Boys,67.13,4,Jacob Smith,Whitesboro,66.36,185.97,115.67,199.58,501.22,Single-ply,SBD,M,
Boys,67.13,5,Antonio Garcia,Breckenridge,63.55,190.51,106.59,183.7,480.81,Single-ply,SBD,M,
Boys,67.13,6,Cosme Gonzalez,Comanche,66.32,181.44,106.59,192.78,480.81,Single-ply,SBD,M,
Boys,67.13,7,Alex LeBrada,Whitesboro,65.77,176.9,113.4,179.17,469.47,Single-ply,SBD,M,
Boys,67.13,8,Elijah Gonzales,Dublin,66.63,190.51,104.33,172.37,467.2,Single-ply,SBD,M,
Boys,67.13,9,Mason Hodges,Ponder,64.5,185.97,102.06,174.63,462.66,Single-ply,SBD,M,
Boys,67.13,10,Cale Bramblett,Brock,66.18,158.76,88.45,195.04,442.25,Single-ply,SBD,M,
Boys,67.13,11,Lane Medlock,Boyd,65,158.76,95.25,185.97,439.98,Single-ply,SBD,M,
Boys,67.13,12,Asher Contreras,Whitesboro,65.5,176.9,104.33,158.76,439.98,Single-ply,SBD,M,
Boys,67.13,13,Griffin Cheslock,Brock,65,149.69,92.99,188.24,430.91,Single-ply,SBD,M,
Boys,74.84,1,Ian Cortez,Bangs,72.62,240.4,142.88,233.6,616.89,Single-ply,SBD,M,
Boys,74.84,2,Lane Kendrick,Bells,72.53,226.8,151.95,226.8,605.55,Single-ply,SBD,M,
Boys,74.84,3,Tin Nguyen,Wichita Falls City View,73.57,240.4,120.2,238.14,598.74,Single-ply,SBD,M,
Boys,74.84,4,Ethan Fort,Lone Oak,72.48,256.28,120.2,213.19,589.67,Single-ply,SBD,M,
Boys,74.84,5,Luis Ordoñez,Dublin,73.57,192.78,138.35,201.85,532.97,Single-ply,SBD,M,
Boys,74.84,6,Easton Gonzalez,Comanche,72.62,190.51,117.93,197.31,505.76,Single-ply,SBD,M,
Boys,74.84,7,Alan Garza,Comanche,73.62,188.24,117.93,190.51,496.68,Single-ply,SBD,M,
Boys,74.84,8,Heith Lewis,Peaster,73.62,195.04,111.13,181.44,487.61,Single-ply,SBD,M,
Boys,74.84,9,Sawyer Wimberly,Breckenridge,73.98,185.97,106.59,192.78,485.34,Single-ply,SBD,M,
Boys,74.84,10,Anthony Perez,Lone Oak,73.8,190.51,99.79,183.7,474,Single-ply,SBD,M,
Boys,74.84,11,Mason Rogers,Leonard,70.44,172.37,86.18,204.12,462.66,Single-ply,SBD,M,
Boys,74.84,DQ,Mikey Martinez,Jacksboro,69.99,204.12,124.74,,,Single-ply,SBD,M,
Boys,74.84,DQ,Jake Pierce,Brock,74.57,,,,,Single-ply,SBD,M,
Boys,82.1,1,Gage Mauch,Lone Oak,80.83,260.82,156.49,244.94,662.24,Single-ply,SBD,M,
Boys,82.1,2,Caden Smith,Ponder,82.05,226.8,140.61,238.14,605.55,Single-ply,SBD,M,
Boys,82.1,3,Ashton Reyes,Breckenridge,80.65,231.33,145.15,224.53,601.01,Single-ply,SBD,M,
Boys,82.1,4,Niko Tinsley,Wichita Falls City View,76.34,219.99,124.74,226.8,571.53,Single-ply,SBD,M,
Boys,82.1,5,Cade Bauman,Comanche,76.97,213.19,149.69,206.38,569.26,Single-ply,SBD,M,
Boys,82.1,6,Kole Weaver,Millsap,78.47,219.99,122.47,204.12,546.58,Single-ply,SBD,M,
Boys,82.1,7,Michael Nelson,Boyd,81.83,197.31,117.93,226.8,542.04,Single-ply,SBD,M,
Boys,82.1,8,John Wheeler,Leonard,79.97,197.31,147.42,181.44,526.17,Single-ply,SBD,M,
Boys,82.1,9,Zion Richardson,Sadler S & S Consolidated,80.42,217.72,115.67,188.24,521.63,Single-ply,SBD,M,
Boys,82.1,10,Dalton Doyle,Leonard,78.52,172.37,124.74,195.04,492.15,Single-ply,SBD,M,
Boys,82.1,DQ,Landon Wilson,Nocona,80.74,190.51,138.35,,,Single-ply,SBD,M,
Boys,82.1,DQ,Tad Tamplen,Ponder,79.97,231.33,122.47,,,Single-ply,SBD,M,
Boys,82.1,DQ,Wyatt Lacy,Peaster,78.34,249.48,120.2,,,Single-ply,SBD,M,
Boys,89.81,1,Jourdain Durham,Wichita Falls City View,87.41,274.42,183.7,242.67,700.8,Single-ply,SBD,M,
Boys,89.81,2,Christian Mena,Bells,89.58,240.4,163.29,235.87,639.57,Single-ply,SBD,M,
Boys,89.81,3,Angel Cruz,Whitewright,88.99,222.26,156.49,215.46,594.21,Single-ply,SBD,M,
Boys,89.81,4,Bernie Ortega,Dublin,86.59,208.65,145.15,235.87,589.67,Single-ply,SBD,M,
Boys,89.81,5,Johnny Arena,Bowie,85.55,233.6,129.27,192.78,555.65,Single-ply,SBD,M,
Boys,89.81,6,Kasey Sanders,Whitewright,85.59,213.19,142.88,190.51,546.58,Single-ply,SBD,M,
Boys,89.81,7,Colby Price,Bowie,88.9,233.6,124.74,176.9,535.24,Single-ply,SBD,M,
Boys,89.81,8,Jacory Bush,Leonard,88.36,181.44,145.15,190.51,517.1,Single-ply,SBD,M,
Boys,89.81,9,Jeremiah Velton,Whitesboro,86.95,210.92,88.45,204.12,503.49,Single-ply,SBD,M,
Boys,89.81,NS,Juan Araujo,Dallas A+,,,,,,Single-ply,SBD,M,
Boys,89.81,NS,Xander Silva,Breckenridge,,,,,,Single-ply,SBD,M,
Boys,89.81,DQ,Cade Harris,Brock,88.63,,,,,Single-ply,SBD,M,
Boys,89.81,DQ,Cole Faires,Peaster,88.31,,,,,Single-ply,SBD,M,
Boys,99.79,1,Shane Davis,Whitewright,98.16,272.16,185.97,260.82,718.94,Single-ply,SBD,M,
Boys,99.79,2,Zack Shivers,Brock,98.47,272.16,181.44,226.8,680.39,Single-ply,SBD,M,
Boys,99.79,3,Brooks Clippinger,Early,95.84,272.16,149.69,235.87,657.71,Single-ply,SBD,M,
Boys,99.79,4,Aldo Calvillo,Millsap,95.25,260.82,142.88,231.33,635.03,Single-ply,SBD,M,
Boys,99.79,5,Dom Rios,Comanche,98.79,238.14,142.88,249.48,630.49,Single-ply,SBD,M,
Boys,99.79,6,Jacob Weir,Callisburg,96.98,238.14,151.95,224.53,614.62,Single-ply,SBD,M,
Boys,99.79,7,Adam Meuller,Brock,97.7,249.48,147.42,204.12,601.01,Single-ply,SBD,M,
Boys,99.79,8,Henry Serrano,Commerce,92.76,233.6,145.15,219.99,598.74,Single-ply,SBD,M,
Boys,99.79,9,Braylin Garcia,Leonard,95.98,226.8,161.03,172.37,560.19,Single-ply,SBD,M,
Boys,99.79,10,Jessie Rodriguez,Boyd,96.98,231.33,127.01,199.58,557.92,Single-ply,SBD,M,
Boys,99.79,11,Peyton Barthold,Valley View,96.52,208.65,95.25,226.8,530.7,Single-ply,SBD,M,
Boys,99.79,12,Marshall Knowlton,Whitesboro,95.84,185.97,111.13,231.33,528.44,Single-ply,SBD,M,
Boys,99.79,NS,Ryan Rodriguez,Blue Ridge,,,,,,Single-ply,SBD,M,
Boys,109.77,1,Brayden Harris,Leonard,107.27,272.16,176.9,233.6,682.66,Single-ply,SBD,M,
Boys,109.77,2,Harley Davis,Breckenridge,105.28,294.84,124.74,260.82,680.39,Single-ply,SBD,M,
Boys,109.77,3,Michael Stanley,Dublin,102.74,249.48,181.44,235.87,666.78,Single-ply,SBD,M,
Boys,109.77,4,Kadyn Mathews,Brock,105.87,231.33,181.44,226.8,639.57,Single-ply,SBD,M,
Boys,109.77,5,Marc Anthony Gonzales,Whitewright,108.73,247.21,149.69,238.14,635.03,Single-ply,SBD,M,
Boys,109.77,6,Jackson Hofbauer,Bowie,107.14,258.55,147.42,224.53,630.49,Single-ply,SBD,M,
Boys,109.77,7,Justin McBride,Bonham,109,256.28,154.22,210.92,621.42,Single-ply,SBD,M,
Boys,109.77,8,Josh Tucker,Paradise,104.24,238.14,136.08,238.14,612.35,Single-ply,SBD,M,
Boys,109.77,9,Bradley Carruth,Bonham,107.86,229.06,145.15,217.72,591.94,Single-ply,SBD,M,
Boys,109.77,10,Jakob Reed,Henrietta,103.28,226.8,138.35,215.46,580.6,Single-ply,SBD,M,
Boys,109.77,11,Bryan DeLeon,Ponder,108.91,233.6,131.54,195.04,560.19,Single-ply,SBD,M,
Boys,109.77,12,Jacob Castillo,Whitesboro,107.14,210.92,131.54,204.12,546.58,Single-ply,SBD,M,
Boys,124.74,1,Bryan Arellano,Bowie,117.93,317.51,192.78,199.58,709.87,Single-ply,SBD,M,
Boys,124.74,2,Isaak Eutimio,Breckenridge,111.08,265.35,183.7,222.26,671.32,Single-ply,SBD,M,
Boys,124.74,3,Ethan Morin,Comanche,119.43,256.28,165.56,240.4,662.24,Single-ply,SBD,M,
Boys,124.74,4,Cooper Sharp,Peaster,113.26,249.48,147.42,251.74,648.64,Single-ply,SBD,M,
Boys,124.74,5,Mosiah Lolohea,Dublin,116.07,238.14,161.03,249.48,648.64,Single-ply,SBD,M,
Boys,124.74,6,Jack Porter,Bonham,117.89,269.89,156.49,219.99,646.37,Single-ply,SBD,M,
Boys,124.74,7,Gabe Arencibia,Bowie,114.99,238.14,140.61,222.26,601.01,Single-ply,SBD,M,
Boys,124.74,8,Davonte McCleveland,Dallas Life Oak Cliff,123.29,249.48,124.74,204.12,578.33,Single-ply,SBD,M,
Boys,124.74,9,Joe Green,Ponder,112.22,240.4,136.08,195.04,571.53,Single-ply,SBD,M,
Boys,124.74,10,Nathaniel Aguilar,Breckenridge,121.43,219.99,136.08,195.04,551.11,Single-ply,SBD,M,
Boys,124.74,11,Salvador Anaya,Comanche,110.86,219.99,117.93,206.38,544.31,Single-ply,SBD,M,
Boys,124.74,12,Brock Riker,Brock,112.17,215.46,124.74,204.12,544.31,Single-ply,SBD,M,
Boys,124.74,NS,Hunter Fay,Brock,,,,,,Single-ply,SBD,M,
Boys,139.71,1,Mason Hill,Wichita Falls City View,125.24,317.51,174.63,272.16,764.3,Single-ply,SBD,M,
Boys,139.71,2,Kellen Rollins,Blue Ridge,135.9,272.16,158.76,226.8,657.71,Single-ply,SBD,M,
Boys,139.71,3,William Estel,Boyd,126.37,263.08,142.88,181.44,587.4,Single-ply,SBD,M,
Boys,139.71,4,Gavin Neece,Lone Oak,125.92,251.74,129.27,204.12,585.13,Single-ply,SBD,M,
Boys,139.71,5,Noah Pin,Bangs,135.71,231.33,122.47,192.78,546.58,Single-ply,SBD,M,
Boys,139.71,6,Diesel Wanamaker,Callisburg,128.46,195.04,106.59,208.65,510.29,Single-ply,SBD,M,
Boys,139.71,7,Jacobi McGregor,Bowie,130.54,179.17,117.93,172.37,469.47,Single-ply,SBD,M,
Boys,139.71,8,Jacob Bavlinka,Lone Oak,136.62,136.08,102.06,136.08,374.21,Single-ply,SBD,M,
Boys,139.71,DQ,William Fleming,Howe,129,260.82,136.08,,,Single-ply,SBD,M,
Boys,139.71+,1,Coleton Price,Bowie,140.34,328.85,154.22,249.48,732.55,Single-ply,SBD,M,
Boys,139.71+,2,Noah Howell,Commerce,149.59,274.42,161.03,281.23,716.68,Single-ply,SBD,M,
Boys,139.71+,3,Derek Patterson,Lone Oak,142.79,285.76,154.22,226.8,666.78,Single-ply,SBD,M,
Boys,139.71+,4,Manny Segundo,Pilot Point,158.62,226.8,120.2,204.12,551.11,Single-ply,SBD,M,
Boys,139.71+,5,Spencer Johnson,Peaster,140.7,213.19,138.35,185.97,537.51,Single-ply,SBD,M,
Boys,139.71+,6,Billy Bottorff,Millsap,173.05,238.14,97.52,197.31,532.97,Single-ply,SBD,M,
Boys,139.71+,7,Carson Culp,Pottsboro,153.5,204.12,122.47,190.51,517.1,Single-ply,SBD,M,
Boys,139.71+,8,Eddy Henrnadez,Dublin,141.57,190.51,124.74,199.58,514.83,Single-ply,SBD,M,
Boys,139.71+,9,Joseph Monroe,Bells,173.77,217.72,127.01,158.76,503.49,Single-ply,SBD,M,
Boys,139.71+,10,Landon Deters,Comanche,175.54,192.78,111.13,192.78,496.68,Single-ply,SBD,M,
Boys,139.71+,11,Braxton Armstrong,Leonard,151.5,172.37,129.27,163.29,464.93,Single-ply,SBD,M,
Boys,139.71+,NS,Hector Mares,Dallas A+,,,,,,Single-ply,SBD,M,
