Division,WeightClassKg,Place,Name,Team,BodyweightKg,Best3SquatKg,Best3BenchKg,Best3DeadliftKg,TotalKg,Equipment,Event,Sex,BirthDate
Boys,51.71,1,Chris Minor,Ralls,51.71,99.79,72.57,120.2,292.57,Single-ply,SBD,M,
Boys,51.71,2,Trace Price,Post,49.9,79.38,45.36,90.72,215.46,Single-ply,SBD,M,
Boys,51.71,NS,Mathias Zavala,Ralls,,,,,,Single-ply,SBD,M,
Boys,59.87,1,Eric Cruz,Lubbock Roosevelt,58.51,183.7,104.33,167.83,455.86,Single-ply,SBD,M,
Boys,67.13,1,Trae Zavala III,Ralls,63.05,163.29,108.86,174.63,446.79,Single-ply,SBD,M,
Boys,67.13,2,Jesus Montoya,Post,66.95,170.1,106.59,149.69,426.38,Single-ply,SBD,M,
Boys,67.13,3,Cyrus Marquez,Post,65.23,124.74,88.45,158.76,371.95,Single-ply,SBD,M,
Boys,67.13,4,Samuel Walls,Post,65.95,136.08,77.11,158.76,371.95,Single-ply,SBD,M,
Boys,67.13,5,Ian Vegara,Post,63.68,142.88,77.11,145.15,365.14,Single-ply,SBD,M,
Boys,67.13,6,Quincy Graham,Slaton,66.32,129.27,81.65,145.15,356.07,Single-ply,SBD,M,
Boys,67.13,DQ,Austin Simmons,Slaton,61.51,,,,,Single-ply,SBD,M,
Boys,67.13,DQ,Branson Harris,Post,64.05,,,,,Single-ply,SBD,M,
Boys,74.84,1,Steve Salazar,Ralls,74.62,185.97,120.2,190.51,496.68,Single-ply,SBD,M,
Boys,74.84,2,CJ Anzley,Slaton,74.75,172.37,122.47,190.51,485.34,Single-ply,SBD,M,
Boys,74.84,3,Bryson Salazar,Slaton,73.66,163.29,129.27,172.37,464.93,Single-ply,SBD,M,
Boys,74.84,4,Jayden Garcia,Slaton,74.84,124.74,88.45,142.88,356.07,Single-ply,SBD,M,
Boys,82.1,1,Alex Trevino,Lubbock Roosevelt,79.83,249.48,120.2,238.14,607.81,Single-ply,SBD,M,
Boys,89.81,1,Nate Gensler,Lubbock Roosevelt,83.01,242.67,136.08,233.6,612.35,Single-ply,SBD,M,
Boys,89.81,2,Sergio Salinas,Ralls,83.91,226.8,127.01,238.14,591.94,Single-ply,SBD,M,
Boys,89.81,3,Trent Wright,Slaton,88,206.38,122.47,215.46,544.31,Single-ply,SBD,M,
Boys,89.81,4,CJ Linarez,Slaton,86,174.63,102.06,192.78,469.47,Single-ply,SBD,M,
Boys,89.81,DQ,Stephen Gamondedo,Post,85.91,,,,,Single-ply,SBD,M,
Boys,99.79,1,JJ Diaz,Lubbock Roosevelt,94.98,285.76,161.03,251.74,698.53,Single-ply,SBD,M,
Boys,99.79,2,Alejandro Rodriguez,Post,92.99,185.97,127.01,172.37,485.34,Single-ply,SBD,M,
Boys,109.77,1,Daniel Leyva,Slaton,102.06,240.4,149.69,188.24,578.33,Single-ply,SBD,M,
Boys,109.77,2,Bobby Quintero,Slaton,104.78,147.42,90.72,154.22,392.36,Single-ply,SBD,M,
Boys,124.74,1,Alex Quintero,Slaton,123.92,231.33,158.76,219.99,610.08,Single-ply,SBD,M,
Boys,124.74,2,Landon Hair,Post,122.38,188.24,124.74,170.1,483.08,Single-ply,SBD,M,
Boys,124.74,3,Zane Mendez,Ralls,117.48,188.24,90.72,183.7,462.66,Single-ply,SBD,M,
Boys,124.74,4,Gabe Perez,Post,118.39,185.97,90.72,165.56,442.25,Single-ply,SBD,M,
Boys,139.71,1,Nykolas Alcala,Ralls,129.27,240.4,127.01,190.51,557.92,Single-ply,SBD,M,
Boys,139.71,2,Seth Olguin,Ralls,129.27,124.74,68.04,158.76,351.53,Single-ply,SBD,M,
Boys,139.71,3,Nathaniel Norgaard,Ralls,128.37,108.86,65.77,127.01,301.64,Single-ply,SBD,M,
