Name,BirthDate,Division,BodyweightKg,WeightClassKg,Squat1Kg,Squat2Kg,Squat3Kg,Best3SquatKg,Bench1Kg,Bench2Kg,Bench3Kg,Best3BenchKg,Deadlift1Kg,Deadlift2Kg,Deadlift3Kg,Best3DeadliftKg,TotalKg,Team,Sex,Event,Equipment,Place
Cheryl Anderson,1975-05-25,F-O,46.5,48,107.5,120,127.5,127.5,-70,72.5,77.5,77.5,130,145,150,150,355,,F,SBD,Single-ply,1
Kendra Miller #1,1992-04-19,F-O,47.6,48,130,140,-145,140,60,65,70,70,-130,130,-145,130,340,Titan,F,SBD,Single-ply,2
Erin Dickey,1984-03-13,F-O,46.4,48,105,120,130,130,62.5,70,72.5,72.5,112.5,130,-140,130,332.5,Titan,F,SBD,Single-ply,3
Maria Pfister,1984-06-02,F-O,44,48,112.5,122.5,-127.5,122.5,67.5,-72.5,-72.5,67.5,110,125,130,130,320,,F,SBD,Single-ply,4
Jonna O'Campo,1969-11-27,F-O,46.1,48,107.5,-120,122.5,122.5,60,-62.5,-62.5,60,120,-127.5,130,130,312.5,Phantom,F,SBD,Single-ply,5
Maura Shuttleworth,1976-03-03,F-O,47.5,48,-105,105,-120,105,72.5,-77.5,77.5,77.5,112.5,117.5,-127.5,117.5,300,,F,SBD,Single-ply,6
Suzanne Hartwig-Gary,1968-10-05,F-O,51.8,52,152.5,-162.5,162.5,162.5,92.5,-97.5,-97.5,92.5,145,155,162.5,162.5,417.5,Titan,F,SBD,Single-ply,1
Rowena Lopez,1977-03-15,F-O,50.4,52,-120,120,-135,120,60,65,-67.5,65,135,142.5,155,155,340,,F,SBD,Single-ply,2
Jennifer Maile,1984-05-14,F-O,55.7,56,140,147.5,152.5,152.5,-90,90,95,95,140,152.5,-157.5,152.5,400,Titan,F,SBD,Single-ply,1
Ashley Matherne,1983-07-19,F-O,55.4,56,130,142.5,-150,142.5,87.5,92.5,97.5,97.5,137.5,150,-160,150,390,Magendie,F,SBD,Single-ply,2
Katie Van Dusen,1988-09-08,F-O,55.8,56,147.5,-160,-160,147.5,80,87.5,-90,87.5,145,155,-157.5,155,390,,F,SBD,Single-ply,3
Kristen Yukness,1976-06-14,F-O,55.7,56,110,-120,120,120,62.5,70,-75,70,115,127.5,137.5,137.5,327.5,AK Iron MDN,F,SBD,Single-ply,4
Jennifer Perry #1,1982-05-21,F-O,59.6,60,155,165,175,175,87.5,95,100,100,160,-172.5,185,185,460,Titan,F,SBD,Single-ply,1
Jennifer Thompson #1,1973-06-27,F-O,59.3,60,150,157.5,165,165,115,-137.5,-137.5,115,160,172.5,177.5,177.5,457.5,,F,SBD,Single-ply,2
Rita Carlsson,1952-08-21,F-O,59,60,120,132.5,137.5,137.5,57.5,62.5,-67.5,62.5,145,155,160,160,360,,F,SBD,Single-ply,3
Priscilla Ribic,1972-11-21,F-O,66.9,67.5,222.5,-240,-240,222.5,125,137.5,-145,137.5,227.5,240,-252.5,240,600,Titan,F,SBD,Single-ply,1
Alyssa Hitchcock,1984-06-07,F-O,60.9,67.5,180,-190,-190,180,87.5,95,97.5,97.5,-177.5,177.5,187.5,187.5,465,Titan,F,SBD,Single-ply,2
Paula Houston,1961-02-10,F-O,66.5,67.5,165,-175,-175,165,102.5,107.5,-110,107.5,167.5,-177.5,177.5,177.5,450,Titan/Phantom,F,SBD,Single-ply,3
Rebecca Crapo,1976-08-11,F-O,65.5,67.5,-127.5,127.5,145,145,82.5,92.5,-95,92.5,150,162.5,-175,162.5,400,AK Iron MDN,F,SBD,Single-ply,4
Donna Marts,1960-03-26,F-O,66.7,67.5,135,142.5,-152.5,142.5,90,-100,100,100,137.5,147.5,150,150,392.5,Titan,F,SBD,Single-ply,5
Ruth Welding,1956-01-04,F-O,64.6,67.5,125,137.5,142.5,142.5,65,75,77.5,77.5,140,150,165,165,385,,F,SBD,Single-ply,6
Kelli Lambert,1979-03-25,F-O,66.5,67.5,130,-147.5,-147.5,130,75,92.5,-97.5,92.5,125,142.5,147.5,147.5,370,,F,SBD,Single-ply,7
Sherry Franks,1963-02-15,F-O,65.2,67.5,110,-125,125,125,75,-82.5,-82.5,75,120,135,142.5,142.5,342.5,AK Iron MDN,F,SBD,Single-ply,8
Disa Hatfield,1974-07-07,F-O,74.6,75,-182.5,182.5,197.5,197.5,112.5,130,-137.5,130,170,182.5,187.5,187.5,515,,F,SBD,Single-ply,1
Cydney Smith,1971-01-15,F-O,72.3,75,155,-165,165,165,-102.5,102.5,107.5,107.5,160,172.5,177.5,177.5,450,,F,SBD,Single-ply,2
Laura Styrlund,1964-05-18,F-O,73.5,75,137.5,-147.5,152.5,152.5,102.5,-110,110,110,172.5,-185,185,185,447.5,,F,SBD,Single-ply,3
Jane Larsen-Welborn,1970-04-26,F-O,73,75,145,-162.5,162.5,162.5,80,92.5,-102.5,92.5,145,165,182.5,182.5,437.5,AK Iron MDN,F,SBD,Single-ply,4
Liane Blyn,1972-09-11,F-O,75.7,82.5,-205,-205,205,205,120,132.5,142.5,142.5,200,212.5,-227.5,212.5,560,Titan,F,SBD,Single-ply,1
Malinda Baum,1963-02-22,F-O,80.8,82.5,165,175,182.5,182.5,95,100,-105,100,175,185,192.5,192.5,475,Phantom,F,SBD,Single-ply,2
Rhonda Clark,1965-11-02,F-O,77.1,82.5,145,155,162.5,162.5,-85,85,92.5,92.5,182.5,195,-205,195,450,Phantom,F,SBD,Single-ply,3
Bonica Brown,1988-08-04,F-O,87.8,90,190,217.5,-232.5,217.5,-110,110,130,130,175,210,227.5,227.5,575,Titan/HOP,F,SBD,Single-ply,1
Jill Arnow,1959-10-19,F-O,89.2,90,175,182.5,-190,182.5,-117.5,-117.5,117.5,117.5,175,-185,185,185,485,,F,SBD,Single-ply,2
Katey Dodge,1981-04-23,F-O,89.8,90,145,160,-172.5,160,97.5,-107.5,-107.5,97.5,137.5,150,160,160,417.5,Hart's HOP,F,SBD,Single-ply,3
Francesca Mangaoang-Brodine,1979-11-21,F-O,89.7,90,-122.5,135,-142.5,135,80,87.5,92.5,92.5,167.5,177.5,187.5,187.5,415,,F,SBD,Single-ply,4
Jessica O'Donnell,1980-11-11,F-O,94.3,90+,242.5,262.5,-272.5,262.5,150,157.5,162.5,162.5,215,-230,-238,215,640,Titan,F,SBD,Single-ply,1
Lana Allen,1988-10-20,F-O,133.6,90+,170,195,210,210,122.5,135,140,140,147.5,165,-182.5,165,515,Hart's HOP,F,SBD,Single-ply,2
Megan Maurer,1976-08-11,F-O,114.4,90+,-157.5,160,180,180,105,112.5,122.5,122.5,142.5,152.5,162.5,162.5,465,,F,SBD,Single-ply,3
Sue Hallen,1957-03-07,F-O,115.5,90+,155,165,-180,165,110,130,-140,130,145,160,-172.5,160,455,,F,SBD,Single-ply,4
Jade Dickens,1974-01-14,F-O,100,90+,150,-160,160,160,-100,100,-107.5,100,137.5,150,160,160,420,Phantom,F,SBD,Single-ply,5
Vanessa Gauthier,1989-09-26,F-O,102.3,90+,-147.5,-147.5,-167.5,,82.5,90,-92.5,90,125,135,147.5,147.5,,,F,SBD,Single-ply,DQ
Monica Johnston,1991-07-12,F-T1,43.8,44,85,-90,-90,85,-42.5,42.5,-45,42.5,95,100,-105,100,227.5,,F,SBD,Single-ply,1
Alesha Summers,1988-01-11,F-T3,43,44,97.5,-110,-112.5,97.5,52.5,-57.5,-57.5,52.5,102.5,112.5,-120,112.5,262.5,Texas A&M,F,SBD,Single-ply,1
Maria Pfister,1984-06-02,F-Jr,44,44,112.5,122.5,-127.5,122.5,67.5,-72.5,-72.5,67.5,110,125,130,130,320,LSU,F,SBD,Single-ply,1
Kendra Miller #1,1992-04-19,F-T1,47.6,48,130,140,-145,140,60,65,70,70,-130,130,-145,130,340,Titan,F,SBD,Single-ply,1
Gina Trinidad,1990-02-14,F-T2,47.6,48,100,107.5,110,110,42.5,-47.5,47.5,47.5,87.5,95,100,100,257.5,,F,SBD,Single-ply,1
Melissa Werner,1989-03-17,F-T2,47,48,100,-105,-105,100,50,-55,-55,50,92.5,-102.5,-107.5,92.5,242.5,Hart's HOP,F,SBD,Single-ply,2
Sarah Nyberg,1987-10-29,F-T3,46.6,48,62.5,-72.5,72.5,72.5,35,-40,-40,35,-75,75,82.5,82.5,190,,F,SBD,Single-ply,1
Erin Dickey,1984-03-13,F-Jr,46.4,48,105,120,130,130,62.5,70,72.5,72.5,112.5,130,-140,130,332.5,Titan,F,SBD,Single-ply,1
Lauren Guidry,1986-08-03,F-Jr,45.8,48,87.5,95,105,105,62.5,-70,70,70,102.5,112.5,-117.5,112.5,287.5,LSU,F,SBD,Single-ply,2
Michelle Van Dusen,1993-02-12,F-T1,48.6,52,92.5,97.5,-102.5,97.5,32.5,-37.5,-37.5,32.5,97.5,107.5,115,115,245,,F,SBD,Single-ply,1
Marlena Daniel,1993-01-14,F-T1,51.7,52,77.5,85,90,90,-42.5,45,47.5,47.5,92.5,100,-107.5,100,237.5,,F,SBD,Single-ply,2
Amanda O'Neal,1989-06-18,F-T2,50.9,52,55,70,-75,70,35,-40,-40,35,75,87.5,97.5,97.5,202.5,,F,SBD,Single-ply,1
Sara Beebe,1988-12-31,F-T3,51.4,52,102.5,-112.5,-112.5,102.5,57.5,62.5,65,65,115,125,-132.5,125,292.5,,F,SBD,Single-ply,1
Kim Douglas,1990-08-13,F-T2,53,56,115,130,135,135,70,72.5,77.5,77.5,127.5,140,-147.5,140,352.5,,F,SBD,Single-ply,1
Mercedes Cernicka,1990-09-26,F-T2,54.8,56,110,-117.5,117.5,117.5,45,47.5,50,50,112.5,117.5,122.5,122.5,290,,F,SBD,Single-ply,2
Kelly Heim,1990-04-06,F-T2,55.7,56,102.5,-112.5,-112.5,102.5,40,45,-50,45,107.5,-117.5,-117.5,107.5,255,,F,SBD,Single-ply,3
Katie Van Dusen,1988-09-08,F-T3,55.8,56,147.5,-160,-160,147.5,80,87.5,-90,87.5,145,155,-157.5,155,390,,F,SBD,Single-ply,1
Samantha Baker,1988-09-22,F-T3,54.5,56,130,-137.5,-137.5,130,55,60,-65,60,-137.5,142.5,147.5,147.5,337.5,LSU,F,SBD,Single-ply,2
Cheylee Lyman,1988-06-30,F-T3,55.9,56,115,-125,-137.5,115,67.5,-77.5,-77.5,67.5,120,132.5,-140,132.5,315,Texas A&M,F,SBD,Single-ply,3
Jennifer Maile,1984-05-14,F-Jr,55.7,56,140,147.5,152.5,152.5,-90,90,95,95,140,152.5,-157.5,152.5,400,Titan,F,SBD,Single-ply,1
Ashley Matherne,1983-07-19,F-Jr,55.4,56,130,142.5,-150,142.5,87.5,92.5,97.5,97.5,137.5,150,-160,150,390,Magendie,F,SBD,Single-ply,2
Kristin Speyerer,1984-11-20,F-Jr,55.1,56,105,115,-127.5,115,62.5,65,70,70,112.5,120,-127.5,120,305,AK Iron MDN,F,SBD,Single-ply,3
Jennifer Daleiden,1987-02-01,F-Jr,54.6,56,102.5,-107.5,-107.5,102.5,52.5,60,-70,60,102.5,105,110,110,272.5,Univ. of TX,F,SBD,Single-ply,4
Elizabeth Feller,1991-12-27,F-T1,57.5,60,95,-110,110,110,50,-62.5,-62.5,50,100,-110,-110,100,260,Hart's HOP,F,SBD,Single-ply,1
Jenna Farek,1985-03-22,F-Jr,59.9,60,130,-137.5,137.5,137.5,67.5,72.5,80,80,135,145,152.5,152.5,370,LSU,F,SBD,Single-ply,1
Meghan Jovanovich,1986-10-16,F-Jr,59.6,60,132.5,-145,-145,132.5,82.5,-92.5,-92.5,82.5,117.5,132.5,-142.5,132.5,347.5,,F,SBD,Single-ply,2
Jillian Daleiden,1987-02-01,F-Jr,58.8,60,92.5,112.5,-120,112.5,77.5,-92.5,-92.5,77.5,102.5,115,-125,115,305,Univ. of TX,F,SBD,Single-ply,3
Jami Beebe,1986-09-29,F-Jr,58.1,60,-85,-85,-85,,62.5,70,-72.5,70,100,115,120,120,,,F,SBD,Single-ply,DQ
Shelby Steele,1991-08-13,F-T1,67.1,67.5,92.5,105,112.5,112.5,52.5,-60,-60,52.5,127.5,-140,140,140,305,,F,SBD,Single-ply,1
Meagan Chappell,1989-04-19,F-T2,64.6,67.5,-127.5,-130,130,130,65,70,75,75,130,145,155,155,360,,F,SBD,Single-ply,1
Kasa Schroer,1989-08-31,F-T2,66,67.5,-145,-145,-145,,82.5,92.5,-100,92.5,125,137.5,-147.5,137.5,,Hart's HOP,F,SBD,Single-ply,DQ
Pamela Bartz,1987-06-06,F-T3,64.6,67.5,135,145,155,155,85,90,95,95,132.5,152.5,165,165,415,Magendie,F,SBD,Single-ply,1
Elizabeth Aldridge,1987-10-26,F-T3,62.9,67.5,122.5,130,137.5,137.5,75,80,-82.5,80,127.5,142.5,-152.5,142.5,360,Magendie,F,SBD,Single-ply,2
Alyssa Hitchcock,1984-06-07,F-Jr,60.9,67.5,180,-190,-190,180,87.5,95,97.5,97.5,-177.5,177.5,187.5,187.5,465,Titan,F,SBD,Single-ply,1
Kayrie Spinney,1986-06-04,F-Jr,61.1,67.5,120,130,-137.5,130,72.5,-75,-75,72.5,130,147.5,155,155,357.5,Magendie,F,SBD,Single-ply,2
Veronica Recio,1987-01-30,F-Jr,65.8,67.5,85,95,100,100,42.5,47.5,50,50,-102.5,102.5,112.5,112.5,262.5,Univ. of TX,F,SBD,Single-ply,3
Adriana DaCosta,1986-05-14,F-Jr,65.5,67.5,-122.5,122.5,135,135,-70,-70,-70,,,,,,,Univ. of TX,F,SBD,Single-ply,DQ
Kami Schroer,1989-08-31,F-T2,70.9,75,100,125,-130,125,82.5,90,95,95,85,110,-120,110,330,Hart's HOP,F,SBD,Single-ply,1
Lena Watson,1989-01-28,F-T3,67.7,75,150,165,180,180,70,80,90,90,147.5,162.5,170,170,440,,F,SBD,Single-ply,1
Daliann James,1987-07-02,F-T3,73,75,-175,-175,-175,,82.5,87.5,92.5,92.5,200,212.5,215,215,,Phantom,F,SBD,Single-ply,DQ
Monica Millet,1987-03-04,F-T3,82.4,82.5,155,170,-180,170,85,92.5,100,100,165,185,-195,185,455,Magendie,F,SBD,Single-ply,1
Tamara Maloun,1989-04-17,F-T2,86.5,90,122.5,132.5,150,150,80,-87.5,87.5,87.5,145,-157.5,-157.5,145,382.5,,F,SBD,Single-ply,1
Hope Block,1989-04-18,F-T2,88.5,90,117.5,135,-142.5,135,65,-77.5,77.5,77.5,117.5,140,-147.5,140,352.5,,F,SBD,Single-ply,2
Bonica Brown,1988-08-04,F-T3,87.8,90,190,217.5,-232.5,217.5,-110,110,130,130,175,210,227.5,227.5,575,Titan/HOP,F,SBD,Single-ply,1
Leigh Arnold,1986-03-14,F-Jr,88.5,90,170,-180,185,185,90,92.5,100,100,165,185,192.5,192.5,477.5,Magendie,F,SBD,Single-ply,1
Allison Mattox,1989-08-01,F-T2,100,90+,147.5,160,-172.5,160,100,110,-115,110,-145,-145,-145,,,,F,SBD,Single-ply,DQ
Vanessa Gauthier,1989-09-26,F-T2,102.3,90+,-147.5,-147.5,-167.5,,82.5,90,-92.5,90,125,135,147.5,147.5,,,F,SBD,Single-ply,DQ
Lana Allen,1988-10-20,F-T3,133.6,90+,170,195,210,210,122.5,135,140,140,147.5,165,-182.5,165,515,Hart's HOP,F,SBD,Single-ply,1
Lauren Harrison-Ware,1988-03-16,F-T3,107.7,90+,142.5,155,167.5,167.5,70,-77.5,85,85,142.5,152.5,-165,152.5,405,LSU,F,SBD,Single-ply,2
Tamara Walter,1987-06-24,F-T3,137.5,90+,-197.5,-197.5,-197.5,,-100,,,,,,,,,Hart's HOP,F,SBD,Single-ply,DQ
Brittney Kean,1986-04-01,F-Jr,129.1,90+,142.5,155,165,165,70,77.5,85,85,142.5,152.5,-162.5,152.5,402.5,LSU,F,SBD,Single-ply,1
Catherine Solan,1958-06-22,F-M1b,43.8,44,100,107.5,110,110,52.5,57.5,-60,57.5,115,122.5,127.5,127.5,295,,F,SBD,Single-ply,1
Ann Leverett,1954-01-29,F-M2a,47.9,48,105,-115,-115,105,72.5,-77.5,-77.5,72.5,135,140,,140,317.5,,F,SBD,Single-ply,1
Joni Mach,1965-06-21,F-M1a,50.9,52,110,-117.5,117.5,117.5,45,50,-52.5,50,112.5,120,127.5,127.5,295,,F,SBD,Single-ply,1
Theresa Michaels-Ward,1963-05-18,F-M1a,50.7,52,82.5,92.5,97.5,97.5,42.5,-47.5,-47.5,42.5,105,115,-117.5,115,255,,F,SBD,Single-ply,2
Vera Nelson,1960-12-03,F-M1b,51.5,52,102.5,-110,-110,102.5,-50,-50,-50,,,,,,,,F,SBD,Single-ply,DQ
Patricia Tidmarsh,1967-09-11,F-M1a,55,56,-117.5,-117.5,-117.5,,,,,,,,,,,,F,SBD,Single-ply,DQ
Kate Dingle-Craig,1957-03-27,F-M1b,55.3,56,-105,-110,115,115,60,67.5,70,70,122.5,135,-142.5,135,320,AK Iron MDN,F,SBD,Single-ply,1
Barb Zintsmaster,1954-12-04,F-M2a,55.5,56,115,-122.5,-122.5,115,57.5,-60,-60,57.5,125,137.5,-145,137.5,310,,F,SBD,Single-ply,1
Angela Simons,1961-10-09,F-M1b,59.2,60,122.5,-137.5,137.5,137.5,75,95,-102.5,95,127.5,140,155,155,387.5,,F,SBD,Single-ply,1
Lanette Lopez,1959-11-13,F-M1b,59.2,60,110,-120,-120,110,55,-60,-60,55,130,137.5,142.5,142.5,307.5,Phantom,F,SBD,Single-ply,2
Patty Burnett,1961-11-16,F-M1b,59.2,60,-92.5,-100,-100,,-72.5,-77.5,-80,,112.5,-117.5,-120,112.5,,,F,SBD,Single-ply,DQ
Rita Carlsson,1952-08-21,F-M2a,59,60,120,132.5,137.5,137.5,57.5,62.5,-67.5,62.5,145,155,160,160,360,,F,SBD,Single-ply,1
Faith Ireland,1942-09-15,F-M3a,59.4,60,-92.5,92.5,102.5,102.5,40,57.5,61.5,61.5,115,122.5,127.5,127.5,291.5,,F,SBD,Single-ply,1
Sherry Franks,1963-02-15,F-M1a,65.2,67.5,110,-125,125,125,75,-82.5,-82.5,75,120,135,142.5,142.5,342.5,AK Iron MDN,F,SBD,Single-ply,1
Caryn Daniel,1963-12-16,F-M1a,65.5,67.5,-115,117.5,-125,117.5,65,70,-75,70,122.5,135,142.5,142.5,330,AK Iron MDN,F,SBD,Single-ply,2
Paula Houston,1961-02-10,F-M1b,66.5,67.5,165,-175,-175,165,102.5,107.5,-110,107.5,167.5,-177.5,177.5,177.5,450,Titan/Phantom,F,SBD,Single-ply,1
Donna Marts,1960-03-26,F-M1b,66.7,67.5,135,142.5,-152.5,142.5,90,-100,100,100,137.5,147.5,150,150,392.5,Titan,F,SBD,Single-ply,2
Gina Stepleton,1958-12-03,F-M1b,66,67.5,80,90,95,95,40,45,47.5,47.5,92.5,102.5,110,110,252.5,Phantom,F,SBD,Single-ply,3
Maureen Post,1957-03-25,F-M1b,66.5,67.5,40,-42.5,-45,40,-95,-95,-95,,-62.5,-62.5,-62.5,,,,F,SBD,Single-ply,DQ
Ruth Welding,1956-01-04,F-M2a,64.6,67.5,125,137.5,142.5,142.5,65,75,77.5,77.5,140,150,165,165,385,,F,SBD,Single-ply,1
Gail Moore,1947-09-03,F-M2b,66.5,67.5,107.5,112.5,-117.5,112.5,-65,-65,65,65,120,-130,-130,120,297.5,,F,SBD,Single-ply,1
Laura Styrlund,1964-05-18,F-M1a,73.5,75,137.5,-147.5,152.5,152.5,102.5,-110,110,110,172.5,-185,185,185,447.5,,F,SBD,Single-ply,1
Donna Bryant,1959-02-21,F-M1b,72,75,-147.5,147.5,155,155,75,80,-82.5,80,147.5,157.5,162.5,162.5,397.5,Phantom,F,SBD,Single-ply,1
Teresa Merrick,1957-09-26,F-M1b,71.8,75,-85,-85,85,85,40,42.5,45,45,120,130,132.5,132.5,262.5,,F,SBD,Single-ply,2
Terry Lee,1954-12-30,F-M2a,68.7,75,120,125,128.5,128.5,-82.5,82.5,89,89,135,140,-142.5,140,357.5,,F,SBD,Single-ply,1
Marsha Serre,1946-10-09,F-M3a,72.4,75,-102.5,-102.5,105,105,42.5,47.5,-52.5,47.5,130,142.5,147.5,147.5,300,,F,SBD,Single-ply,1
Malinda Baum,1963-02-22,F-M1a,80.8,82.5,165,175,182.5,182.5,95,100,-105,100,175,185,192.5,192.5,475,Phantom,F,SBD,Single-ply,1
Rhonda Clark,1965-11-02,F-M1a,77.1,82.5,145,155,162.5,162.5,-85,85,92.5,92.5,182.5,195,-205,195,450,Phantom,F,SBD,Single-ply,2
Regina Hackney,1939-02-21,F-M3b,76.7,82.5,102.5,-110,-110,102.5,65,-72.5,75,75,125,-135,-135,125,302.5,AK Iron MDN,F,SBD,Single-ply,1
Jill Arnow,1959-10-19,F-M1b,89.2,90,175,182.5,-190,182.5,-117.5,-117.5,117.5,117.5,175,-185,185,185,485,,F,SBD,Single-ply,1
Paulette Calhoun,1958-09-29,F-M1b,89.8,90,80,-87.5,-87.5,80,92.5,-100,-100,92.5,85,100,-107.5,100,272.5,Phantom,F,SBD,Single-ply,2
Andrea Anderson,1966-07-30,F-M1a,138.7,90+,-45,-45,-45,,67.5,72.5,-77.5,72.5,125,137.5,-145,137.5,,,F,SBD,Single-ply,DQ
Sue Hallen,1957-03-07,F-M2a,115.5,90+,155,165,-180,165,110,130,-140,130,145,160,-172.5,160,455,,F,SBD,Single-ply,1
Harriet Hall,1948-12-20,F-M2b,107.5,90+,160,185,-250,185,125,137.5,,137.5,160,185,195,195,517.5,Titan,F,SBD,Single-ply,1
