Division,WeightClassKg,Place,Name,Team,BodyweightKg,Best3SquatKg,Best3BenchKg,Best3DeadliftKg,TotalKg,Equipment,Event,Sex,BirthDate
Boys,51.71,1,Daniel Gutierrez,Brownsville Hanna,50.26,111.13,56.7,129.27,297.1,Single-ply,SBD,M,
Boys,51.71,2,Kevin Debes,Brownsville Rivera,49.62,106.59,68.04,120.2,294.84,Single-ply,SBD,M,
Boys,55.79,1,Matthew Mancias,Brownsville Hanna,54.34,138.35,83.91,167.83,390.09,Single-ply,SBD,M,
Boys,55.79,2,Andres Pelayo,Brownsville Rivera,54.7,127.01,70.31,149.69,347,Single-ply,SBD,M,
Boys,59.87,1,Ethan Vidal,Brownsville Hanna,57.97,142.88,102.06,165.56,410.5,Single-ply,SBD,M,
Boys,59.87,2,Isaiah Loya,Brownsville Hanna,57.97,142.88,95.25,167.83,405.97,Single-ply,SBD,M,
Boys,67.13,1,Tyler Rosales,PSJA North,67.13,213.19,140.61,219.99,573.79,Single-ply,SBD,M,
Boys,67.13,2,Jose Medellin,Brownsville Rivera,66.04,147.42,97.52,154.22,399.16,Single-ply,SBD,M,
Boys,67.13,DQ,Robert De La Fuente,Los Fresnos,60.33,,,,,Single-ply,SBD,M,
Boys,67.13,DQ,Gilbert Garcia,Brownsville Hanna,63.87,204.12,97.52,,,Single-ply,SBD,M,
Boys,74.84,1,Jacob Broussard,Brownsville Hanna,74.66,226.8,147.42,190.51,564.72,Single-ply,SBD,M,
Boys,74.84,2,Moises Zuniga,Brownsville Hanna,74.03,233.6,120.2,208.65,562.45,Single-ply,SBD,M,
Boys,74.84,3,Luis Sanchez,PSJA North,72.57,188.24,138.35,219.99,546.58,Single-ply,SBD,M,
Boys,74.84,4,Jayden Moreno,Los Fresnos,70.76,206.38,108.86,206.38,521.63,Single-ply,SBD,M,
Boys,74.84,5,Juan Garcia,Brownsville Rivera,70.76,161.03,83.91,199.58,444.52,Single-ply,SBD,M,
Boys,74.84,DQ,Jose Hernandez,Brownsville Rivera,73.57,204.12,,,,Single-ply,SBD,M,
Boys,82.1,1,Jesus Fernandez,Brownsville Rivera,81.65,183.7,129.27,190.51,503.49,Single-ply,SBD,M,
Boys,82.1,2,Edgardo Duran,PSJA North,78.47,192.78,88.45,179.17,460.4,Single-ply,SBD,M,
Boys,82.1,3,Steve Artega,Brownsville Rivera,78.93,163.29,95.25,158.76,417.3,Single-ply,SBD,M,
Boys,82.1,DQ,Nathan Ledesma,PSJA North,81.92,,,,,Single-ply,SBD,M,
Boys,89.81,1,Sebastian Lozano,Brownsville Hanna,88.81,249.48,163.29,206.38,619.15,Single-ply,SBD,M,
Boys,89.81,2,Beto Garcia,Brownsville Hanna,87.27,242.67,129.27,208.65,580.6,Single-ply,SBD,M,
Boys,89.81,3,Eddie Saldivar,Los Fresnos,88,217.72,124.74,192.78,535.24,Single-ply,SBD,M,
Boys,89.81,4,Andres Garza,PSJA North,83.46,183.7,104.33,161.03,449.06,Single-ply,SBD,M,
Boys,109.77,1,Jesus Hernandez,Brownsville Rivera,104.69,265.35,181.44,242.67,689.46,Single-ply,SBD,M,
Boys,109.77,2,Ayden Sanchez,PSJA North,105.87,274.42,147.42,206.38,628.23,Single-ply,SBD,M,
Boys,109.77,3,Hector Guerrero,Brownsville Rivera,108.23,238.14,156.49,208.65,603.28,Single-ply,SBD,M,
Boys,109.77,4,Daniel Torres,Los Fresnos,105.23,197.31,131.54,190.51,519.36,Single-ply,SBD,M,
Boys,109.77,DQ,Jesus Salas,Brownsville Rivera,105.41,238.14,,,,Single-ply,SBD,M,
Boys,124.74,1,Anthony Garcia,PSJA North,121.11,294.84,176.9,219.99,691.73,Single-ply,SBD,M,
Boys,124.74,2,John Avila,Brownsville Hanna,124.1,272.16,147.42,235.87,655.44,Single-ply,SBD,M,
Boys,124.74,3,Ezekiel Torres,Brownsville Rivera,124.65,165.56,111.13,163.29,439.98,Single-ply,SBD,M,
Boys,124.74,DQ,Sal Sanchez,PSJA North,124.1,240.4,147.42,,,Single-ply,SBD,M,
Boys,124.74,DQ,Abraham Lozano,Brownsville Rivera,120.56,,,,,Single-ply,SBD,M,
Boys,139.71,1,Matthew Ybarbo,Brownsville Rivera,132,272.16,174.63,265.35,712.14,Single-ply,SBD,M,
Boys,139.71,2,Marcus Hernandez,PSJA North,127.73,224.53,142.88,183.7,551.11,Single-ply,SBD,M,
Boys,139.71+,1,German Woo,Brownsville Hanna,147.42,324.32,170.1,238.14,732.55,Single-ply,SBD,M,
Boys,139.71+,2,Jordan Brewster,PSJA North,140.43,204.12,111.13,151.95,467.2,Single-ply,SBD,M,
Boys,,NS,Cris Mendietta,PSJA North,,,,,,Single-ply,SBD,M,
Boys,,NS,Ethan Soto,PSJA North,,,,,,Single-ply,SBD,M,
