Division,WeightClassKg,Place,Name,Team,BodyweightKg,Best3SquatKg,Best3BenchKg,Best3DeadliftKg,TotalKg,Equipment,Event,Sex,BirthDate
Boys,51.71,1,Jason Edwards,Midland,51.53,136.08,54.43,136.08,326.59,Single-ply,SBD,M,
Boys,51.71,2,Malachi Flores,Plainview,46.9,122.47,65.77,129.27,317.51,Single-ply,SBD,M,
Boys,51.71,3,Dylan McDonald #4,Abilene Cooper,51.03,102.06,63.5,129.27,294.84,Single-ply,SBD,M,
Boys,51.71,4,Paul Nguyen #5,Abilene,49.67,108.86,63.5,113.4,285.76,Single-ply,SBD,M,
Boys,51.71,5,Andres Montes,Midland,49.12,111.13,49.9,120.2,281.23,Single-ply,SBD,M,
Boys,51.71,6,Izajah Aguirre,Lubbock,45.68,104.33,58.97,111.13,274.42,Single-ply,SBD,M,
Boys,51.71,7,Trinie Tijerina,Lubbock,41.14,102.06,54.43,90.72,247.21,Single-ply,SBD,M,
Boys,55.79,1,Reece Gooding,Abilene Wylie,55.02,147.42,92.99,147.42,387.82,Single-ply,SBD,M,
Boys,55.79,2,Santos Figueroa,Plainview,52.34,147.42,74.84,158.76,381.02,Single-ply,SBD,M,
Boys,55.79,3,John Hernandez,Lubbock Monterey,52.39,142.88,81.65,149.69,374.21,Single-ply,SBD,M,
Boys,55.79,4,Isaac Obregon,Lubbock,54.66,120.2,79.38,136.08,335.66,Single-ply,SBD,M,
Boys,55.79,5,David Rojas,Odessa,55.29,108.86,61.23,122.47,292.57,Single-ply,SBD,M,
Boys,55.79,6,Nick Garcia #1,Abilene,52.07,104.33,56.7,115.67,276.69,Single-ply,SBD,M,
Boys,55.79,DQ,Robert Hernandez,Abilene Cooper,55.47,129.27,81.65,,,Single-ply,SBD,M,
Boys,55.79,DQ,Josh Robertson,Abilene Cooper,55.79,,,,,Single-ply,SBD,M,
Boys,55.79,DQ,Vincent Ybarra,Lubbock Monterey,53.66,108.86,56.7,,,Single-ply,SBD,M,
Boys,55.79,DQ,Ethan Martinez,Wolfforth Frenship,54.66,,,,,Single-ply,SBD,M,
Boys,59.87,1,Isaac Estrada,Odessa,59.38,229.06,142.88,210.92,582.87,Single-ply,SBD,M,
Boys,59.87,2,Seunghak Lee,Lubbock Cooper,59.56,156.49,88.45,174.63,419.57,Single-ply,SBD,M,
Boys,59.87,3,Jaxson Peacock,Abilene Wylie,59.83,151.95,102.06,147.42,401.43,Single-ply,SBD,M,
Boys,59.87,4,Alex Garcia #3,Plainview,58.65,165.56,79.38,151.95,396.89,Single-ply,SBD,M,
Boys,59.87,5,Jackson Cuellar,Midland,59.65,142.88,72.57,145.15,360.61,Single-ply,SBD,M,
Boys,59.87,6,Joseph Hester,Abilene,59.47,120.2,74.84,133.81,328.85,Single-ply,SBD,M,
Boys,59.87,7,Andy Martinez,Odessa,59.28,138.35,72.57,113.4,324.32,Single-ply,SBD,M,
Boys,59.87,8,Austyn Keys,Midland Lee,58.6,99.79,72.57,127.01,299.37,Single-ply,SBD,M,
Boys,59.87,9,Gage Graves,Plainview,59.83,102.06,58.97,104.33,265.35,Single-ply,SBD,M,
Boys,59.87,DQ,Jermaine Stotts,Wolfforth Frenship,59.47,,,,,Single-ply,SBD,M,
Boys,59.87,DQ,Trey Ford,Odessa,59.87,,,,,Single-ply,SBD,M,
Boys,67.13,1,Nolan Carabajal,Lubbock Monterey,65.68,185.97,165.56,172.37,523.9,Single-ply,SBD,M,
Boys,67.13,2,Max Foster,Canyon Randall,63.23,174.63,115.67,222.26,512.56,Single-ply,SBD,M,
Boys,67.13,3,Jonathon Hill,Midland Lee,67.13,188.24,117.93,199.58,505.76,Single-ply,SBD,M,
Boys,67.13,4,Izik Godino,Plainview,66.9,188.24,108.86,181.44,478.54,Single-ply,SBD,M,
Boys,67.13,5,Mikei Flye,Abilene Cooper,67.13,183.7,104.33,174.63,462.66,Single-ply,SBD,M,
Boys,67.13,6,Landry Carlton,Abilene Wylie,65.32,179.17,115.67,165.56,460.4,Single-ply,SBD,M,
Boys,67.13,7,Bobby Thomas,Abilene Cooper,67.04,156.49,95.25,176.9,428.64,Single-ply,SBD,M,
Boys,67.13,8,Gavin Parrott,Lubbock Cooper,63.64,161.03,90.72,163.29,415.04,Single-ply,SBD,M,
Boys,67.13,9,Alexis Delgado #2,Plainview,64.5,156.49,86.18,158.76,401.43,Single-ply,SBD,M,
Boys,67.13,10,Mitchell Hamilton,Lubbock Cooper,66.41,122.47,90.72,158.76,371.95,Single-ply,SBD,M,
Boys,67.13,DQ,Teagan Marlowe,Midland,67.13,,,,,Single-ply,SBD,M,
Boys,67.13,DQ,Cameron Herron,Abilene Cooper,67.13,,,,,Single-ply,SBD,M,
Boys,74.84,1,Joel Scott #3,Abilene Wylie,74.75,258.55,138.35,238.14,635.03,Single-ply,SBD,M,
Boys,74.84,2,Noah Beach,Abilene Wylie,73.21,231.33,142.88,215.46,589.67,Single-ply,SBD,M,
Boys,74.84,3,Trent Gonzalez,Midland Lee,73.07,208.65,156.49,195.04,560.19,Single-ply,SBD,M,
Boys,74.84,4,Jacob Lewis,Canyon Randall,74.8,195.04,122.47,190.51,508.02,Single-ply,SBD,M,
Boys,74.84,5,Nimfasha Oliver,Abilene Cooper,71.71,181.44,97.52,195.04,474,Single-ply,SBD,M,
Boys,74.84,6,Daniel Balderas,Midland,72.3,170.1,95.25,188.24,453.59,Single-ply,SBD,M,
Boys,74.84,7,Raul Gamez,Abilene Cooper,69.81,156.49,108.86,181.44,446.79,Single-ply,SBD,M,
Boys,74.84,8,Thomas Wells,Midland,71.71,163.29,79.38,197.31,439.98,Single-ply,SBD,M,
Boys,74.84,9,Cayden Ruiz,Midland,71.89,161.03,120.2,158.76,439.98,Single-ply,SBD,M,
Boys,74.84,10,Fabio Ramos,Odessa,73.35,165.56,92.99,161.03,419.57,Single-ply,SBD,M,
Boys,74.84,11,Mason Gallarneau,Lubbock Cooper,74.71,151.95,97.52,165.56,415.04,Single-ply,SBD,M,
Boys,74.84,12,Ethan Morton,Lubbock,74.21,151.95,92.99,161.03,405.97,Single-ply,SBD,M,
Boys,82.1,1,Dagan Barela,Plainview,78.56,254.01,156.49,251.74,662.24,Single-ply,SBD,M,
Boys,82.1,2,Leo Uresti,Midland Lee,82.1,235.87,163.29,242.67,641.83,Single-ply,SBD,M,
Boys,82.1,3,Stelon Wright,Abilene Wylie,82.1,219.99,124.74,226.8,571.53,Single-ply,SBD,M,
Boys,82.1,4,Austin Baron,Abilene Wylie,80.92,226.8,129.27,210.92,566.99,Single-ply,SBD,M,
Boys,82.1,5,Drew Gonzalez,Plainview,78.83,215.46,136.08,204.12,555.65,Single-ply,SBD,M,
Boys,82.1,6,Ernest Godino,Plainview,80.69,219.99,133.81,183.7,537.51,Single-ply,SBD,M,
Boys,82.1,7,James Fogle,Odessa,81.19,208.65,133.81,183.7,526.17,Single-ply,SBD,M,
Boys,82.1,8,Zion Ward,Midland,78.79,215.46,104.33,195.04,514.83,Single-ply,SBD,M,
Boys,82.1,9,Marcos Del Fierro,Canyon Randall,77.93,183.7,151.95,174.63,510.29,Single-ply,SBD,M,
Boys,82.1,10,Johnathan Vanwinkle,Abilene Cooper,80.88,192.78,111.13,197.31,501.22,Single-ply,SBD,M,
Boys,82.1,11,Luke Castanada,Abilene,81.87,195.04,115.67,188.24,498.95,Single-ply,SBD,M,
Boys,82.1,DQ,Nathan Tiner,Abilene Wylie,79.88,192.78,131.54,,,Single-ply,SBD,M,
Boys,89.81,1,Slade Harris,Canyon Randall,88.31,290.3,185.97,267.62,743.89,Single-ply,SBD,M,
Boys,89.81,2,Jacob Deax,Abilene Cooper,88.5,226.8,136.08,249.48,612.35,Single-ply,SBD,M,
Boys,89.81,3,Jett Glass,Midland,87.72,206.38,120.2,219.99,546.58,Single-ply,SBD,M,
Boys,89.81,4,Jerimiah Washington,Wolfforth Frenship,88.45,195.04,108.86,235.87,539.77,Single-ply,SBD,M,
Boys,89.81,5,Evan Height,Plainview,83.64,197.31,111.13,197.31,505.76,Single-ply,SBD,M,
Boys,89.81,6,Lorenzo Vasquez,Abilene Cooper,89.49,183.7,117.93,192.78,494.42,Single-ply,SBD,M,
Boys,89.81,7,Caleb Goeddertz,Abilene Wylie,87.54,183.7,108.86,197.31,489.88,Single-ply,SBD,M,
Boys,89.81,8,Gordon Garcia,Odessa,85.68,176.9,115.67,195.04,487.61,Single-ply,SBD,M,
Boys,89.81,9,Gerardo Rivera,Plainview,88.45,183.7,108.86,188.24,480.81,Single-ply,SBD,M,
Boys,89.81,10,Adam Villa,Plainview,84.59,172.37,108.86,190.51,471.74,Single-ply,SBD,M,
Boys,89.81,11,Eric Baucom,Canyon Randall,88.54,165.56,113.4,170.1,449.06,Single-ply,SBD,M,
Boys,89.81,DQ,Jayden Rodriguez,Midland Lee,89.81,,,,,Single-ply,SBD,M,
Boys,99.79,1,Hector Montes,Midland Lee,98.16,272.16,197.31,226.8,696.26,Single-ply,SBD,M,
Boys,99.79,2,Devlin Offutt,Lubbock Monterey,97.52,249.48,174.63,244.94,669.05,Single-ply,SBD,M,
Boys,99.79,3,Juan Carreon,Odessa,99.2,217.72,133.81,215.46,566.99,Single-ply,SBD,M,
Boys,99.79,4,Jordyn Vasquez,Plainview,98.61,199.58,136.08,197.31,532.97,Single-ply,SBD,M,
Boys,99.79,5,Jacob Landeros,Plainview,94.26,204.12,115.67,190.51,510.29,Single-ply,SBD,M,
Boys,99.79,6,Jose Guerrero,Odessa,98.79,192.78,129.27,185.97,508.02,Single-ply,SBD,M,
Boys,99.79,7,Tyson Moore,Abilene,92.22,176.9,108.86,199.58,485.34,Single-ply,SBD,M,
Boys,99.79,8,Jose Castaneda,Canyon Randall,95.62,174.63,108.86,195.04,478.54,Single-ply,SBD,M,
Boys,99.79,9,Jackson Wilson,Abilene,92.53,181.44,104.33,185.97,471.74,Single-ply,SBD,M,
Boys,99.79,DQ,Noah Heinemann,Midland Lee,99.79,,,,,Single-ply,SBD,M,
Boys,99.79,DQ,Jaxon Camacho,Abilene Wylie,94.44,226.8,,,,Single-ply,SBD,M,
Boys,99.79,DQ,Jaquim Rodriguez,Lubbock Cooper,96.16,192.78,,,,Single-ply,SBD,M,
Boys,109.77,1,Gary Brooks,Odessa,108.18,356.07,183.7,251.74,791.52,Single-ply,SBD,M,
Boys,109.77,2,Mikel Delgado,Midland,106.82,219.99,142.88,229.06,591.94,Single-ply,SBD,M,
Boys,109.77,3,Isaias Ramirez,Midland Lee,107.86,215.46,111.13,233.6,560.19,Single-ply,SBD,M,
Boys,109.77,4,Miguel Silva,Abilene Cooper,108.86,222.26,106.59,222.26,551.11,Single-ply,SBD,M,
Boys,109.77,5,Ryan Johnson #19,Abilene,103.24,226.8,102.06,204.12,532.97,Single-ply,SBD,M,
Boys,109.77,6,Kaleb Sims,Odessa,101.88,219.99,151.95,154.22,526.17,Single-ply,SBD,M,
Boys,109.77,7,Sasha Dummer,Midland,101.47,206.38,111.13,188.24,505.76,Single-ply,SBD,M,
Boys,109.77,8,Jayden Dimas,Abilene Cooper,108.59,183.7,106.59,199.58,489.88,Single-ply,SBD,M,
Boys,109.77,9,Zayden Ybarra,Lubbock Monterey,102.97,208.65,102.06,176.9,487.61,Single-ply,SBD,M,
Boys,109.77,10,Jonathan Dozal,Odessa,101.33,183.7,113.4,181.44,478.54,Single-ply,SBD,M,
Boys,109.77,11,Brandon Ortega,Plainview,108.45,181.44,111.13,167.83,460.4,Single-ply,SBD,M,
Boys,109.77,DQ,Jagger Burnett,Abilene Wylie,104.69,249.48,156.49,240.4,,Single-ply,SBD,M,
Boys,124.74,1,Jaxon Lunsford,Abilene Wylie,115.35,272.16,165.56,249.48,687.19,Single-ply,SBD,M,
Boys,124.74,2,Bradley Byrne,Abilene,113.08,263.08,129.27,238.14,630.49,Single-ply,SBD,M,
Boys,124.74,3,Jamie Rodriguez,Abilene,115.03,249.48,133.81,219.99,603.28,Single-ply,SBD,M,
Boys,124.74,4,Julian Garcia,Abilene,113.62,238.14,142.88,206.38,587.4,Single-ply,SBD,M,
Boys,124.74,5,Zach Killam,Abilene,120.52,244.94,108.86,199.58,553.38,Single-ply,SBD,M,
Boys,124.74,6,Zemere Perez,Plainview,118.16,226.8,127.01,188.24,542.04,Single-ply,SBD,M,
Boys,124.74,7,Adrian Hernandez #4,Abilene,123.33,231.33,95.25,201.85,528.44,Single-ply,SBD,M,
Boys,124.74,8,Derek Mata,Plainview,111.58,183.7,138.35,183.7,505.76,Single-ply,SBD,M,
Boys,124.74,9,Chris Lea,Wolfforth Frenship,121.52,201.85,102.06,201.85,505.76,Single-ply,SBD,M,
Boys,124.74,10,Damareon Gray,Odessa,118.48,183.7,131.54,183.7,498.95,Single-ply,SBD,M,
Boys,124.74,11,Xavier Carrillo,Odessa,113.67,183.7,133.81,167.83,485.34,Single-ply,SBD,M,
Boys,139.71,1,Xzavier Collins,Abilene Wylie,133.13,294.84,181.44,285.76,762.04,Single-ply,SBD,M,
Boys,139.71,2,Marc Herrera,Lubbock,136.71,263.08,136.08,235.87,635.03,Single-ply,SBD,M,
Boys,139.71,3,Jovani Olivares,Lubbock,139.34,235.87,142.88,226.8,605.55,Single-ply,SBD,M,
Boys,139.71,4,John Peralez,Lubbock Cooper,134.04,217.72,183.7,190.51,591.94,Single-ply,SBD,M,
Boys,139.71,5,Rodrigo Gomez,Canyon Randall,133.08,226.8,158.76,204.12,589.67,Single-ply,SBD,M,
Boys,139.71,6,Jacob Vasquez #7,Midland,128.59,226.8,133.81,226.8,587.4,Single-ply,SBD,M,
Boys,139.71,7,Gerardo Vasquez,Odessa,131.9,224.53,131.54,181.44,537.51,Single-ply,SBD,M,
Boys,139.71,8,Joshua Rangel,Wolfforth Frenship,135.9,176.9,117.93,226.8,521.63,Single-ply,SBD,M,
Boys,139.71,9,Blaize Whitaker,Wolfforth Frenship,130.27,172.37,124.74,222.26,519.36,Single-ply,SBD,M,
Boys,139.71,10,Agron Gjocaj,Abilene Wylie,131.36,165.56,111.13,176.9,453.59,Single-ply,SBD,M,
Boys,139.71,DQ,Kam Curry,Midland Lee,139.71,,,,,Single-ply,SBD,M,
Boys,139.71+,1,Emelio Dominguez,Odessa,142.84,308.44,183.7,244.94,737.09,Single-ply,SBD,M,
Boys,139.71+,2,John Martinez-Guedry,Midland,159.07,272.16,181.44,272.16,725.75,Single-ply,SBD,M,
Boys,139.71+,3,Brayan Olvera,Lubbock Monterey,148.73,308.44,158.76,231.33,698.53,Single-ply,SBD,M,
Boys,139.71+,4,Chase Rodriguez,Lubbock Cooper,155.85,254.01,163.29,226.8,644.1,Single-ply,SBD,M,
Boys,139.71+,5,Rocky Perez,Lubbock Monterey,152.63,242.67,156.49,183.7,582.87,Single-ply,SBD,M,
Boys,139.71+,6,Isaiah Valenzuela,Abilene Cooper,167.56,206.38,113.4,181.44,501.22,Single-ply,SBD,M,
