Division,WeightClassKg,Place,Name,Team,BodyweightKg,Best3SquatKg,Best3BenchKg,Best3DeadliftKg,TotalKg,Equipment,Event,Sex,BirthDate
Boys,51.71,1,Isaac Rios,Killeen Ellison,50.98,145.15,83.91,165.56,394.63,Single-ply,SBD,M,
Boys,51.71,2,Christian Morales,Lake Belton,48.17,115.67,56.7,133.81,306.17,Single-ply,SBD,M,
Boys,51.71,3,Spencer Mason,Lake Belton,50.62,102.06,70.31,124.74,297.1,Single-ply,SBD,M,
Boys,51.71,4,Colin Gascon,Belton,51.26,88.45,65.77,115.67,269.89,Single-ply,SBD,M,
Boys,51.71,5,Tristan Pettit,Copperas Cove,51.44,92.99,52.16,122.47,267.62,Single-ply,SBD,M,
Boys,51.71,DQ,Cristiano Lopez,Lake Belton,51.71,,,,,Single-ply,SBD,M,
Boys,55.79,1,Isaac Jones,Belton,55.61,181.44,97.52,188.24,467.2,Single-ply,SBD,M,
Boys,55.79,2,Caden Brister,Gatesville,53.61,138.35,77.11,129.27,344.73,Single-ply,SBD,M,
Boys,55.79,3,Nick Perez,Belton,53.98,111.13,70.31,131.54,312.98,Single-ply,SBD,M,
Boys,55.79,4,Gabriel Lopez,Waco Midway,53.71,117.93,63.5,106.59,288.03,Single-ply,SBD,M,
Boys,55.79,5,Liam Shoaf,Gatesville,52.89,111.13,65.77,102.06,278.96,Single-ply,SBD,M,
Boys,55.79,6,Gascon Ayden,Belton,55.7,90.72,52.16,99.79,242.67,Single-ply,SBD,M,
Boys,55.79,7,Ke'Andre Hamilton,Waco University,54.79,86.18,36.29,86.18,208.65,Single-ply,SBD,M,
Boys,55.79,DQ,Lucas May,Killeen Ellison,54.88,88.45,,102.06,,Single-ply,SBD,M,
Boys,55.79,DQ,Tomas Sias,Killeen Ellison,53.07,79.38,,97.52,,Single-ply,SBD,M,
Boys,59.87,1,Ritchie Willess,Belton,59.51,174.63,99.79,190.51,464.93,Single-ply,SBD,M,
Boys,59.87,2,Brayden Dunn,Belton,59.87,108.86,72.57,120.2,301.64,Single-ply,SBD,M,
Boys,59.87,DQ,Roberto Johnson-El,Killeen Ellison,59.6,97.52,,104.33,,Single-ply,SBD,M,
Boys,67.13,1,Max Herrera,Chilton,62.96,174.63,111.13,142.88,428.64,Single-ply,SBD,M,
Boys,67.13,2,Bj Pitts,Waco Midway,66.5,158.76,92.99,167.83,419.57,Single-ply,SBD,M,
Boys,67.13,3,Jailen Alon-Alon,Killeen Harker Heights,65.41,140.61,99.79,174.63,415.04,Single-ply,SBD,M,
Boys,67.13,4,Giani Zecca,Belton,65.68,136.08,86.18,165.56,387.82,Single-ply,SBD,M,
Boys,67.13,5,Keshawn Baptiste,Lake Belton,61.69,158.76,83.91,138.35,381.02,Single-ply,SBD,M,
Boys,67.13,6,Ryan Barbera,Chilton,63.41,138.35,81.65,151.95,371.95,Single-ply,SBD,M,
Boys,67.13,7,Xavier Taclibon,Copperas Cove,63.68,136.08,83.91,142.88,362.87,Single-ply,SBD,M,
Boys,67.13,8,Dylan Wellington,Lake Belton,60.78,133.81,79.38,138.35,351.53,Single-ply,SBD,M,
Boys,67.13,9,Duncan Davis,Waco Midway,66.32,131.54,72.57,147.42,351.53,Single-ply,SBD,M,
Boys,67.13,10,Brayden Mills,Gatesville,66.04,127.01,74.84,136.08,337.93,Single-ply,SBD,M,
Boys,67.13,11,Rylan Norwood,Lake Belton,60.87,129.27,70.31,131.54,331.12,Single-ply,SBD,M,
Boys,67.13,12,Ladarrius Evans,Waco University,63.68,104.33,72.57,147.42,324.32,Single-ply,SBD,M,
Boys,67.13,13,Garret Roland,Lake Belton,65.59,133.81,56.7,120.2,310.71,Single-ply,SBD,M,
Boys,67.13,DQ,Julio Colon,Killeen Ellison,66.77,163.29,95.25,,,Single-ply,SBD,M,
Boys,67.13,DQ,Jason Hernandez,Killeen Ellison,67.13,,70.31,142.88,,Single-ply,SBD,M,
Boys,67.13,DQ,Jonathan Campos,Waco,66.32,129.27,,,,Single-ply,SBD,M,
Boys,67.13,DQ,Josh Donoso,Temple,60.96,124.74,72.57,,,Single-ply,SBD,M,
Boys,67.13,DQ,Ceasar Tenorio,Waco University,67.13,,,,,Single-ply,SBD,M,
Boys,74.84,1,Lj Hall,Gatesville,71.3,170.1,138.35,185.97,494.42,Single-ply,SBD,M,
Boys,74.84,2,Tristan Robin,Lake Belton,71.49,183.7,120.2,151.95,455.86,Single-ply,SBD,M,
Boys,74.84,3,Deuabry Hood,Killeen Harker Heights,74.57,161.03,97.52,172.37,430.91,Single-ply,SBD,M,
Boys,74.84,4,LaShaun James,Copperas Cove,71.85,154.22,108.86,165.56,428.64,Single-ply,SBD,M,
Boys,74.84,5,Kaleb Howard,Killeen Harker Heights,74.03,131.54,95.25,147.42,374.21,Single-ply,SBD,M,
Boys,74.84,6,Zachary Respress,Killeen Ellison,73.12,133.81,79.38,158.76,371.95,Single-ply,SBD,M,
Boys,74.84,7,Mason Mills,Temple,74.66,142.88,81.65,147.42,371.95,Single-ply,SBD,M,
Boys,74.84,8,Edward Dwyer,Waco Midway,67.59,133.81,81.65,136.08,351.53,Single-ply,SBD,M,
Boys,74.84,9,Karson Dunn,Belton,68.58,117.93,65.77,127.01,310.71,Single-ply,SBD,M,
Boys,74.84,10,Joshua Olvera,Waco University,74.84,120.2,61.23,124.74,306.17,Single-ply,SBD,M,
Boys,74.84,DQ,Will Daugherty,Belton,70.85,111.13,,142.88,,Single-ply,SBD,M,
Boys,74.84,DQ,Dayne Holden,Copperas Cove,74.84,,,,,Single-ply,SBD,M,
Boys,82.1,1,Tyrese Francis,Copperas Cove,82.1,249.48,151.95,208.65,610.08,Single-ply,SBD,M,
Boys,82.1,2,Rafealshamgar Boyd,Killeen Ellison,78.47,208.65,108.86,244.94,562.45,Single-ply,SBD,M,
Boys,82.1,3,Dominic Killen,Killeen Ellison,81.92,201.85,129.27,229.06,560.19,Single-ply,SBD,M,
Boys,82.1,4,Konstantine Cross,Killeen Ellison,78.38,192.78,102.06,206.38,501.22,Single-ply,SBD,M,
Boys,82.1,5,Aleczander Patterson,Copperas Cove,80.47,163.29,106.59,185.97,455.86,Single-ply,SBD,M,
Boys,82.1,6,Jer'Vonnie Williams,Temple,80.01,181.44,102.06,158.76,442.25,Single-ply,SBD,M,
Boys,82.1,7,Kevin Alafa,Belton,81.37,145.15,117.93,167.83,430.91,Single-ply,SBD,M,
Boys,82.1,8,David Sims,Gatesville,80.65,174.63,102.06,145.15,421.84,Single-ply,SBD,M,
Boys,82.1,9,Marcus Moultrie,Killeen Harker Heights,78.74,158.76,108.86,149.69,417.3,Single-ply,SBD,M,
Boys,82.1,10,Andrew Bonner,Waco Midway,77.11,151.95,97.52,163.29,412.77,Single-ply,SBD,M,
Boys,82.1,11,Collin Espinosa,Lake Belton,77.2,156.49,97.52,158.76,412.77,Single-ply,SBD,M,
Boys,82.1,12,Kooper Hobson,Lake Belton,81.37,163.29,88.45,156.49,408.23,Single-ply,SBD,M,
Boys,82.1,13,Dutch Nielson,Gatesville,76.93,145.15,95.25,154.22,394.63,Single-ply,SBD,M,
Boys,82.1,14,Christian Kunz,Lake Belton,76.48,142.88,102.06,147.42,392.36,Single-ply,SBD,M,
Boys,82.1,15,Joseph Caballero,Waco University,81.65,127.01,74.84,145.15,347,Single-ply,SBD,M,
Boys,82.1,16,Tyler Bond,Temple,79.29,120.2,79.38,142.88,342.46,Single-ply,SBD,M,
Boys,82.1,17,Barreto Oscar,Waco,77.75,108.86,79.38,145.15,333.39,Single-ply,SBD,M,
Boys,82.1,18,Kamareon Kindle,Waco,81.65,108.86,72.57,147.42,328.85,Single-ply,SBD,M,
Boys,82.1,DQ,Khamari McClain,Killeen Ellison,81.19,,113.4,192.78,,Single-ply,SBD,M,
Boys,82.1,DQ,Logan Morales,Belton,75.84,158.76,,156.49,,Single-ply,SBD,M,
Boys,82.1,DQ,Ryan Saxton,Belton,80.92,167.83,,161.03,,Single-ply,SBD,M,
Boys,89.81,1,Aimeer Washington,Killeen Harker Heights,89.81,226.8,129.27,238.14,594.21,Single-ply,SBD,M,
Boys,89.81,2,Cayden Mata,Gatesville,84.64,226.8,124.74,199.58,551.11,Single-ply,SBD,M,
Boys,89.81,3,Jonah Myers,Belton,89.63,213.19,120.2,206.38,539.77,Single-ply,SBD,M,
Boys,89.81,4,Ivan Diaz,Waco,87.36,215.46,140.61,174.63,530.7,Single-ply,SBD,M,
Boys,89.81,5,Zion Moore,Temple,85.64,181.44,111.13,161.03,453.59,Single-ply,SBD,M,
Boys,89.81,6,Jonathon Prewitt,Waco Midway,82.46,174.63,97.52,156.49,428.64,Single-ply,SBD,M,
Boys,89.81,7,Thomas Warkentine,Waco Midway,85.64,122.47,86.18,147.42,356.07,Single-ply,SBD,M,
Boys,89.81,DQ,Jayvion Moore,Waco,83.64,158.76,,156.49,,Single-ply,SBD,M,
Boys,89.81,DQ,Colinn Hermann,Copperas Cove,89.81,,129.27,,,Single-ply,SBD,M,
Boys,99.79,1,Thomas Connolly,Killeen Harker Heights,97.98,226.8,158.76,208.65,594.21,Single-ply,SBD,M,
Boys,99.79,2,Omarion Delao,Waco,91.81,204.12,117.93,204.12,526.17,Single-ply,SBD,M,
Boys,99.79,3,Aiden Stock,Belton,94.26,170.1,124.74,213.19,508.02,Single-ply,SBD,M,
Boys,99.79,4,Devon Taitano,Copperas Cove,98.34,199.58,117.93,183.7,501.22,Single-ply,SBD,M,
Boys,99.79,5,Ryder Holman,Belton,96.62,172.37,127.01,179.17,478.54,Single-ply,SBD,M,
Boys,99.79,6,Darren Paul,Waco,92.9,163.29,117.93,183.7,464.93,Single-ply,SBD,M,
Boys,99.79,7,Lorenzo Robles,Chilton,97.61,174.63,113.4,172.37,460.4,Single-ply,SBD,M,
Boys,99.79,8,Colton Bossie,Chilton,93.08,156.49,108.86,188.24,453.59,Single-ply,SBD,M,
Boys,99.79,9,Brayden Minton,Gatesville,97.52,163.29,102.06,172.37,437.72,Single-ply,SBD,M,
Boys,99.79,10,Aiden King,Belton,95.44,154.22,106.59,174.63,435.45,Single-ply,SBD,M,
Boys,99.79,11,Isaiah Devasure,Belton,99.34,133.81,106.59,181.44,421.84,Single-ply,SBD,M,
Boys,99.79,12,Miguel Medrano,Waco University,96.07,192.78,58.97,161.03,412.77,Single-ply,SBD,M,
Boys,99.79,13,Isaiah Koonce,Lake Belton,94.71,156.49,83.91,154.22,394.63,Single-ply,SBD,M,
Boys,99.79,14,Nolan Baden,Waco Midway,96.89,133.81,95.25,142.88,371.95,Single-ply,SBD,M,
Boys,99.79,15,Juan Olivarez,Waco University,94.08,102.06,79.38,138.35,319.78,Single-ply,SBD,M,
Boys,109.77,1,Gabe Kalama,Belton,103.24,226.8,127.01,226.8,580.6,Single-ply,SBD,M,
Boys,109.77,2,Anthony Jones,Temple,106.14,215.46,124.74,222.26,562.45,Single-ply,SBD,M,
Boys,109.77,3,Tyrese Hale,Copperas Cove,108.23,217.72,142.88,183.7,544.31,Single-ply,SBD,M,
Boys,109.77,4,Frank Suls,Temple,104.33,204.12,133.81,185.97,523.9,Single-ply,SBD,M,
Boys,109.77,5,Evan Roland,Lake Belton,107.41,199.58,127.01,172.37,498.95,Single-ply,SBD,M,
Boys,109.77,6,Micah Moore,Waco,105.32,183.7,113.4,185.97,483.08,Single-ply,SBD,M,
Boys,109.77,7,Amari Cheeks,Killeen Harker Heights,109.23,170.1,108.86,204.12,483.08,Single-ply,SBD,M,
Boys,109.77,8,Aaron Tagle,Lake Belton,104.24,183.7,113.4,174.63,471.74,Single-ply,SBD,M,
Boys,109.77,9,Rion Childers,Copperas Cove,104.69,136.08,124.74,197.31,458.13,Single-ply,SBD,M,
Boys,109.77,10,Timothy Henry,Lake Belton,106.14,151.95,102.06,165.56,419.57,Single-ply,SBD,M,
Boys,109.77,11,Javon Bryant,Waco,109.23,149.69,102.06,142.88,394.63,Single-ply,SBD,M,
Boys,109.77,12,Brandon Fairley,Lake Belton,108.5,161.03,83.91,138.35,383.29,Single-ply,SBD,M,
Boys,109.77,13,Eric Grooms,Waco University,109.23,120.2,79.38,124.74,324.32,Single-ply,SBD,M,
Boys,109.77,DQ,Carson Pullin,Waco Midway,103.42,151.95,113.4,,,Single-ply,SBD,M,
Boys,124.74,1,Ryan Smiley,Gatesville,123.74,322.05,174.63,226.8,723.48,Single-ply,SBD,M,
Boys,124.74,2,Christopher Garcia,Copperas Cove,113.31,226.8,161.03,226.8,614.62,Single-ply,SBD,M,
Boys,124.74,3,Armondo Molina,Killeen Ellison,119.48,215.46,161.03,231.33,607.81,Single-ply,SBD,M,
Boys,124.74,4,Ayden Brown,Temple,123.65,201.85,120.2,204.12,526.17,Single-ply,SBD,M,
Boys,124.74,5,Enrique Rangel,Waco University,124.28,192.78,136.08,188.24,517.1,Single-ply,SBD,M,
Boys,124.74,6,Dominic Simpson,Lake Belton,119.75,206.38,124.74,183.7,514.83,Single-ply,SBD,M,
Boys,124.74,7,Steven Bomar,Gatesville,116.75,181.44,113.4,179.17,474,Single-ply,SBD,M,
Boys,124.74,8,Marcus Scott,Temple,117.66,151.95,120.2,170.1,442.25,Single-ply,SBD,M,
Boys,124.74,9,Allen Dominguez,Waco University,114.21,170.1,79.38,185.97,435.45,Single-ply,SBD,M,
Boys,124.74,10,Aaron Gomez,Killeen Harker Heights,114.4,142.88,124.74,158.76,426.38,Single-ply,SBD,M,
Boys,124.74,11,Luke Grant,Waco,121.2,158.76,102.06,151.95,412.77,Single-ply,SBD,M,
Boys,124.74,12,Michael Gibson,Waco Midway,115.76,158.76,102.06,147.42,408.23,Single-ply,SBD,M,
Boys,124.74,13,Gabriel Martinez,Killeen Ellison,110.4,151.95,102.06,145.15,399.16,Single-ply,SBD,M,
Boys,124.74,14,Seth Martinez,Temple,123.01,161.03,95.25,142.88,399.16,Single-ply,SBD,M,
Boys,124.74,15,Jordan Hernandez,Waco University,122.11,113.4,74.84,124.74,312.98,Single-ply,SBD,M,
Boys,124.74,DQ,Kooper Mccraig-Forbis,Waco Midway,124.01,240.4,,190.51,,Single-ply,SBD,M,
Boys,124.74,DQ,Markus Abrego,Lake Belton,124.74,,,,,Single-ply,SBD,M,
Boys,139.71,1,Zach Bryant,Gatesville,138.16,219.99,120.2,192.78,532.97,Single-ply,SBD,M,
Boys,139.71,2,Agustin Silva,Temple,127.64,190.51,113.4,208.65,512.56,Single-ply,SBD,M,
Boys,139.71,3,P Monrial,Waco University,127.82,167.83,149.69,195.04,512.56,Single-ply,SBD,M,
Boys,139.71,4,Zach Erickson,Belton,125.1,161.03,124.74,206.38,492.15,Single-ply,SBD,M,
Boys,139.71,5,Logan Gandara,Lake Belton,125.65,181.44,120.2,172.37,474,Single-ply,SBD,M,
Boys,139.71+,1,Lamarian Hatcher,Killeen Harker Heights,147.96,249.48,154.22,195.04,598.74,Single-ply,SBD,M,
Boys,139.71+,2,Adam Walden,Lake Belton,165.92,249.48,136.08,204.12,589.67,Single-ply,SBD,M,
Boys,139.71+,3,Gabe Charles,Gatesville,149.87,208.65,113.4,183.7,505.76,Single-ply,SBD,M,
Boys,139.71+,4,Abram Mosely,Waco,163.75,204.12,102.06,192.78,498.95,Single-ply,SBD,M,
Boys,139.71+,DQ,Endrei Sauls,Temple,140.61,192.78,117.93,188.24,,Single-ply,SBD,M,
