Division,WeightClassKg,Place,Name,Team,BodyweightKg,Best3SquatKg,Best3BenchKg,Best3DeadliftKg,TotalKg,Equipment,Event,Sex
Boys,51.71,1,Ricky Lopez,Frisco Centennial,48.72,129.27,74.84,127.01,331.12,Single-ply,SBD,M
Boys,51.71,2,Cameron Police,Frisco Wakeland,51.17,95.25,49.9,115.67,260.82,Single-ply,SBD,M
Boys,51.71,3,Mathew Read,Frisco Heritage,51.57,83.91,47.63,102.06,233.6,Single-ply,SBD,M
Boys,55.79,1,Carlos Reynoso,McKinney Boyd,55.07,165.56,88.45,165.56,419.57,Single-ply,SBD,M
Boys,55.79,2,Logan Police,Frisco Wakeland,55.43,151.95,92.99,156.49,401.43,Single-ply,SBD,M
Boys,59.87,3,Nate Lunsford,Frisco Wakeland,55.84,127.01,74.84,138.35,340.19,Single-ply,SBD,M
Boys,55.79,4,Gavin Carroll,Frisco Wakeland,,127.01,70.31,120.2,317.51,Single-ply,SBD,M
Boys,59.87,5,Campbell LaPuma,Coppell,55.84,97.52,,,97.52,Single-ply,S,M
Boys,55.79,NS,Brady Gordon,Frisco Centennial,,,,,,Single-ply,S,M
Boys,59.87,1,Justin Acosta,Frisco Lone Star,,176.9,92.99,154.22,424.11,Single-ply,SBD,M
Boys,59.87,2,Carl Harvey,Frisco Centennial,,97.52,81.65,117.93,297.1,Single-ply,SBD,M
Boys,59.87,NS,Gerald Van Ess,McKinney North,,183.7,,,,Single-ply,SBD,M
Boys,67.13,1,Andrew Wilson,Frisco Wakeland,65.5,176.9,104.33,185.97,467.2,Single-ply,SBD,M
Boys,67.13,2,Bailey Forst,Frisco Heritage,67.04,190.51,90.72,172.37,453.59,Single-ply,SBD,M
Boys,67.13,3,Kolby Dodson,Frisco Centennial,65.82,163.29,113.4,167.83,444.52,Single-ply,SBD,M
Boys,67.13,4,Malik Taylor,Frisco Liberty,62.01,170.1,95.25,174.63,439.98,Single-ply,SBD,M
Boys,67.13,5,Nico Barlis,Frisco Centennial,64.82,149.69,90.72,195.04,435.45,Single-ply,SBD,M
Boys,67.13,6,Aj Womack,Frisco Lone Star,66.77,129.27,88.45,138.35,356.07,Single-ply,SBD,M
Boys,67.13,7,Cameron Cotogno,McKinney Boyd,63,113.4,92.99,140.61,347,Single-ply,SBD,M
Boys,67.13,8,Raul Rico,Gunter,66.9,129.27,79.38,136.08,344.73,Single-ply,SBD,M
Boys,67.13,9,Mason Castaldo,Frisco Independence,66.81,115.67,95.25,129.27,340.19,Single-ply,SBD,M
Boys,67.13,10,Jack Brown,Frisco Heritage,63.05,104.33,77.11,133.81,315.25,Single-ply,SBD,M
Boys,67.13,11,Colin Wilbourn,Frisco Heritage,62.01,65.77,56.7,104.33,226.8,Single-ply,SBD,M
Boys,67.13,NS,Jonathan Rodriguez #8,Frisco Independence,,,,,,Single-ply,SBD,M
Boys,67.13,NS,Zach Jones,Frisco Lone Star,,,,,,Single-ply,SBD,M
Boys,67.13,NS,Jake Schumacher,Frisco Centennial,,,,,,Single-ply,SBD,M
Boys,74.84,1,George Kennard,Frisco Wakeland,70.31,188.24,124.74,190.51,503.49,Single-ply,SBD,M
Boys,74.84,2,Jared Stephens,Coppell,72.57,156.49,111.13,181.44,449.06,Single-ply,SBD,M
Boys,74.84,3,Hunter Smith #2,Frisco Wakeland,74.39,163.29,97.52,151.95,412.77,Single-ply,SBD,M
Boys,74.84,4,Luis Betancourt,Gunter,74.16,131.54,97.52,154.22,383.29,Single-ply,SBD,M
Boys,74.84,5,Jaryon Busby,Coppell,74.48,124.74,115.67,142.88,383.29,Single-ply,SBD,M
Boys,74.84,6,Tommy Warkins,Frisco Heritage,73.84,90.72,45.36,77.11,213.19,Single-ply,SBD,M
Boys,74.84,NS,Aiden Kilbane,Frisco Lone Star,,,,,,Single-ply,SBD,M
Boys,74.84,NS,Chuck Esedebe,Coppell,,,,,,Single-ply,SBD,M
Boys,74.84,NS,Doren Gibson,McKinney Boyd,,,,,,Single-ply,SBD,M
Boys,82.1,1,Anthony Pegues,Frisco Centennial,80.56,231.33,142.88,226.8,601.01,Single-ply,SBD,M
Boys,82.1,2,Garrett Hunter,Gunter,81.6,156.49,111.13,183.7,451.32,Single-ply,SBD,M
Boys,82.1,3,Mathew Rechsteiner,Frisco Heritage,79.83,161.03,99.79,188.24,449.06,Single-ply,SBD,M
Boys,82.1,4,Jose Betancourt,Gunter,75.66,170.1,95.25,165.56,430.91,Single-ply,SBD,M
Boys,82.1,5,Mike Edwards,Frisco Liberty,75.39,161.03,104.33,158.76,424.11,Single-ply,SBD,M
Boys,82.1,6,Matt Hinkle,McKinney North,78.38,149.69,86.18,149.69,385.55,Single-ply,SBD,M
Boys,82.1,7,Tristan Kalina,Coppell,81.37,138.35,102.06,142.88,383.29,Single-ply,SBD,M
Boys,82.1,8,Ryan Jones #7,Coppell,78.93,138.35,92.99,133.81,365.14,Single-ply,SBD,M
Boys,82.1,9,Will Roane,Gunter,81.15,95.25,65.77,111.13,272.16,Single-ply,SBD,M
Boys,82.1,10,World Shabazz,Frisco Liberty,77.88,154.22,,,154.22,Single-ply,S,M
Boys,82.1,11,Wyatt Park,McKinney Boyd,77.97,154.22,,,154.22,Single-ply,S,M
Boys,82.1,12,Matt Melvin,McKinney Boyd,81.74,136.08,,,136.08,Single-ply,S,M
Boys,82.1,NS,Matt Rockefeller,Coppell,,,,,,Single-ply,S,M
Boys,82.1,DQ,Kyle Johnson #3,Frisco,75.98,,,,,Single-ply,S,M
Boys,82.1,NS,Brandon Williams #2,Frisco Independence,,,,,,Single-ply,S,M
Boys,89.81,1,Antonio Oliver,McKinney,84.46,208.65,106.59,204.12,519.36,Single-ply,SBD,M
Boys,99.79,2,Zach Barenberg,McKinney Boyd,89.86,170.1,111.13,226.8,508.02,Single-ply,SBD,M
Boys,89.81,3,Noah Forte,McKinney North,88.86,172.37,120.2,204.12,496.68,Single-ply,SBD,M
Boys,89.81,4,Richard McNamara,Frisco Liberty,86.23,190.51,117.93,174.63,483.08,Single-ply,SBD,M
Boys,89.81,5,Andrew Reagan,Frisco Liberty,84.37,185.97,117.93,174.63,478.54,Single-ply,SBD,M
Boys,89.81,6,Braden Torres-Labrie,Frisco Heritage,89.49,176.9,104.33,172.37,453.59,Single-ply,SBD,M
Boys,89.81,7,Matt Hawke,Frisco Independence,89.77,156.49,102.06,174.63,433.18,Single-ply,SBD,M
Boys,89.81,8,Taylor Hayen,Frisco Centennial,85.77,165.56,90.72,174.63,430.91,Single-ply,SBD,M
Boys,89.81,9,Khalil Lewis,McKinney North,89.81,163.29,88.45,174.63,426.38,Single-ply,SBD,M
Boys,89.81,10,Connor Brach,Frisco,85.28,161.03,102.06,154.22,417.3,Single-ply,SBD,M
Boys,89.81,11,Spencer Gregory,McKinney North,83.46,136.08,97.52,154.22,387.82,Single-ply,SBD,M
Boys,89.81,12,Brandon Cambre,Frisco Independence,86.77,136.08,79.38,147.42,362.87,Single-ply,SBD,M
Boys,89.81,13,Trey Goodspeed,Coppell,84.59,124.74,95.25,133.81,353.8,Single-ply,SBD,M
Boys,89.81,14,Seye Akinwale,Frisco Heritage,83.51,95.25,74.84,117.93,288.03,Single-ply,SBD,M
Boys,89.81,15,Derek Brantzeg,Frisco Wakeland,86.23,176.9,,,176.9,Single-ply,S,M
Boys,89.81,16,Angel Herrera,Frisco Independence,83.42,151.95,,,151.95,Single-ply,S,M
Boys,99.79,1,Alec Melkovitz,Frisco Centennial,91.72,233.6,147.42,192.78,573.79,Single-ply,SBD,M
Boys,99.79,2,Jared Morris,McKinney North,95.71,199.58,124.74,231.33,555.65,Single-ply,SBD,M
Boys,99.79,3,Ryan Knesek,Frisco Wakeland,95.21,213.19,104.33,217.72,535.24,Single-ply,SBD,M
Boys,99.79,4,Rafay Usman,Frisco Liberty,94.57,174.63,113.4,188.24,476.27,Single-ply,SBD,M
Boys,99.79,5,Michael Carpin,Frisco Heritage,96.57,170.1,117.93,174.63,462.66,Single-ply,SBD,M
Boys,99.79,6,Nick Borona,Frisco Centennial,94.71,185.97,122.47,147.42,455.86,Single-ply,SBD,M
Boys,99.79,7,Torrain Walker,McKinney,91.67,181.44,102.06,170.1,453.59,Single-ply,SBD,M
Boys,99.79,8,Logan Jones,Frisco Lone Star,91.85,165.56,113.4,167.83,446.79,Single-ply,SBD,M
Boys,99.79,9,Blake Bass,McKinney Boyd,98.2,183.7,97.52,158.76,439.98,Single-ply,SBD,M
Boys,99.79,10,Chase Gschweng,Frisco Independence,94.53,170.1,83.91,161.03,415.04,Single-ply,SBD,M
Boys,99.79,11,Sergio Aldana,Frisco,93.44,142.88,99.79,167.83,410.5,Single-ply,SBD,M
Boys,99.79,12,Vincent Ton,Frisco,98.25,142.88,102.06,142.88,387.82,Single-ply,SBD,M
Boys,99.79,13,Elijah Klopatek,Frisco,99.29,136.08,86.18,147.42,369.68,Single-ply,SBD,M
Boys,109.77,1,Gage Rieter,Frisco Liberty,101.97,204.12,147.42,217.72,569.26,Single-ply,SBD,M
Boys,109.77,2,Dorrian Ogas,Frisco Liberty,100.56,183.7,133.81,199.58,517.1,Single-ply,SBD,M
Boys,109.77,3,Kelvin Apari,Frisco Lone Star,102.38,190.51,127.01,192.78,510.29,Single-ply,SBD,M
Boys,109.77,4,Tyler Ballard,Frisco Liberty,107.37,197.31,120.2,179.17,496.68,Single-ply,SBD,M
Boys,109.77,5,Drew Grisham,McKinney North,105.14,181.44,108.86,199.58,489.88,Single-ply,SBD,M
Boys,109.77,6,Will Wagner,Frisco,105.19,127.01,95.25,161.03,383.29,Single-ply,SBD,M
Boys,109.77,7,Aaron Freshour,Frisco Independence,104.24,136.08,83.91,147.42,367.41,Single-ply,SBD,M
Boys,109.77,8,Jake Waszkowski,McKinney Boyd,103.83,142.88,,,142.88,Single-ply,S,M
Boys,109.77,9,Jett Carson,McKinney,103.42,140.61,,,140.61,Single-ply,S,M
Boys,109.77,NS,Andres Salerno,Frisco,,,,,,Single-ply,S,M
Boys,109.77,NS,Jake Ray,Frisco Lone Star,,,,,,Single-ply,S,M
Boys,124.74,1,Camren Thompson,Frisco Wakeland,124.56,294.84,145.15,238.14,678.12,Single-ply,SBD,M
Boys,124.74,2,Phillip Abramo,Frisco,121.2,235.87,145.15,188.24,569.26,Single-ply,SBD,M
Boys,124.74,3,Donovan Taylor,Frisco Centennial,117.75,201.85,140.61,183.7,526.17,Single-ply,SBD,M
Boys,124.74,4,Hernandez Christian,Frisco Lone Star,113.94,183.7,127.01,174.63,485.34,Single-ply,SBD,M
Boys,124.74,5,Constantino Zuniga,McKinney North,117.44,181.44,104.33,197.31,483.08,Single-ply,SBD,M
Boys,124.74,6,Connor Wilkinson,Frisco,114.58,147.42,102.06,208.65,458.13,Single-ply,SBD,M
Boys,124.74,7,Kevin Mair,Frisco Heritage,111.86,165.56,97.52,170.1,433.18,Single-ply,SBD,M
Boys,124.74,8,Blaine Nuckols,Frisco Heritage,,215.46,,,215.46,Single-ply,S,M
Boys,124.74+,1,Alex Boyer,Frisco Liberty,131.63,242.67,163.29,219.99,625.96,Single-ply,SBD,M
Boys,124.74+,2,Alec Jamar,Frisco Liberty,130.36,238.14,142.88,210.92,591.94,Single-ply,SBD,M
Boys,124.74+,3,Patrick Quintana,McKinney Boyd,137.76,231.33,142.88,192.78,566.99,Single-ply,SBD,M
Boys,124.74+,4,Jose Mejia,Coppell,125.42,179.17,142.88,179.17,501.22,Single-ply,SBD,M
Boys,124.74+,5,Tanner Leser,Frisco Lone Star,128.5,183.7,122.47,190.51,496.68,Single-ply,SBD,M
Boys,124.74+,6,Davy Hernandez,Frisco Independence,154.81,142.88,97.52,142.88,383.29,Single-ply,SBD,M
Boys,124.74+,7,Zach Thomas,McKinney North,142.84,249.48,131.54,,381.02,Single-ply,SB,M
Boys,124.74+,8,Jaxson Deaton,Frisco,147.87,195.04,133.81,,328.85,Single-ply,SB,M
