Division,WeightClassKg,Place,Name,Team,BodyweightKg,Best3SquatKg,Best3BenchKg,Best3DeadliftKg,TotalKg,Equipment,Event,Sex,BirthDate
Boys,51.71,1,Damion Gonzales,Lockney,51.26,172.37,102.06,170.1,444.52,Single-ply,SBD,M,
Boys,51.71,2,Chris Minor,Ralls,51.71,120.2,72.57,136.08,328.85,Single-ply,SBD,M,
Boys,51.71,3,Jaime Montoya,Abernathy,49.26,111.13,61.23,129.27,301.64,Single-ply,SBD,M,
Boys,59.87,1,Patricio Garcia,Brownfield,57.97,117.93,63.5,115.67,297.1,Single-ply,SBD,M,
Boys,59.87,2,Kyler Neill,Wellman-Union,59.69,102.06,61.23,113.4,276.69,Single-ply,SBD,M,
Boys,67.13,1,Trae Zavala III,Ralls,62.78,170.1,108.86,181.44,460.4,Single-ply,SBD,M,
Boys,67.13,2,Jesus Montoya,Post,66.86,181.44,108.86,158.76,449.06,Single-ply,SBD,M,
Boys,67.13,3,Nathaniel Luna,Brownfield,66.13,151.95,83.91,181.44,417.3,Single-ply,SBD,M,
Boys,67.13,4,Felix Gonzales,Lockney,62.78,147.42,83.91,161.03,392.36,Single-ply,SBD,M,
Boys,67.13,5,Cyrus Marquez,Post,64.14,127.01,90.72,165.56,383.29,Single-ply,SBD,M,
Boys,67.13,6,Ian Vegara,Post,64.14,147.42,77.11,149.69,374.21,Single-ply,SBD,M,
Boys,67.13,7,Quincy Graham,Slaton,65.68,133.81,81.65,147.42,362.87,Single-ply,SBD,M,
Boys,67.13,8,Gage Graves,Lockney,60.87,120.2,68.04,129.27,317.51,Single-ply,SBD,M,
Boys,67.13,9,Morris Salas,Lockney,66.04,127.01,77.11,163.29,367.41,Single-ply,SBD,M,
Boys,67.13,9,Austin Simmons,Slaton,61.42,106.59,81.65,120.2,308.44,Single-ply,SBD,M,
Boys,67.13,10,Robert Ramirez,Wellman-Union,62.14,99.79,56.7,122.47,278.96,Single-ply,SBD,M,
Boys,67.13,11,Branson Harris,Post,63.78,102.06,58.97,104.33,265.35,Single-ply,SBD,M,
Boys,67.13,DQ,Jeremiah Rosales,Lockney,61.87,138.35,63.5,,,Single-ply,SBD,M,
Boys,74.84,1,Steve Salazar,Ralls,74.66,195.04,127.01,197.31,519.36,Single-ply,SBD,M,
Boys,74.84,2,CJ Anzley,Slaton,74.21,185.97,122.47,197.31,505.76,Single-ply,SBD,M,
Boys,74.84,3,Ethan Anzley,Slaton,74.21,181.44,95.25,226.8,503.49,Single-ply,SBD,M,
Boys,74.84,4,Collin Simmons,Slaton,69.04,158.76,113.4,158.76,430.91,Single-ply,SBD,M,
Boys,74.84,5,Zaiah Lopez,Ralls,72.67,149.69,92.99,185.97,428.64,Single-ply,SBD,M,
Boys,74.84,6,Isaias Gallegos,Slaton,72.03,140.61,95.25,183.7,419.57,Single-ply,SBD,M,
Boys,74.84,7,Justin Zavala,Ralls,73.39,145.15,104.33,165.56,415.04,Single-ply,SBD,M,
Boys,74.84,8,Eusubio Garcia,Brownfield,73.57,147.42,83.91,154.22,385.55,Single-ply,SBD,M,
Boys,74.84,10,Jayden Garcia,Slaton,74.3,127.01,90.72,145.15,362.87,Single-ply,SBD,M,
Boys,74.84,11,Avel Sinclair,Abernathy,69.94,113.4,90.72,154.22,358.34,Single-ply,SBD,M,
Boys,82.1,1,Sergio Salinas,Ralls,82.01,226.8,136.08,233.6,596.47,Single-ply,SBD,M,
Boys,82.1,2,Francisco Garza,Brownfield,80.47,210.92,111.13,190.51,512.56,Single-ply,SBD,M,
Boys,82.1,3,Nathan Ceniceros,Lockney,79.83,167.83,117.93,217.72,503.49,Single-ply,SBD,M,
Boys,82.1,4,Bryson Salazar,Slaton,76.02,172.37,131.54,190.51,494.42,Single-ply,SBD,M,
Boys,82.1,5,Keagon Dominguez,Wellman-Union,81.19,151.95,83.91,163.29,399.16,Single-ply,SBD,M,
Boys,82.1,6,Diego Chavez,Ralls,75.57,136.08,90.72,156.49,383.29,Single-ply,SBD,M,
Boys,82.1,7,Jd O'Briant,Wellman-Union,75.57,138.35,65.77,158.76,362.87,Single-ply,SBD,M,
Boys,89.81,1,Zach Anthony,Lubbock Trinity Christian Schools,88.99,249.48,145.15,226.8,621.42,Single-ply,SBD,M,
Boys,89.81,2,Trent Wright,Slaton,86.82,213.19,127.01,217.72,557.92,Single-ply,SBD,M,
Boys,89.81,3,CJ Linarez,Slaton,86.73,181.44,102.06,206.38,489.88,Single-ply,SBD,M,
Boys,89.81,4,Anthony Unger,Wellman-Union,85.73,185.97,108.86,172.37,467.2,Single-ply,SBD,M,
Boys,89.81,5,Maddux Dominguez,Abernathy,86.45,151.95,97.52,151.95,401.43,Single-ply,SBD,M,
Boys,89.81,DQ,Austin Ferriera,Brownfield,88.36,208.65,131.54,,,Single-ply,SBD,M,
Boys,99.79,1,Alejandro Rodriguez,Post,92.17,192.78,131.54,172.37,496.68,Single-ply,SBD,M,
Boys,99.79,2,James Isaacson,Lubbock Trinity Christian Schools,91.99,188.24,113.4,154.22,455.86,Single-ply,SBD,M,
Boys,99.79,3,Zayden Morin,Brownfield,98.61,181.44,104.33,151.95,437.72,Single-ply,SBD,M,
Boys,109.77,1,Daniel Leyva,Slaton,101.33,247.21,154.22,199.58,601.01,Single-ply,SBD,M,
Boys,109.77,2,Eli Alvarez,Lockney,102.06,215.46,142.88,190.51,548.85,Single-ply,SBD,M,
Boys,109.77,3,Logan Castaneda,Meadow,105.69,204.12,113.4,210.92,528.44,Single-ply,SBD,M,
Boys,109.77,4,Rudy Jimenez,Lockney,108.14,170.1,115.67,161.03,446.79,Single-ply,SBD,M,
Boys,109.77,5,Bobby Quintero,Slaton,105.69,151.95,102.06,163.29,417.3,Single-ply,SBD,M,
Boys,124.74,1,Kesean Dever,Brownfield,114.4,254.01,145.15,235.87,635.03,Single-ply,SBD,M,
Boys,124.74,2,Alex Quintero,Slaton,121.11,240.4,163.29,217.72,621.42,Single-ply,SBD,M,
Boys,124.74,3,Landon Hair,Post,122.29,199.58,136.08,181.44,517.1,Single-ply,SBD,M,
Boys,124.74,4,Zane Mendez,Ralls,115.67,195.04,95.25,170.1,460.4,Single-ply,SBD,M,
Boys,124.74,5,Gabe Perez,Post,116.21,195.04,95.25,163.29,453.59,Single-ply,SBD,M,
Boys,124.74,6,Wesley Rose,Abernathy,123.38,156.49,97.52,165.56,419.57,Single-ply,SBD,M,
Boys,139.71,1,Niko Castaneda,Meadow,134.81,306.17,170.1,263.08,739.36,Single-ply,SBD,M,
Boys,139.71,2,Hunter Mastin,Lubbock Trinity Christian Schools,132.81,283.5,172.37,204.12,659.98,Single-ply,SBD,M,
Boys,139.71,3,Caden Pritchard,Lockney,137.8,195.04,131.54,174.63,501.22,Single-ply,SBD,M,
Boys,139.71,4,Nathaniel Norgaard,Ralls,129.91,124.74,72.57,129.27,326.59,Single-ply,SBD,M,
Boys,139.71+,1,Julius Alaniz,Wellman-Union,146.87,267.62,131.54,204.12,603.28,Single-ply,SBD,M,
