Division,WeightClassKg,Place,Name,Team,BodyweightKg,Best3SquatKg,Best3BenchKg,Best3DeadliftKg,TotalKg,Equipment,Event,Sex,BirthDate
Boys,51.71,1,Carson Bhakta,Rockport-Fulton,47.04,90.72,36.29,102.06,229.06,Single-ply,SBD,M,
Boys,55.79,1,David Chittarath,Rockport-Fulton,55.52,156.49,83.91,163.29,403.7,Single-ply,SBD,M,
Boys,59.87,1,Justan Perego,Aransas Pass,58.79,83.91,56.7,113.4,254.01,Single-ply,SBD,M,
Boys,67.13,1,John Chupe,Rockport-Fulton,66.86,176.9,115.67,195.04,487.61,Single-ply,SBD,M,
Boys,67.13,2,Ray Flores,Orange Grove,66.86,188.24,115.67,181.44,485.34,Single-ply,SBD,M,
Boys,67.13,3,Isaac Tamayo,Ingleside,63.41,158.76,95.25,172.37,426.38,Single-ply,SBD,M,
Boys,67.13,4,Jonathan Mendoza,Ingleside,66.18,167.83,97.52,151.95,417.3,Single-ply,SBD,M,
Boys,67.13,5,Harris Jeff,Aransas Pass,64.68,102.06,63.5,108.86,274.42,Single-ply,SBD,M,
Boys,74.84,1,Zach Smith #10,Orange Grove,69.22,199.58,99.79,188.24,487.61,Single-ply,SBD,M,
Boys,74.84,2,Cristian Kane,Rockport-Fulton,74.84,176.9,97.52,190.51,464.93,Single-ply,SBD,M,
Boys,74.84,3,Zander Wilson,Rockport-Fulton,70.53,163.29,95.25,142.88,401.43,Single-ply,SBD,M,
Boys,74.84,4,Nygel Hudson,Ingleside,69.22,158.76,81.65,151.95,392.36,Single-ply,SBD,M,
Boys,74.84,5,Ethan Shugart,Ingleside,69.31,95.25,58.97,99.79,254.01,Single-ply,SBD,M,
Boys,82.1,1,Kaleb Schmidt,Rockport-Fulton,76.75,165.56,92.99,183.7,442.25,Single-ply,SBD,M,
Boys,82.1,2,Jesus Hernández #9,Aransas Pass,77.16,142.88,97.52,183.7,424.11,Single-ply,SBD,M,
Boys,89.81,1,Joey Cantu,Rockport-Fulton,84.14,238.14,127.01,226.8,591.94,Single-ply,SBD,M,
Boys,89.81,2,Ean McPherson,Rockport-Fulton,89.31,231.33,127.01,213.19,571.53,Single-ply,SBD,M,
Boys,89.81,3,Austin Neil,Ingleside,88.18,190.51,97.52,181.44,469.47,Single-ply,SBD,M,
Boys,99.79,1,Victor DelBosque,Orange Grove,96.25,185.97,129.27,208.65,523.9,Single-ply,SBD,M,
Boys,99.79,2,Payton McAlister,Rockport-Fulton,98.43,197.31,124.74,201.85,523.9,Single-ply,SBD,M,
Boys,99.79,3,Vic Pena,Rockport-Fulton,94.26,163.29,74.84,167.83,405.97,Single-ply,SBD,M,
Boys,99.79,4,David Hoyt,Rockport-Fulton,99.79,158.76,88.45,149.69,396.89,Single-ply,SBD,M,
Boys,109.77,1,Henry Ortez,Orange Grove,101.74,183.7,136.08,197.31,517.1,Single-ply,SBD,M,
Boys,109.77,2,Eian Meza,Aransas Pass,104.69,149.69,122.47,170.1,442.25,Single-ply,SBD,M,
Boys,109.77,3,Colton Kalhoefer,Rockport-Fulton,104.1,158.76,99.79,142.88,401.43,Single-ply,SBD,M,
Boys,124.74,1,Lance Lopez,Orange Grove,114.4,283.5,183.7,226.8,694,Single-ply,SBD,M,
Boys,124.74,2,Jonas Olivarez,Rockport-Fulton,124.24,199.58,140.61,192.78,532.97,Single-ply,SBD,M,
Boys,139.71,1,Daniel Crespin,Rockport-Fulton,131.68,172.37,83.91,158.76,415.04,Single-ply,SBD,M,
Boys,139.71+,1,Ruben Leal,Aransas Pass,157.03,240.4,197.31,183.7,621.42,Single-ply,SBD,M,
Boys,,NS,Leonard Lopez,Ingleside,,,,,,Single-ply,SBD,M,
Boys,,NS,Christian Canales,Ingleside,,,,,,Single-ply,SBD,M,
Boys,,NS,Osvaldo Garcia,Aransas Pass,,,,,,Single-ply,SBD,M,
Boys,,NS,Mason Guerrero,Orange Grove,,,,,,Single-ply,SBD,M,
Boys,,NS,Anthony Giaccone,Orange Grove,,,,,,Single-ply,SBD,M,
