Division,WeightClassKg,Place,Name,Team,BodyweightKg,Best3SquatKg,Best3BenchKg,Best3DeadliftKg,TotalKg,Equipment,Event,Sex,BirthDate
Boys,51.71,1,Noah Jones #2,Edna,50.44,90.72,61.23,136.08,288.03,Single-ply,SBD,M,
Boys,51.71,DQ,Beau Galetti,Ganado,46.49,,,,,Single-ply,SBD,M,
Boys,55.79,1,Thomas Garcia,Palacios,55.57,92.99,61.23,127.01,281.23,Single-ply,SBD,M,
Boys,55.79,2,Gieovanni Viellda,Edna,53.89,102.06,58.97,117.93,278.96,Single-ply,SBD,M,
Boys,55.79,3,Karson Van Pelt,Vanderbilt Industrial,55.02,83.91,54.43,104.33,242.67,Single-ply,SBD,M,
Boys,59.87,1,Tyrin Brito,Ganado,59.87,136.08,63.5,147.42,347,Single-ply,SBD,M,
Boys,59.87,2,Ean Chreene,Vanderbilt Industrial,56.15,117.93,74.84,138.35,331.12,Single-ply,SBD,M,
Boys,59.87,DQ,John Lopez,Edna,56.06,,,,,Single-ply,SBD,M,
Boys,59.87,DQ,Bruce Burtschell,Ganado,57.38,,,,,Single-ply,SBD,M,
Boys,67.13,1,Jeraan Arguellez,Vanderbilt Industrial,66.95,145.15,88.45,149.69,383.29,Single-ply,SBD,M,
Boys,67.13,2,Bryce Duke,Palacios,64.41,117.93,83.91,149.69,351.53,Single-ply,SBD,M,
Boys,67.13,3,Kadin Nunez,Bay City,63.37,115.67,61.23,127.01,303.91,Single-ply,SBD,M,
Boys,67.13,4,Josh Henry,Victoria St. Joseph,60.46,102.06,81.65,117.93,301.64,Single-ply,SBD,M,
Boys,67.13,DQ,Vincent Rodriguez,Vanderbilt Industrial,62.91,,,,,Single-ply,SBD,M,
Boys,67.13,DQ,John Sample,Edna,61.78,,,,,Single-ply,SBD,M,
Boys,67.13,DQ,Jacob Nguyen,Palacios,67.13,,,,,Single-ply,SBD,M,
Boys,74.84,1,Xain Dusek,El Maton Tidehaven,68.49,165.56,83.91,111.13,360.61,Single-ply,SBD,M,
Boys,74.84,2,Kevin Lara,El Maton Tidehaven,71.35,127.01,56.7,142.88,326.59,Single-ply,SBD,M,
Boys,74.84,3,Thomas Lopez,Victoria St. Joseph,74.66,111.13,68.04,142.88,322.05,Single-ply,SBD,M,
Boys,74.84,4,Austin Hill #3,Van Vleck,69.04,129.27,61.23,124.74,315.25,Single-ply,SBD,M,
Boys,74.84,5,Gabe Weaver,Victoria St. Joseph,71.76,72.57,47.63,102.06,222.26,Single-ply,SBD,M,
Boys,74.84,DQ,Jose Martinez,El Maton Tidehaven,74.84,,,,,Single-ply,SBD,M,
Boys,82.1,1,Tanner Coleman,Victoria St. Joseph,78.65,185.97,104.33,181.44,471.74,Single-ply,SBD,M,
Boys,82.1,2,Glen Ihde,Bay City,80.83,106.59,70.31,138.35,315.25,Single-ply,SBD,M,
Boys,82.1,3,Haydn Nieto,Palacios,75.61,102.06,68.04,120.2,290.3,Single-ply,SBD,M,
Boys,82.1,4,Gabriel Roemer,Palacios,80.69,83.91,54.43,117.93,256.28,Single-ply,SBD,M,
Boys,82.1,DQ,Hunter Saavedra,El Maton Tidehaven,82.1,,,,,Single-ply,SBD,M,
Boys,89.81,1,Stefan Platini,Edna,87.95,165.56,92.99,158.76,417.3,Single-ply,SBD,M,
Boys,89.81,2,Xavier Perez #1,Palacios,88.13,142.88,92.99,158.76,394.63,Single-ply,SBD,M,
Boys,89.81,3,Chris Garcia #12,Palacios,86.73,127.01,79.38,124.74,331.12,Single-ply,SBD,M,
Boys,89.81,4,Martin Estudillo,Palacios,89.04,102.06,70.31,106.59,278.96,Single-ply,SBD,M,
Boys,89.81,DQ,Dreydan Ashford,Edna,87.86,,,,,Single-ply,SBD,M,
Boys,89.81,DQ,Dalton Bohannon,Edna,83.05,131.54,,,,Single-ply,SBD,M,
Boys,89.81,DQ,Fernando Cortez,Edna,82.51,167.83,,,,Single-ply,SBD,M,
Boys,99.79,1,Eric Garza,Edna,98.61,195.04,120.2,163.29,478.54,Single-ply,SBD,M,
Boys,99.79,2,Zach Pierce,El Maton Tidehaven,90.72,165.56,97.52,199.58,462.66,Single-ply,SBD,M,
Boys,99.79,3,Hayden Land,Victoria St. Joseph,96.16,142.88,92.99,156.49,392.36,Single-ply,SBD,M,
Boys,99.79,4,Andres Bermudez,Bay City,99.25,122.47,74.84,106.59,303.91,Single-ply,SBD,M,
Boys,99.79,5,Herasmo Guerrero,Palacios,97.34,92.99,61.23,138.35,292.57,Single-ply,SBD,M,
Boys,99.79,6,Mauricio Hurtado,Palacios,97.25,92.99,43.09,92.99,229.06,Single-ply,SBD,M,
Boys,99.79,DQ,Peyton Gonzales,Edna,96.43,,,,,Single-ply,SBD,M,
Boys,99.79,DQ,Nick Rodriguez #7,El Maton Tidehaven,94.12,,,,,Single-ply,SBD,M,
Boys,99.79,DQ,Josh Figueroa,Van Vleck,93.03,,,,,Single-ply,SBD,M,
Boys,109.77,1,Tristan Bermea,Vanderbilt Industrial,107.32,249.48,158.76,224.53,632.76,Single-ply,SBD,M,
Boys,109.77,2,Michael Galvez,Bay City,108.05,201.85,133.81,210.92,546.58,Single-ply,SBD,M,
Boys,109.77,3,Nate Beck,Victoria St. Joseph,105.41,199.58,124.74,195.04,519.36,Single-ply,SBD,M,
Boys,109.77,DQ,Jace Kitchens,Vanderbilt Industrial,108.95,161.03,,,,Single-ply,SBD,M,
Boys,124.74,1,Jerry Johnson,El Maton Tidehaven,118.48,249.48,136.08,183.7,569.26,Single-ply,SBD,M,
Boys,124.74,2,Logan MacLennan,Bay City,112.13,163.29,111.13,183.7,458.13,Single-ply,SBD,M,
Boys,124.74,3,Dean Ramsey,Ganado,122.83,158.76,102.06,170.1,430.91,Single-ply,SBD,M,
Boys,124.74,4,Isaac Allen,Bay City,116.57,145.15,90.72,163.29,399.16,Single-ply,SBD,M,
Boys,124.74,5,Gabe Median,Victoria St. Joseph,111.58,124.74,83.91,151.95,360.61,Single-ply,SBD,M,
Boys,124.74,6,Henry Lopez,Palacios,114.31,124.74,61.23,117.93,303.91,Single-ply,SBD,M,
Boys,124.74,DQ,Andre Brady,Edna,114.94,158.76,90.72,,,Single-ply,SBD,M,
Boys,124.74+,1,Patrick Perkins,Van Vleck,167.01,188.24,124.74,197.31,510.29,Single-ply,SBD,M,
Boys,124.74+,2,Keegan Carillo,El Maton Tidehaven,132.81,204.12,113.4,190.51,508.02,Single-ply,SBD,M,
Boys,124.74+,3,Javi Rodriguez,Ganado,127.73,167.83,95.25,179.17,442.25,Single-ply,SBD,M,
Boys,124.74+,4,Jordan Pesina,Bay City,138.71,167.83,102.06,170.1,439.98,Single-ply,SBD,M,
Boys,124.74+,DQ,Jacob Smith,Vanderbilt Industrial,137.98,197.31,,,,Single-ply,SBD,M,
Boys,124.74+,DQ,Daylon Hernandez,El Maton Tidehaven,125.19,,,,,Single-ply,SBD,M,
