Division,WeightClassKg,Place,Name,Team,BodyweightKg,Best3SquatKg,Best3BenchKg,Best3DeadliftKg,TotalKg,Equipment,Event,Sex,BirthDate
Boys,51.71,1,Bronson Putman,Ropesville Ropes,50.44,113.4,58.97,131.54,303.91,Single-ply,SBD,M,
Boys,51.71,2,Jaidyn DeMarse,New Home,49.9,97.52,56.7,102.06,256.28,Single-ply,SBD,M,
Boys,55.79,1,Ty Dutton,New Home,55.07,77.11,63.5,95.25,235.87,Single-ply,SBD,M,
Boys,55.79,2,David Hester,Ropesville Ropes,52.62,83.91,45.36,77.11,206.38,Single-ply,SBD,M,
Boys,59.87,1,Bridger Brown,New Home,59.42,97.52,68.04,104.33,269.89,Single-ply,SBD,M,
Boys,59.87,DQ,Richard Hamby,Ropesville Ropes,59.42,83.91,,,,Single-ply,SBD,M,
Boys,67.13,1,Alex Vitolas,New Home,65.82,142.88,102.06,170.1,415.04,Single-ply,SBD,M,
Boys,67.13,2,Alec Vasquez,New Home,66.9,136.08,86.18,158.76,381.02,Single-ply,SBD,M,
Boys,67.13,3,Mike Sanchez,Ropesville Ropes,67.13,117.93,58.97,138.35,315.25,Single-ply,SBD,M,
Boys,67.13,4,Xavier Ramon,Morton,65.54,120.2,65.77,120.2,306.17,Single-ply,SBD,M,
Boys,67.13,5,Enrique Gonzalez,Sudan,62.51,102.06,61.23,133.81,297.1,Single-ply,SBD,M,
Boys,67.13,6,Bryson Nale,Ropesville Ropes,63.5,86.18,54.43,117.93,258.55,Single-ply,SBD,M,
Boys,74.84,1,Christian Enriquez,Morton,70.4,142.88,74.84,165.56,383.29,Single-ply,SBD,M,
Boys,74.84,2,Jaxon Forsythe,New Home,71.3,88.45,47.63,120.2,256.28,Single-ply,SBD,M,
Boys,74.84,3,Clayte Edwards,Ropesville Ropes,73.03,74.84,45.36,104.33,224.53,Single-ply,SBD,M,
Boys,82.1,1,Drake Wyatt,Ropesville Ropes,80.29,158.76,104.33,188.24,451.32,Single-ply,SBD,M,
Boys,82.1,2,Xzavier Torres,Ropesville Ropes,79.38,131.54,74.84,172.37,378.75,Single-ply,SBD,M,
Boys,82.1,3,Cameron Garner,Ropesville Ropes,79.47,131.54,77.11,147.42,356.07,Single-ply,SBD,M,
Boys,82.1,DQ,Edwyn Rivera,Morton,78.15,,,,,Single-ply,SBD,M,
Boys,89.81,1,Jaden Conley,Sudan,87.68,158.76,106.59,197.31,462.66,Single-ply,SBD,M,
Boys,89.81,2,Tobi Bernal,Ropesville Ropes,83.87,172.37,90.72,190.51,453.59,Single-ply,SBD,M,
Boys,89.81,3,Cy Marshall,Morton,82.64,136.08,68.04,165.56,369.68,Single-ply,SBD,M,
Boys,99.79,1,Abel Vizcarra,Morton,97.98,142.88,88.45,174.63,405.97,Single-ply,SBD,M,
Boys,109.77,1,Jermiah Castillo,Sudan,102.19,185.97,102.06,183.7,471.74,Single-ply,SBD,M,
Boys,109.77,2,Evan Sullivan,Ropesville Ropes,106.59,136.08,74.84,131.54,342.46,Single-ply,SBD,M,
Boys,109.77,3,Reid McCaleb,Ropesville Ropes,107.5,120.2,65.77,140.61,326.59,Single-ply,SBD,M,
Boys,109.77,DQ,Sam McCaleb,Ropesville Ropes,109.77,,,,,Single-ply,SBD,M,
