Division,WeightClassKg,Place,Name,Team,BodyweightKg,Best3SquatKg,Best3BenchKg,Best3DeadliftKg,TotalKg,Equipment,Event,Sex
Boys,51.71,1,Tristan Pierce,Belton,51.62,106.59,61.23,115.67,283.5,Single-ply,SBD,M
Boys,51.71,2,Caleb Dawkins,Waco,50.44,95.25,56.7,97.52,249.48,Single-ply,SBD,M
Boys,51.71,3,Dylan Charles,Gatesville,51.53,90.72,47.63,99.79,238.14,Single-ply,SBD,M
Boys,51.71,4,Joseph Knox,Belton,49.44,90.72,40.82,104.33,235.87,Single-ply,SBD,M
Boys,51.71,5,Jim Langerman,Waco Midway,50.26,63.5,40.82,83.91,188.24,Single-ply,SBD,M
Boys,51.71,DQ,Nick Turner,Mexia,48.44,65.77,52.16,,,Single-ply,SBD,M
Boys,55.79,1,Max Castelli,Belton,55.57,140.61,72.57,145.15,358.34,Single-ply,SBD,M
Boys,55.79,2,Faison Stroup,Waco University,55.43,133.81,74.84,145.15,353.8,Single-ply,SBD,M
Boys,55.79,3,Aquarius McPaul,Waco University,53.8,124.74,72.57,129.27,326.59,Single-ply,SBD,M
Boys,55.79,4,Kyle Gascon,Belton,55.66,145.15,54.43,122.47,322.05,Single-ply,SBD,M
Boys,55.79,5,Scott Gurnett,Belton,55.7,117.93,68.04,113.4,299.37,Single-ply,SBD,M
Boys,55.79,6,Joseph Barnes,Gatesville,53.89,102.06,61.23,117.93,281.23,Single-ply,SBD,M
Boys,59.87,1,Avery Rodriguez #3,Temple,56.52,142.88,95.25,161.03,399.16,Single-ply,SBD,M
Boys,59.87,2,Jaylen Montgomery,Waco Midway,59.87,149.69,83.91,158.76,392.36,Single-ply,SBD,M
Boys,59.87,3,Brent Wheeler,Belton,59.78,147.42,86.18,156.49,390.09,Single-ply,SBD,M
Boys,59.87,4,Ricardo Garcia,Mexia,59.78,131.54,77.11,163.29,371.95,Single-ply,SBD,M
Boys,59.87,5,Joe Rangel,Cameron Yoe,56.88,129.27,74.84,154.22,358.34,Single-ply,SBD,M
Boys,59.87,6,Bj Sunday,Mexia,59.69,142.88,70.31,142.88,356.07,Single-ply,SBD,M
Boys,59.87,7,Jose Marquez,Waco,58.24,138.35,74.84,122.47,335.66,Single-ply,SBD,M
Boys,59.87,8,Dakota Schramm,Gatesville,59.87,136.08,58.97,127.01,322.05,Single-ply,SBD,M
Boys,59.87,9,Ladavon Springs,Waco,59.69,111.13,70.31,136.08,317.51,Single-ply,SBD,M
Boys,59.87,10,James Hall,Cameron Yoe,58.88,122.47,70.31,106.59,299.37,Single-ply,SBD,M
Boys,59.87,11,Henry Hubnik,Cameron Yoe,58.69,111.13,54.43,129.27,294.84,Single-ply,SBD,M
Boys,59.87,12,Nathan Hunt,Belton,58.06,108.86,63.5,120.2,292.57,Single-ply,SBD,M
Boys,67.13,1,Dwight Roberts,Temple,66.68,195.04,131.54,210.92,537.51,Single-ply,SBD,M
Boys,67.13,2,Trestan Hudnall,Killeen Ellison,65.05,183.7,113.4,197.31,494.42,Single-ply,SBD,M
Boys,67.13,3,Christian Castillo,Belton,66.04,181.44,95.25,185.97,462.66,Single-ply,SBD,M
Boys,67.13,4,Cameron Parker,Belton,66.32,181.44,99.79,181.44,462.66,Single-ply,SBD,M
Boys,67.13,5,Patrick Frazho,Belton,66.32,165.56,90.72,176.9,433.18,Single-ply,SBD,M
Boys,67.13,6,Thomas McVade,Temple,65.95,158.76,86.18,158.76,403.7,Single-ply,SBD,M
Boys,67.13,7,Cameron West,Copperas Cove,63.87,136.08,77.11,138.35,351.53,Single-ply,SBD,M
Boys,67.13,8,Chester McDonald,Waco,66.32,142.88,68.04,131.54,342.46,Single-ply,SBD,M
Boys,67.13,9,Dorian Armstrong-Price,Killeen Ellison,63.14,124.74,65.77,136.08,326.59,Single-ply,SBD,M
Boys,67.13,10,Kevon Britt,Waco University,64.32,122.47,63.5,136.08,322.05,Single-ply,SBD,M
Boys,67.13,11,Capel Glee,Killeen Shoemaker,61.96,117.93,70.31,124.74,312.98,Single-ply,SBD,M
Boys,67.13,12,Jaden Sanders,Waco University,62.69,104.33,68.04,122.47,294.84,Single-ply,SBD,M
Boys,67.13,13,Tarin Morrow,Copperas Cove,64.95,104.33,65.77,117.93,288.03,Single-ply,SBD,M
Boys,67.13,DQ,Gerald Fountain,Belton,66,,,,,Single-ply,SBD,M
Boys,74.84,1,Kyleland Sauls,Temple,73.03,204.12,131.54,204.12,539.77,Single-ply,SBD,M
Boys,74.84,2,Alex Aguillon,Cameron Yoe,73.75,204.12,99.79,208.65,512.56,Single-ply,SBD,M
Boys,74.84,3,Kory Young,Killeen Ellison,72.94,195.04,106.59,195.04,496.68,Single-ply,SBD,M
Boys,74.84,4,Devyn Raper,Belton,74.57,179.17,117.93,192.78,489.88,Single-ply,SBD,M
Boys,74.84,5,Demarcus McQuarter,Mexia,72.03,163.29,102.06,192.78,458.13,Single-ply,SBD,M
Boys,74.84,6,Samuel Garcia,Belton,71.49,165.56,108.86,181.44,455.86,Single-ply,SBD,M
Boys,74.84,7,Seth Vela,Waco Midway,72.57,167.83,88.45,174.63,430.91,Single-ply,SBD,M
Boys,74.84,8,Keith Guillory,Waco,68.58,154.22,88.45,183.7,426.38,Single-ply,SBD,M
Boys,74.84,9,Myron Phillips,Mexia,68.95,156.49,102.06,161.03,419.57,Single-ply,SBD,M
Boys,74.84,10,Sebastion Evans,Waco University,72.3,147.42,102.06,161.03,410.5,Single-ply,SBD,M
Boys,74.84,11,Kai Duenas,Copperas Cove,74.84,145.15,92.99,149.69,387.82,Single-ply,SBD,M
Boys,74.84,12,De'Andre Exford,Killeen Shoemaker,71.85,158.76,79.38,142.88,381.02,Single-ply,SBD,M
Boys,74.84,13,Sam Barron,Waco,72.48,138.35,70.31,147.42,356.07,Single-ply,SBD,M
Boys,74.84,14,Caleb Warne,Belton,73.3,122.47,81.65,131.54,335.66,Single-ply,SBD,M
Boys,74.84,15,Oscar Gallardo,Waco Midway,71.4,90.72,52.16,133.81,276.69,Single-ply,SBD,M
Boys,74.84,DQ,Amir Sarzaeim,Belton,74.66,102.06,65.77,97.52,,Single-ply,SBD,M
Boys,82.1,1,Craig Dawson,Waco Midway,76.11,219.99,129.27,217.72,566.99,Single-ply,SBD,M
Boys,82.1,2,Dj Fripp,Cameron Yoe,80.1,204.12,147.42,215.46,566.99,Single-ply,SBD,M
Boys,82.1,3,Kevin Avdic,Cameron Yoe,80.38,197.31,117.93,197.31,512.56,Single-ply,SBD,M
Boys,82.1,4,Dominic Gomez,Killeen Ellison,81.37,190.51,102.06,190.51,483.08,Single-ply,SBD,M
Boys,82.1,5,Robert Nicholas,Killeen Ellison,77.2,190.51,83.91,204.12,478.54,Single-ply,SBD,M
Boys,82.1,6,Pat England,Cameron Yoe,76.38,172.37,99.79,199.58,471.74,Single-ply,SBD,M
Boys,82.1,7,Giovanni King,Copperas Cove,82.1,156.49,108.86,161.03,426.38,Single-ply,SBD,M
Boys,82.1,8,Reggie Johnson,Waco,79.74,147.42,92.99,183.7,424.11,Single-ply,SBD,M
Boys,82.1,9,Keaton Kaulfus,Belton,81.65,163.29,104.33,156.49,424.11,Single-ply,SBD,M
Boys,82.1,10,Devyn Taylor,Copperas Cove,81.83,129.27,99.79,154.22,383.29,Single-ply,SBD,M
Boys,82.1,11,Patrick Tucker,Waco,80.74,138.35,90.72,151.95,381.02,Single-ply,SBD,M
Boys,82.1,12,Tim DeLeon,Waco,78.47,115.67,61.23,145.15,322.05,Single-ply,SBD,M
Boys,82.1,13,Nate Balderas,Waco,79.29,106.59,65.77,122.47,294.84,Single-ply,SBD,M
Boys,82.1,14,Justin Clark #2,Gatesville,79.11,104.33,70.31,113.4,288.03,Single-ply,SBD,M
Boys,89.81,1,James Fullbright,Waco Midway,85.82,215.46,133.81,226.8,576.06,Single-ply,SBD,M
Boys,89.81,2,Davion Minnitt,Waco,89.09,210.92,111.13,215.46,537.51,Single-ply,SBD,M
Boys,89.81,3,Dai'Shawn Fisher,Waco,86.91,185.97,104.33,215.46,505.76,Single-ply,SBD,M
Boys,89.81,4,Alastair Robinson,Waco University,88.27,185.97,127.01,192.78,505.76,Single-ply,SBD,M
Boys,89.81,5,Kobe Bankston,Temple,87.18,174.63,111.13,185.97,471.74,Single-ply,SBD,M
Boys,89.81,6,Jacob Allen,Mexia,86.27,170.1,92.99,181.44,444.52,Single-ply,SBD,M
Boys,89.81,7,Tristan Blitzker,Cameron Yoe,83.82,131.54,88.45,154.22,374.21,Single-ply,SBD,M
Boys,89.81,8,Elijah Anderson,Waco,84.55,138.35,77.11,142.88,358.34,Single-ply,SBD,M
Boys,89.81,9,Grayson McClendon,Waco Midway,88.63,124.74,77.11,138.35,340.19,Single-ply,SBD,M
Boys,89.81,10,Ethan Trotter,Gatesville,85.09,113.4,70.31,113.4,297.1,Single-ply,SBD,M
Boys,89.81,11,Glenn Crain,Waco Midway,85,90.72,74.84,122.47,288.03,Single-ply,SBD,M
Boys,89.81,12,Joseph Jackson #2,Copperas Cove,84.82,106.59,65.77,99.79,272.16,Single-ply,SBD,M
Boys,89.81,DQ,Therron Pearl,Mexia,87.45,181.44,102.06,142.88,,Single-ply,SBD,M
Boys,99.79,1,Aubrey Kelly,Killeen Ellison,95.62,226.8,111.13,229.06,566.99,Single-ply,SBD,M
Boys,99.79,2,Devon Taplin,Belton,94.62,208.65,136.08,206.38,551.11,Single-ply,SBD,M
Boys,99.79,3,Devin Martinez,Belton,98.07,204.12,129.27,215.46,548.85,Single-ply,SBD,M
Boys,99.79,4,Garrett Orange,Belton,96.07,183.7,120.2,183.7,487.61,Single-ply,SBD,M
Boys,99.79,5,Kendrick Johnson,Temple,99.79,206.38,129.27,149.69,485.34,Single-ply,SBD,M
Boys,99.79,6,Edwardo Gil,Cameron Yoe,93.26,181.44,120.2,181.44,483.08,Single-ply,SBD,M
Boys,99.79,7,Elijah Muhammad,Waco University,92.44,183.7,106.59,190.51,480.81,Single-ply,SBD,M
Boys,99.79,8,Chris Hooper,Temple,91.35,172.37,113.4,181.44,467.2,Single-ply,SBD,M
Boys,99.79,9,Dominic Lewis,Cameron Yoe,99.79,176.9,106.59,181.44,464.93,Single-ply,SBD,M
Boys,99.79,10,Zephanie Johnson,Waco University,94.44,163.29,104.33,192.78,460.4,Single-ply,SBD,M
Boys,99.79,11,D'Ashton Merida,Temple,97.16,165.56,113.4,172.37,451.32,Single-ply,SBD,M
Boys,99.79,12,Daniel Ford,Waco Midway,94.08,170.1,97.52,172.37,439.98,Single-ply,SBD,M
Boys,99.79,13,Cornez Harris,Killeen Shoemaker,90.36,158.76,104.33,154.22,417.3,Single-ply,SBD,M
Boys,99.79,14,James Diechler,Mexia,93.89,142.88,90.72,156.49,390.09,Single-ply,SBD,M
Boys,99.79,15,Leaunte Glee,Killeen Shoemaker,93.35,136.08,72.57,106.59,315.25,Single-ply,SBD,M
Boys,99.79,DQ,Garrett Schoolcraft,Belton,94.35,136.08,88.45,127.01,,Single-ply,SBD,M
Boys,99.79,DQ,Weston Brown,Gatesville,92.08,201.85,,,,Single-ply,SBD,M
Boys,109.77,1,Arturo Jaimes,Belton,105.23,265.35,147.42,281.23,694,Single-ply,SBD,M
Boys,109.77,2,Keyshawn Dudley,Waco,107.95,204.12,136.08,215.46,555.65,Single-ply,SBD,M
Boys,109.77,3,Andrew Bullock,Waco Midway,103.69,181.44,104.33,199.58,485.34,Single-ply,SBD,M
Boys,109.77,4,Connor Laughrin,Gatesville,100.06,181.44,108.86,176.9,467.2,Single-ply,SBD,M
Boys,109.77,5,Vernon Walker,Waco Midway,105.6,181.44,95.25,181.44,458.13,Single-ply,SBD,M
Boys,109.77,6,Xavier Matchett,Cameron Yoe,100.43,172.37,86.18,181.44,439.98,Single-ply,SBD,M
Boys,109.77,7,Isiah Fach,Temple,107.41,174.63,90.72,158.76,424.11,Single-ply,SBD,M
Boys,109.77,8,Louis Alvarado,Waco University,107.77,163.29,97.52,151.95,412.77,Single-ply,SBD,M
Boys,109.77,9,Willie Carter,Waco,103.33,106.59,81.65,170.1,358.34,Single-ply,SBD,M
Boys,109.77,10,Korbyn Peaslee,Waco Midway,106.59,120.2,65.77,142.88,328.85,Single-ply,SBD,M
Boys,109.77,DQ,Wyatt Storey,Belton,105.87,149.69,86.18,136.08,,Single-ply,SBD,M
Boys,109.77,DQ,Jasper James,Belton,107.05,154.22,102.06,142.88,,Single-ply,SBD,M
Boys,124.74,1,Jim Hitchcock,Gatesville,117.57,265.35,142.88,238.14,646.37,Single-ply,SBD,M
Boys,124.74,2,Veshawn Shellman,Killeen Ellison,118.93,242.67,140.61,238.14,621.42,Single-ply,SBD,M
Boys,124.74,3,Antares Gillespie,Killeen Ellison,114.4,215.46,133.81,249.48,598.74,Single-ply,SBD,M
Boys,124.74,4,Sidney Sherwood,Belton,121.97,235.87,161.03,195.04,591.94,Single-ply,SBD,M
Boys,124.74,5,Jacob Snoddy,Gatesville,111.13,199.58,136.08,208.65,544.31,Single-ply,SBD,M
Boys,124.74,6,Russell Hogue,Temple,115.76,190.51,138.35,204.12,532.97,Single-ply,SBD,M
Boys,124.74,7,Daylan Littlejohn,Killeen Ellison,114.21,208.65,102.06,201.85,512.56,Single-ply,SBD,M
Boys,124.74,8,Daniel Castro,Waco Midway,112.31,204.12,106.59,199.58,510.29,Single-ply,SBD,M
Boys,124.74,9,Kyle Strmiska,Gatesville,119.75,188.24,124.74,181.44,494.42,Single-ply,SBD,M
Boys,124.74,10,Noah Castillo,Temple,113.94,183.7,133.81,170.1,487.61,Single-ply,SBD,M
Boys,124.74,11,Germon Newton,Waco,118.39,176.9,124.74,183.7,485.34,Single-ply,SBD,M
Boys,124.74,12,John Gorrell,Waco Midway,115.3,183.7,117.93,170.1,471.74,Single-ply,SBD,M
Boys,124.74,13,Jorge Ramirez,Waco,110.5,188.24,97.52,183.7,469.47,Single-ply,SBD,M
Boys,124.74,14,Zakary Richards,Waco Midway,121.65,181.44,102.06,185.97,469.47,Single-ply,SBD,M
Boys,124.74,15,Thomas Bowman,Belton,113.9,188.24,111.13,165.56,464.93,Single-ply,SBD,M
Boys,124.74,16,John Montemayor,Waco Midway,119.02,170.1,104.33,167.83,442.25,Single-ply,SBD,M
Boys,124.74,17,Jaylian Milton,Waco,122.29,158.76,97.52,183.7,439.98,Single-ply,SBD,M
Boys,124.74,18,Kevin Vaughn,Belton,124.51,181.44,113.4,145.15,439.98,Single-ply,SBD,M
Boys,124.74,19,Arvin Jones,Killeen Shoemaker,113.4,149.69,111.13,161.03,421.84,Single-ply,SBD,M
Boys,124.74,20,Joe Kiraly,Waco,122.29,163.29,99.79,154.22,417.3,Single-ply,SBD,M
Boys,124.74,21,Octavion Sims,Waco,113.13,113.4,92.99,163.29,369.68,Single-ply,SBD,M
Boys,124.74+,1,Keith Jackson II,Killeen Ellison,169.01,319.78,149.69,226.8,696.26,Single-ply,SBD,M
Boys,124.74+,2,Daizion Carroll,Waco Midway,144.88,285.76,151.95,249.48,687.19,Single-ply,SBD,M
Boys,124.74+,3,Phillip Haskins,Temple,134.26,260.82,154.22,256.28,671.32,Single-ply,SBD,M
Boys,124.74+,4,Adrian Lewis,Cameron Yoe,135.17,249.48,167.83,231.33,648.64,Single-ply,SBD,M
Boys,124.74+,5,Tre Colbert,Temple,134.9,204.12,147.42,204.12,555.65,Single-ply,SBD,M
Boys,124.74+,6,Chapman Rowe,Killeen Ellison,141.07,224.53,106.59,183.7,514.83,Single-ply,SBD,M
Boys,124.74+,7,Joshua Echeveria,Waco Midway,134.17,185.97,95.25,204.12,485.34,Single-ply,SBD,M
Boys,124.74+,8,Markel Carter,Temple,126.19,172.37,124.74,183.7,480.81,Single-ply,SBD,M
Boys,124.74+,9,Daniel Lopez #6,Temple,136.53,167.83,106.59,183.7,458.13,Single-ply,SBD,M
Boys,124.74+,10,Dakari White,Temple,131.81,174.63,115.67,158.76,449.06,Single-ply,SBD,M
Boys,124.74+,11,Miguel Convento,Waco Midway,142.16,156.49,92.99,170.1,419.57,Single-ply,SBD,M
Boys,124.74+,12,Robert Ursua,Waco Midway,139.62,142.88,83.91,170.1,396.89,Single-ply,SBD,M
Boys,124.74+,13,Dan Llanez,Copperas Cove,157.31,154.22,68.04,154.22,376.48,Single-ply,SBD,M
Boys,124.74+,14,Ryan Connor,Copperas Cove,133.08,147.42,72.57,147.42,367.41,Single-ply,SBD,M
Boys,124.74+,DQ,Jordan Bacerra,Waco,136.98,161.03,,,,Single-ply,SBD,M
