Division,WeightClassKg,Place,Name,Team,BodyweightKg,Best3SquatKg,Best3BenchKg,Best3DeadliftKg,TotalKg,Equipment,Event,Sex,BirthDate
Boys,51.71,DQ,Jesus Hernandez,Bryan Rudder,51.71,,,,,Single-ply,SBD,M,
Boys,55.79,1,Caden Schulens,Snook,55.7,104.33,54.43,122.47,281.23,Single-ply,SBD,M,
Boys,67.13,1,Andrei Diaczenko,Bryan Rudder,65.77,120.2,68.04,129.27,317.51,Single-ply,SBD,M,
Boys,82.1,1,Nick Villereal,Bryan Rudder,79.38,190.51,106.59,165.56,462.66,Single-ply,SBD,M,
Boys,89.81,1,Trace Emola,Bryan Rudder,88.9,219.99,142.88,201.85,564.72,Single-ply,SBD,M,
Boys,89.81,2,Logan Rudd,Bryan Rudder,83.91,117.93,68.04,133.81,319.78,Single-ply,SBD,M,
Boys,99.79,1,Mason Williams,Bryan Rudder,99.34,179.17,106.59,176.9,462.66,Single-ply,SBD,M,
Boys,109.77,1,Connor McQueen,Bryan Rudder,103.87,229.06,142.88,188.24,560.19,Single-ply,SBD,M,
Boys,109.77,2,Hunter McGary,Bryan Rudder,103.87,222.26,142.88,192.78,557.92,Single-ply,SBD,M,
Boys,124.74,1,Lyndon Williams,Bryan Rudder,115.67,235.87,183.7,249.48,669.05,Single-ply,SBD,M,
Boys,124.74,2,Harvey Roberts-Conley,Bryan Rudder,122.47,249.48,163.29,226.8,639.57,Single-ply,SBD,M,
Boys,124.74,3,Jamarian West,Bryan Rudder,111.13,219.99,113.4,183.7,517.1,Single-ply,SBD,M,
Boys,124.74,4,Marcus Wascom,Bryan,124.74,185.97,111.13,165.56,462.66,Single-ply,SBD,M,
Boys,124.74,5,Aiden Monsivais,Bryan,116.12,111.13,83.91,142.88,337.93,Single-ply,SBD,M,
Boys,139.71,1,Jason Batiste,Bryan Rudder,127.46,272.16,170.1,213.19,655.44,Single-ply,SBD,M,
Boys,139.71,2,Josh Lockhart,Groesbeck,129.27,208.65,145.15,181.44,535.24,Single-ply,SBD,M,
