Division,WeightClassKg,Place,Name,Team,BodyweightKg,Best3SquatKg,Best3BenchKg,Best3DeadliftKg,TotalKg,Equipment,Event,Sex,BirthDate
Boys,51.71,1,Carlos Bolivar,Cameron Yoe,46.27,133.81,77.11,151.95,362.87,Single-ply,SBD,M,
Boys,51.71,2,Eric Ramos,Troy,50.8,88.45,65.77,102.06,256.28,Single-ply,SBD,M,
Boys,51.71,3,Landon Powers,Troy,48.53,90.72,68.04,92.99,251.74,Single-ply,SBD,M,
Boys,51.71,4,James Washington,Killeen,49.44,102.06,52.16,97.52,251.74,Single-ply,SBD,M,
Boys,51.71,5,Tim Kruger,Rosebud-Lott,51.71,92.99,47.63,97.52,238.14,Single-ply,SBD,M,
Boys,51.71,6,Richard Lavoie,Lake Belton,49.9,86.18,52.16,95.25,233.6,Single-ply,SBD,M,
Boys,51.71,7,Stevie Ray,Giddings,49.44,77.11,56.7,83.91,217.72,Single-ply,SBD,M,
Boys,55.79,1,Dylan Deutsch,Bastrop Cedar Creek,55.79,127.01,90.72,142.88,360.61,Single-ply,SBD,M,
Boys,55.79,2,Oscar Salazar,Waco La Vega,53.98,115.67,65.77,158.76,340.19,Single-ply,SBD,M,
Boys,55.79,3,Kevin Ibanez,Troy,52.62,129.27,65.77,142.88,337.93,Single-ply,SBD,M,
Boys,55.79,4,Aidan Valdez,Rosebud-Lott,52.16,102.06,56.7,120.2,278.96,Single-ply,SBD,M,
Boys,59.87,1,Juan Cortes,Troy,59.42,111.13,79.38,127.01,317.51,Single-ply,SBD,M,
Boys,59.87,2,Nik Caprani,Rosebud-Lott,57.61,102.06,72.57,115.67,290.3,Single-ply,SBD,M,
Boys,59.87,3,Ty Darnell,Giddings,56.25,106.59,63.5,113.4,283.5,Single-ply,SBD,M,
Boys,59.87,4,Joshua Briggs,Lake Belton,58.97,83.91,56.7,111.13,251.74,Single-ply,SBD,M,
Boys,67.13,1,Diego Pena,Troy,67.13,188.24,115.67,195.04,498.95,Single-ply,SBD,M,
Boys,67.13,2,Jessiah Barr,Gonzales,66.22,181.44,113.4,195.04,489.88,Single-ply,SBD,M,
Boys,67.13,3,Carlos Saucedo,Rosebud-Lott,66.22,147.42,113.4,172.37,433.18,Single-ply,SBD,M,
Boys,67.13,4,Patrick Hart,Lake Belton,64.41,147.42,88.45,142.88,378.75,Single-ply,SBD,M,
Boys,67.13,5,DeVontae Jackson,Cameron Yoe,64.86,145.15,79.38,149.69,374.21,Single-ply,SBD,M,
Boys,67.13,6,Caleb Jeffreys,Lake Belton,60.24,113.4,74.84,124.74,312.98,Single-ply,SBD,M,
Boys,67.13,7,Kato Mattair,Rosebud-Lott,61.69,104.33,70.31,136.08,310.71,Single-ply,SBD,M,
Boys,67.13,8,Hastin Kelly,Lake Belton,66.22,113.4,61.23,136.08,310.71,Single-ply,SBD,M,
Boys,67.13,9,Julian Celedon,Bastrop Cedar Creek,65.77,88.45,61.23,102.06,251.74,Single-ply,SBD,M,
Boys,67.13,10,Solomon Staples,Bastrop Cedar Creek,64.86,83.91,68.04,90.72,242.67,Single-ply,SBD,M,
Boys,67.13,DQ,Hayden Hull,Gonzales,63.96,,,,,Single-ply,SBD,M,
Boys,67.13,DQ,Dillan Akin,Cameron Yoe,63.96,,,,,Single-ply,SBD,M,
Boys,74.84,1,Fabian Salomon,Cameron Yoe,72.57,226.8,129.27,222.26,578.33,Single-ply,SBD,M,
Boys,74.84,2,Diego Salinas,Bastrop Cedar Creek,73.03,181.44,106.59,204.12,492.15,Single-ply,SBD,M,
Boys,74.84,3,Kaden Deleon,Gonzales,71.21,158.76,113.4,156.49,428.64,Single-ply,SBD,M,
Boys,74.84,4,Devante Johnson,Killeen,70.76,165.56,88.45,165.56,419.57,Single-ply,SBD,M,
Boys,74.84,5,Jacob Marshall,Giddings,68.95,163.29,104.33,149.69,417.3,Single-ply,SBD,M,
Boys,74.84,6,Jason Allison,Rosebud-Lott,71.21,142.88,90.72,172.37,405.97,Single-ply,SBD,M,
Boys,74.84,7,Miquel Ramos,Gonzales,72.57,142.88,102.06,158.76,403.7,Single-ply,SBD,M,
Boys,74.84,8,Elijah Mascarenas,Lake Belton,74.84,147.42,83.91,151.95,383.29,Single-ply,SBD,M,
Boys,74.84,9,Ethan Meyers,Bastrop Cedar Creek,71.21,113.4,63.5,127.01,303.91,Single-ply,SBD,M,
Boys,74.84,10,Jackson Davenport,Bastrop Cedar Creek,73.03,77.11,61.23,113.4,251.74,Single-ply,SBD,M,
Boys,74.84,DQ,Cameron Gee,Killeen,73.94,190.51,,,,Single-ply,SBD,M,
Boys,74.84,DQ,Malik Bell,Killeen,74.84,165.56,,,,Single-ply,SBD,M,
Boys,74.84,DQ,Rowdy Phillips,Teague,74.39,142.88,,,,Single-ply,SBD,M,
Boys,82.1,1,Hector Granados,Giddings,81.65,242.67,142.88,226.8,612.35,Single-ply,SBD,M,
Boys,82.1,2,Emanuel Zamora,Bastrop Cedar Creek,80.74,174.63,111.13,183.7,469.47,Single-ply,SBD,M,
Boys,82.1,3,Damian Labron,Giddings,76.2,174.63,99.79,172.37,446.79,Single-ply,SBD,M,
Boys,82.1,4,Wyatt Wiedmann,Giddings,79.83,167.83,111.13,161.03,439.98,Single-ply,SBD,M,
Boys,82.1,5,Jeremiah Jones,Waco La Vega,81.65,174.63,92.99,154.22,421.84,Single-ply,SBD,M,
Boys,82.1,6,Ryan Gulledge,Troy,79.83,142.88,83.91,170.1,396.89,Single-ply,SBD,M,
Boys,82.1,7,Rocky Parker,Lake Belton,76.66,124.74,108.86,156.49,390.09,Single-ply,SBD,M,
Boys,82.1,8,Evan Perry,Lake Belton,78.93,124.74,106.59,156.49,387.82,Single-ply,SBD,M,
Boys,82.1,DQ,Anthony Dimicili,Teague,79.38,,,,,Single-ply,SBD,M,
Boys,89.81,1,Jaydon Lang,Waco La Vega,84.37,242.67,124.74,254.01,621.42,Single-ply,SBD,M,
Boys,89.81,2,Jace Carr,Troy,87.09,226.8,145.15,192.78,564.72,Single-ply,SBD,M,
Boys,89.81,3,Dylan Torres,Troy,87.09,226.8,124.74,204.12,555.65,Single-ply,SBD,M,
Boys,89.81,4,Blake Wright,Gonzales,86.18,195.04,111.13,163.29,469.47,Single-ply,SBD,M,
Boys,89.81,5,Rafael Rodriguez,Gonzales,89.36,163.29,90.72,167.83,421.84,Single-ply,SBD,M,
Boys,89.81,6,Alvin Williams,Rosebud-Lott,83.91,136.08,90.72,151.95,378.75,Single-ply,SBD,M,
Boys,89.81,7,Chase Thorpe,Lake Belton,84.82,124.74,65.77,165.56,356.07,Single-ply,SBD,M,
Boys,89.81,8,Mason Regier,Florence,88,129.27,102.06,115.67,347,Single-ply,SBD,M,
Boys,89.81,DQ,Ryland Carlisle,Florence,83.01,165.56,,,,Single-ply,SBD,M,
Boys,99.79,1,Easton Kylberg,Giddings,97.98,249.48,167.83,231.33,648.64,Single-ply,SBD,M,
Boys,99.79,2,Jamien Henley,Waco La Vega,98.43,231.33,156.49,226.8,614.62,Single-ply,SBD,M,
Boys,99.79,3,Layne Thiele,Gonzales,98.43,226.8,127.01,226.8,580.6,Single-ply,SBD,M,
Boys,99.79,4,Daniel Rodriguez,Rosebud-Lott,97.07,208.65,129.27,213.19,551.11,Single-ply,SBD,M,
Boys,99.79,5,Vinny Blount,Troy,94.8,197.31,129.27,199.58,526.17,Single-ply,SBD,M,
Boys,99.79,6,Alex Perez,Teague,97.07,192.78,124.74,165.56,483.08,Single-ply,SBD,M,
Boys,99.79,7,Michael Bachincha,Lake Belton,95.71,170.1,127.01,170.1,467.2,Single-ply,SBD,M,
Boys,99.79,8,Aisea Filitonga,Lake Belton,97.07,179.17,92.99,172.37,444.52,Single-ply,SBD,M,
Boys,99.79,9,Lamarrion Cotton,Killeen,90.72,163.29,102.06,161.03,426.38,Single-ply,SBD,M,
Boys,99.79,10,Julius Chavarria,Troy,95.71,149.69,115.67,158.76,424.11,Single-ply,SBD,M,
Boys,99.79,11,Hayden Lopez,Gonzales,98.88,183.7,92.99,147.42,424.11,Single-ply,SBD,M,
Boys,99.79,12,Kaden Bradshaw,Lake Belton,99.79,151.95,92.99,149.69,394.63,Single-ply,SBD,M,
Boys,99.79,13,Hayden Ward,Lake Belton,92.08,111.13,68.04,124.74,303.91,Single-ply,SBD,M,
Boys,99.79,DQ,Tirso Lopez,Killeen,90.72,,,,,Single-ply,SBD,M,
Boys,109.77,1,Garfield England,Cameron Yoe,105.69,219.99,147.42,210.92,578.33,Single-ply,SBD,M,
Boys,109.77,2,Joshua Mitschke,Giddings,102.51,240.4,122.47,195.04,557.92,Single-ply,SBD,M,
Boys,109.77,3,Andres Pina,Waco La Vega,106.59,215.46,129.27,195.04,539.77,Single-ply,SBD,M,
Boys,109.77,4,Nolan Kahlig,Rosebud-Lott,105.23,170.1,133.81,183.7,487.61,Single-ply,SBD,M,
Boys,109.77,5,Jaycob Raz,Giddings,107.95,181.44,108.86,183.7,474,Single-ply,SBD,M,
Boys,109.77,6,Jose Galon,Giddings,102.51,176.9,111.13,165.56,453.59,Single-ply,SBD,M,
Boys,109.77,7,Jackson Myers,Lake Belton,102.06,165.56,102.06,158.76,426.38,Single-ply,SBD,M,
Boys,109.77,8,Michael Mareno,Lake Belton,101.6,163.29,74.84,154.22,392.36,Single-ply,SBD,M,
Boys,109.77,9,Hayden Regier,Florence,103.42,142.88,90.72,142.88,376.48,Single-ply,SBD,M,
Boys,109.77,10,Michael Sandlin,Lake Belton,107.05,124.74,61.23,136.08,322.05,Single-ply,SBD,M,
Boys,124.74,1,Alexander Handy,Bastrop Cedar Creek,122.47,263.08,136.08,254.01,653.17,Single-ply,SBD,M,
Boys,124.74,2,Ivan Martinez,Waco La Vega,123.83,281.23,142.88,213.19,637.3,Single-ply,SBD,M,
Boys,124.74,3,Michael Lara,Giddings,115.21,192.78,124.74,174.63,492.15,Single-ply,SBD,M,
Boys,124.74,4,Daniel Franco,Bastrop Cedar Creek,110.68,154.22,104.33,195.04,453.59,Single-ply,SBD,M,
Boys,124.74,5,Dixon Nichols,Teague,118.39,183.7,90.72,174.63,449.06,Single-ply,SBD,M,
Boys,124.74,6,Lorenzon Chairez,Bastrop Cedar Creek,115.67,158.76,102.06,158.76,419.57,Single-ply,SBD,M,
Boys,124.74,7,Rueben Reed,Waco La Vega,112.94,170.1,70.31,151.95,392.36,Single-ply,SBD,M,
Boys,124.74,DQ,Evan Gilbert,Teague,112.94,,,,,Single-ply,SBD,M,
Boys,124.74,DQ,Braden Gutierrez,Lake Belton,113.4,,,,,Single-ply,SBD,M,
Boys,124.74,DQ,Christopher Varges,Lake Belton,113.4,,,,,Single-ply,SBD,M,
Boys,139.71,1,Easton Fulton,Rosebud-Lott,128.82,242.67,151.95,254.01,648.64,Single-ply,SBD,M,
Boys,139.71,2,Jaylen Johnson,Waco La Vega,133.81,260.82,147.42,226.8,635.03,Single-ply,SBD,M,
Boys,139.71,3,Jahymeer Larkins,Killeen,135.17,231.33,149.69,226.8,607.81,Single-ply,SBD,M,
Boys,139.71,4,Omar Borjon,Gonzales,129.73,167.83,122.47,142.88,433.18,Single-ply,SBD,M,
Boys,139.71,DQ,Sammy Hernandez,Killeen,131.09,,,,,Single-ply,SBD,M,
Boys,139.71+,1,Ja'Quan Walton,Waco La Vega,141.07,249.48,133.81,174.63,557.92,Single-ply,SBD,M,
Boys,,NS,Cj Porter,Troy,,,,,,Single-ply,SBD,M,
Boys,,NS,Skyler Dehn,Troy,,,,,,Single-ply,SBD,M,
Boys,,NS,Duncan Hamblen,Bastrop Cedar Creek,,,,,,Single-ply,SBD,M,
