Division,WeightClassKg,Place,Name,Team,BodyweightKg,Best3SquatKg,Best3BenchKg,Best3DeadliftKg,TotalKg,Equipment,Event,Sex
Boys,51.71,1,Jack Lockhart,Conroe The Woodlands,51.66,92.99,65.77,104.33,263.08,Single-ply,SBD,M
Boys,51.71,2,Noel Spurlock,Montgomery,51.44,95.25,47.63,111.13,254.01,Single-ply,SBD,M
Boys,51.71,3,Nate Colburn,Montgomery,41.05,99.79,45.36,102.06,247.21,Single-ply,SBD,M
Boys,51.71,4,Ian Alvarez,Conroe The Woodlands,49.49,81.65,45.36,92.99,219.99,Single-ply,SBD,M
Boys,55.79,1,AJ Ono,Conroe The Woodlands,55.79,165.56,97.52,167.83,430.91,Single-ply,SBD,M
Boys,55.79,2,Kelbe Sylvan,Katy Taylor,55.79,136.08,68.04,156.49,360.61,Single-ply,SBD,M
Boys,55.79,3,Michael Hushka,Conroe The Woodlands,54.16,102.06,70.31,124.74,297.1,Single-ply,SBD,M
Boys,55.79,4,Jaylynn Mitchell,Crosby,53.71,113.4,70.31,111.13,294.84,Single-ply,SBD,M
Boys,59.87,1,Nigel Moyer,Conroe The Woodlands,59.42,163.29,106.59,167.83,437.72,Single-ply,SBD,M
Boys,59.87,2,Edgar Benegas,Conroe,59.74,151.95,79.38,188.24,419.57,Single-ply,SBD,M
Boys,59.87,3,James Traylor,Montgomery,59.38,136.08,70.31,165.56,371.95,Single-ply,SBD,M
Boys,59.87,4,Nick Provost,Conroe The Woodlands,59.65,140.61,65.77,151.95,358.34,Single-ply,SBD,M
Boys,59.87,5,Ty Sauceda,Montgomery,58.33,111.13,77.11,142.88,331.12,Single-ply,SBD,M
Boys,67.13,1,Gavin Webster,Conroe The Woodlands,64.86,208.65,145.15,229.06,582.87,Single-ply,SBD,M
Boys,67.13,2,Grayson Brown,Conroe The Woodlands,65.32,231.33,127.01,183.7,542.04,Single-ply,SBD,M
Boys,67.13,3,Kenny Bounds,Montgomery,65.45,192.78,127.01,195.04,514.83,Single-ply,SBD,M
Boys,67.13,4,Anthony Salazar,Conroe The Woodlands,65.77,181.44,117.93,188.24,487.61,Single-ply,SBD,M
Boys,67.13,5,Logan Hinds,Willis,66.63,183.7,88.45,156.49,428.64,Single-ply,SBD,M
Boys,67.13,6,Charlie Reyes,Tomball,66.95,147.42,83.91,183.7,415.04,Single-ply,SBD,M
Boys,67.13,7,Noah Delahousse,Montgomery,65.68,165.56,77.11,158.76,401.43,Single-ply,SBD,M
Boys,67.13,8,Jose Escolero,Katy Taylor,64.59,154.22,92.99,145.15,392.36,Single-ply,SBD,M
Boys,67.13,9,Jacob Jackson,Conroe Woodlands College Park,64.64,147.42,97.52,140.61,385.55,Single-ply,SBD,M
Boys,67.13,10,Jordan Castro,Conroe The Woodlands,66.04,115.67,63.5,140.61,319.78,Single-ply,SBD,M
Boys,67.13,11,Scott Cole,Conroe The Woodlands,66.5,104.33,58.97,127.01,290.3,Single-ply,SBD,M
Boys,74.84,1,Elvin Martinez,Huntsville,74.48,219.99,111.13,213.19,544.31,Single-ply,SBD,M
Boys,74.84,2,Dillan Roberson,Conroe,74.84,199.58,127.01,206.38,532.97,Single-ply,SBD,M
Boys,74.84,3,Hampton Zarzour,Conroe,74.25,210.92,108.86,199.58,519.36,Single-ply,SBD,M
Boys,74.84,4,Thomas Bauer,Katy Taylor,71.67,183.7,92.99,195.04,471.74,Single-ply,SBD,M
Boys,74.84,5,Brock Knighten,Tomball,74.71,172.37,92.99,170.1,435.45,Single-ply,SBD,M
Boys,74.84,6,Westly Collins,Willis,72.35,147.42,95.25,174.63,417.3,Single-ply,SBD,M
Boys,74.84,7,Daniel McCoy,Montgomery,71.94,163.29,68.04,165.56,396.89,Single-ply,SBD,M
Boys,74.84,8,Cory Griffith,Crosby,69.85,142.88,79.38,158.76,381.02,Single-ply,SBD,M
Boys,74.84,9,Jacob Willard,Conroe The Woodlands,73.53,147.42,68.04,151.95,367.41,Single-ply,SBD,M
Boys,82.1,1,Lance Cole,Crosby,81.65,226.8,147.42,208.65,582.87,Single-ply,SBD,M
Boys,82.1,2,Jason Campbell,Conroe Woodlands College Park,80.29,206.38,113.4,222.26,542.04,Single-ply,SBD,M
Boys,82.1,3,Walker Holverson,Tomball,81.51,208.65,108.86,219.99,537.51,Single-ply,SBD,M
Boys,82.1,4,Alevon Holloman,Huntsville,79.02,204.12,115.67,210.92,530.7,Single-ply,SBD,M
Boys,82.1,5,Jaxen Halbaedier,Willis,82.01,208.65,120.2,199.58,528.44,Single-ply,SBD,M
Boys,82.1,6,Scott Spurlock,Montgomery,78.7,192.78,111.13,204.12,508.02,Single-ply,SBD,M
Boys,82.1,7,Gary Carter,Crosby,79.51,181.44,113.4,208.65,503.49,Single-ply,SBD,M
Boys,82.1,8,Chris Aimi,Katy Taylor,79.51,183.7,99.79,170.1,453.59,Single-ply,SBD,M
Boys,82.1,9,Taylor Ester,Tomball,82.05,181.44,83.91,188.24,453.59,Single-ply,SBD,M
Boys,82.1,10,Daniel Gregory,Conroe The Woodlands,78.24,151.95,92.99,183.7,428.64,Single-ply,SBD,M
Boys,82.1,11,Nick McBride,Conroe The Woodlands,82.1,142.88,88.45,151.95,383.29,Single-ply,SBD,M
Boys,82.1,12,Grant Mountain,Conroe The Woodlands,81.56,142.88,86.18,136.08,365.14,Single-ply,SBD,M
Boys,82.1,13,Harrison Blakely,Katy Taylor,79.65,136.08,70.31,102.06,308.44,Single-ply,SBD,M
Boys,89.81,1,Ali Jumili,Conroe The Woodlands,89.31,215.46,140.61,235.87,591.94,Single-ply,SBD,M
Boys,89.81,2,Tony Tapia,Conroe Woodlands College Park,86.77,226.8,149.69,206.38,582.87,Single-ply,SBD,M
Boys,89.81,3,Cortland Brown,Conroe The Woodlands,89.54,204.12,127.01,204.12,535.24,Single-ply,SBD,M
Boys,89.81,4,Jake Juranek,Tomball,89.18,188.24,136.08,204.12,528.44,Single-ply,SBD,M
Boys,89.81,5,Connor Conkle,Montgomery,84.41,192.78,113.4,185.97,492.15,Single-ply,SBD,M
Boys,89.81,6,Jon Hay,Willis,87,192.78,97.52,185.97,476.27,Single-ply,SBD,M
Boys,89.81,7,Zachary Wallace,Montgomery,89.54,192.78,104.33,174.63,471.74,Single-ply,SBD,M
Boys,89.81,8,Trey Neveu,Conroe The Woodlands,84.82,158.76,95.25,179.17,433.18,Single-ply,SBD,M
Boys,89.81,9,Hunter Moore,Crosby,84.37,151.95,86.18,181.44,419.57,Single-ply,SBD,M
Boys,89.81,10,Nathan DeJesus,Conroe The Woodlands,86.05,136.08,81.65,158.76,376.48,Single-ply,SBD,M
Boys,89.81,11,Brendan Callihan,Conroe The Woodlands,88.68,127.01,81.65,136.08,344.73,Single-ply,SBD,M
Boys,89.81,DQ,Uri Lujan,Conroe,88.18,,,,,Single-ply,SBD,M
Boys,89.81,DQ,Brandon Diaz,Crosby,89.45,,,,,Single-ply,SBD,M
Boys,99.79,1,Travis Anderson,Crosby,91.76,272.16,183.7,263.08,718.94,Single-ply,SBD,M
Boys,99.79,2,Roy Kelley,Conroe,96.62,299.37,138.35,265.35,703.07,Single-ply,SBD,M
Boys,99.79,3,Nick Tucci,Katy Taylor,93.71,210.92,120.2,244.94,576.06,Single-ply,SBD,M
Boys,99.79,4,Javier Solano,Conroe Woodlands College Park,94.48,226.8,142.88,192.78,562.45,Single-ply,SBD,M
Boys,99.79,5,Travis Null,Conroe,99.06,217.72,117.93,208.65,544.31,Single-ply,SBD,M
Boys,99.79,6,Clayton Kellener,Willis,95.35,235.87,113.4,190.51,539.77,Single-ply,SBD,M
Boys,99.79,7,Anthony Chaney,Huntsville,91.76,197.31,124.74,215.46,537.51,Single-ply,SBD,M
Boys,99.79,8,Pete Williams,Montgomery,95.07,195.04,113.4,226.8,535.24,Single-ply,SBD,M
Boys,99.79,9,Josh Costo,Conroe The Woodlands,97.61,226.8,124.74,179.17,530.7,Single-ply,SBD,M
Boys,99.79,10,Travis Anderson,Crosby,98.93,181.44,129.27,195.04,505.76,Single-ply,SBD,M
Boys,99.79,11,Owen Lynch,Montgomery,93.3,167.83,131.54,197.31,496.68,Single-ply,SBD,M
Boys,99.79,12,Jorge Zumarraga,Willis,93.17,208.65,111.13,172.37,492.15,Single-ply,SBD,M
Boys,99.79,13,Eric Lopez,Montgomery,91.44,190.51,115.67,181.44,487.61,Single-ply,SBD,M
Boys,99.79,14,Jake Jones,Willis,92.9,183.7,102.06,185.97,471.74,Single-ply,SBD,M
Boys,99.79,15,Marko Milosavljevic,Conroe The Woodlands,94.89,149.69,95.25,161.03,405.97,Single-ply,SBD,M
Boys,99.79,16,Daniel Castro,Conroe The Woodlands,99.52,145.15,86.18,165.56,396.89,Single-ply,SBD,M
Boys,99.79,17,Cody Stirman,Tomball,95.44,210.92,102.06,,312.98,Single-ply,SB,M
Boys,99.79,18,Wesley May,Montgomery,98.02,174.63,95.25,,269.89,Single-ply,SB,M
Boys,99.79,19,Kenneth Bay,Huntsville,92.99,226.8,,,226.8,Single-ply,S,M
Boys,99.79,DQ,Jacob Panah,Katy Taylor,94.17,,,,,Single-ply,SBD,M
Boys,109.77,1,Rene Troche-Baez,Conroe The Woodlands,104.24,254.01,142.88,272.16,669.05,Single-ply,SBD,M
Boys,109.77,2,Hunter Madore,Conroe The Woodlands,106.32,238.14,158.76,238.14,635.03,Single-ply,SBD,M
Boys,109.77,3,Matthew Reed,Conroe Woodlands College Park,109.32,242.67,131.54,247.21,621.42,Single-ply,SBD,M
Boys,109.77,4,Hunter Grimmett,Montgomery,104.33,231.33,149.69,229.06,610.08,Single-ply,SBD,M
Boys,109.77,5,Kallen Miller,Montgomery,105.51,235.87,145.15,219.99,601.01,Single-ply,SBD,M
Boys,109.77,6,Dalton Cyr,Huntsville,109.18,226.8,131.54,215.46,573.79,Single-ply,SBD,M
Boys,109.77,7,Caleb Diehl,Tomball,106.46,222.26,129.27,215.46,566.99,Single-ply,SBD,M
Boys,109.77,8,Cole Brumley,Huntsville,108.5,219.99,124.74,215.46,560.19,Single-ply,SBD,M
Boys,109.77,9,Kyu Oh,Conroe Woodlands College Park,108.18,210.92,129.27,190.51,530.7,Single-ply,SBD,M
Boys,109.77,10,Blake Hudgens,Montgomery,101.97,195.04,136.08,183.7,514.83,Single-ply,SBD,M
Boys,109.77,11,Lautaro Putallaz,Katy Taylor,104.46,199.58,108.86,204.12,512.56,Single-ply,SBD,M
Boys,109.77,12,Blake Haight,Willis,105.91,215.46,113.4,170.1,498.95,Single-ply,SBD,M
Boys,109.77,13,Andres Espinosa,Conroe Woodlands College Park,100.83,176.9,120.2,190.51,487.61,Single-ply,SBD,M
Boys,109.77,14,Braden Harley,Conroe,102.51,195.04,104.33,181.44,480.81,Single-ply,SBD,M
Boys,109.77,15,Cale Garrison,Conroe The Woodlands,102.06,192.78,104.33,174.63,471.74,Single-ply,SBD,M
Boys,109.77,16,Jonathan Alfonso,Conroe,100.24,188.24,104.33,174.63,467.2,Single-ply,SBD,M
Boys,109.77,17,Logan Bonner,Montgomery,100.97,165.56,129.27,170.1,464.93,Single-ply,SBD,M
Boys,109.77,18,Jackson Hendrix,Montgomery,100.38,170.1,92.99,183.7,446.79,Single-ply,SBD,M
Boys,109.77,19,Jamar Hamilton,Crosby,105.32,158.76,113.4,142.88,415.04,Single-ply,SBD,M
Boys,124.74,1,Dustin Nicholas,Huntsville,115.62,240.4,151.95,242.67,635.03,Single-ply,SBD,M
Boys,124.74,2,Cobin Estorffe,Katy Taylor,124.74,208.65,136.08,222.26,566.99,Single-ply,SBD,M
Boys,124.74,3,Jacob Bryant,Conroe,119.98,235.87,127.01,197.31,560.19,Single-ply,SBD,M
Boys,124.74,4,Max Joiner,Conroe,112.76,240.4,136.08,181.44,557.92,Single-ply,SBD,M
Boys,124.74,5,Larry Ugueto,Conroe Woodlands College Park,116.98,208.65,149.69,183.7,542.04,Single-ply,SBD,M
Boys,124.74,6,Jason Vargas,Willis,113.99,235.87,106.59,167.83,510.29,Single-ply,SBD,M
Boys,124.74,7,JD Williams,Montgomery,122.74,206.38,99.79,201.85,508.02,Single-ply,SBD,M
Boys,124.74,8,Juan Yanez,Conroe Woodlands College Park,118.12,192.78,115.67,197.31,505.76,Single-ply,SBD,M
Boys,124.74,9,Miguel Bocanegra,Huntsville,120.43,192.78,108.86,188.24,489.88,Single-ply,SBD,M
Boys,124.74,10,Mason Guinn,Willis,115.76,181.44,95.25,190.51,467.2,Single-ply,SBD,M
Boys,124.74,11,Ryan Johnson #18,Montgomery,110.59,172.37,108.86,170.1,451.32,Single-ply,SBD,M
Boys,124.74,12,Harrison Sorenson,Conroe The Woodlands,115.8,145.15,92.99,163.29,401.43,Single-ply,SBD,M
Boys,124.74,13,Cameron Balinski,Crosby,118.98,158.76,92.99,147.42,399.16,Single-ply,SBD,M
Boys,124.74,14,Kyle Herridge,Montgomery,120.29,190.51,102.06,,292.57,Single-ply,SB,M
Boys,124.74+,1,Chris Rogers,Katy Taylor,134.76,308.44,158.76,274.42,741.62,Single-ply,SBD,M
Boys,124.74+,2,Keenan Murphy,Crosby,137.12,272.16,170.1,247.21,689.46,Single-ply,SBD,M
Boys,124.74+,3,Xavier Murray,Huntsville,125.87,226.8,165.56,226.8,619.15,Single-ply,SBD,M
Boys,124.74+,4,Darius Lloyd,Conroe,126.69,244.94,127.01,233.6,605.55,Single-ply,SBD,M
Boys,124.74+,5,Matthew Hefferman,Tomball,157.76,260.82,142.88,185.97,589.67,Single-ply,SBD,M
Boys,124.74+,6,Brayden Arnold,Tomball,145.38,226.8,115.67,219.99,562.45,Single-ply,SBD,M
Boys,124.74+,7,Jordan Boatman,Conroe Woodlands College Park,133.9,183.7,95.25,174.63,453.59,Single-ply,SBD,M
