Division,WeightClassKg,Place,Name,Team,BodyweightKg,Best3SquatKg,Best3BenchKg,Best3DeadliftKg,TotalKg,Equipment,Event,Sex,BirthDate
Boys,51.71,DQ,Dylan Cantrell,Abilene Wylie,49.9,,,,,Single-ply,SBD,M,
Boys,55.79,1,Warren Jackson,Abilene,54.25,129.27,70.31,142.88,342.46,Single-ply,SBD,M,
Boys,55.79,2,Ethan Rake,Tuscola Jim Ned,51.89,102.06,61.23,127.01,290.3,Single-ply,SBD,M,
Boys,59.87,1,Jaxon Peacock,Abilene Wylie,58.51,206.38,106.59,142.88,455.86,Single-ply,SBD,M,
Boys,59.87,2,Austun Gray,Abilene Wylie,59.87,167.83,102.06,174.63,444.52,Single-ply,SBD,M,
Boys,59.87,3,Nolan Smith,Tuscola Jim Ned,57.79,147.42,77.11,131.54,356.07,Single-ply,SBD,M,
Boys,59.87,4,Keagan Franklin,Midland,59.78,117.93,65.77,142.88,326.59,Single-ply,SBD,M,
Boys,67.13,1,Landry Carlton,Abilene Wylie,66.77,240.4,142.88,215.46,598.74,Single-ply,SBD,M,
Boys,67.13,2,Royce Knight,Midland,64.5,170.1,90.72,185.97,446.79,Single-ply,SBD,M,
Boys,67.13,3,Breydon Walker,Tuscola Jim Ned,67.04,156.49,92.99,179.17,428.64,Single-ply,SBD,M,
Boys,67.13,4,Revin Gavino,Abilene Wylie,67.13,165.56,92.99,161.03,419.57,Single-ply,SBD,M,
Boys,67.13,5,Caleb Gutierrez,Abilene Cooper,67.04,154.22,102.06,158.76,415.04,Single-ply,SBD,M,
Boys,67.13,6,Rowdy Hester,Abilene,65.23,149.69,86.18,163.29,399.16,Single-ply,SBD,M,
Boys,67.13,7,Carson Moore,Tuscola Jim Ned,63.68,154.22,70.31,154.22,378.75,Single-ply,SBD,M,
Boys,74.84,1,Nimfasha Olivier,Abilene Cooper,73.57,222.26,104.33,229.06,555.65,Single-ply,SBD,M,
Boys,74.84,2,Zion Ward,Midland,74.84,238.14,111.13,206.38,555.65,Single-ply,SBD,M,
Boys,74.84,3,Drayton McCoy,Midland,73.75,185.97,122.47,190.51,498.95,Single-ply,SBD,M,
Boys,74.84,4,Damon Carrillo,Abilene Cooper,74.84,172.37,120.2,181.44,474,Single-ply,SBD,M,
Boys,74.84,5,Jaxon Carpenter,Abilene Wylie,74.84,165.56,95.25,195.04,455.86,Single-ply,SBD,M,
Boys,74.84,6,Ethan Estes,Tuscola Jim Ned,72.57,179.17,108.86,147.42,435.45,Single-ply,SBD,M,
Boys,74.84,7,De'Zhon Magee,Abilene,72.39,183.7,90.72,149.69,424.11,Single-ply,SBD,M,
Boys,74.84,8,Oliver Robnet,Midland,74.21,149.69,81.65,136.08,367.41,Single-ply,SBD,M,
Boys,74.84,9,Ethan Hill,Abilene Wylie,74.84,83.91,38.56,63.5,185.97,Single-ply,SBD,M,
Boys,82.1,1,Joel Scott,Abilene Wylie,81.65,319.78,165.56,283.5,768.84,Single-ply,SBD,M,
Boys,82.1,2,Cj McAdams,Abilene Wylie,80.29,210.92,131.54,215.46,557.92,Single-ply,SBD,M,
Boys,89.81,1,Dom Benton,Abilene Wylie,88.9,235.87,154.22,224.53,614.62,Single-ply,SBD,M,
Boys,89.81,2,Ryan Johnson,Abilene,88.54,226.8,113.4,204.12,544.31,Single-ply,SBD,M,
Boys,89.81,3,Barrett Browning,Tuscola Jim Ned,87.82,204.12,133.81,192.78,530.7,Single-ply,SBD,M,
Boys,89.81,4,Johnathan Vanwinkle,Abilene Cooper,89.72,190.51,122.47,213.19,526.17,Single-ply,SBD,M,
Boys,89.81,5,Andres Abril,Abilene,89.81,185.97,95.25,204.12,485.34,Single-ply,SBD,M,
Boys,89.81,6,Alan Michel,Midland,84.91,158.76,113.4,181.44,453.59,Single-ply,SBD,M,
Boys,89.81,DQ,Carson England,Abilene Cooper,88.45,,,,,Single-ply,SBD,M,
Boys,99.79,1,Jacob Deax,Abilene Cooper,97.79,283.5,170.1,260.82,714.41,Single-ply,SBD,M,
Boys,99.79,2,Caleb Goeddertz,Abilene Wylie,93.89,249.48,147.42,251.74,648.64,Single-ply,SBD,M,
Boys,99.79,3,Westin Rose,Abilene Wylie,98.43,231.33,165.56,219.99,616.89,Single-ply,SBD,M,
Boys,99.79,4,Val Wylie,Abilene Wylie,97.52,278.96,127.01,204.12,610.08,Single-ply,SBD,M,
Boys,99.79,5,Jaime Davila,Midland,95.71,210.92,138.35,201.85,551.11,Single-ply,SBD,M,
Boys,99.79,6,Kade Kitchens,Abilene Wylie,92.99,176.9,136.08,185.97,498.95,Single-ply,SBD,M,
Boys,99.79,7,Tristen Hall,Abilene,94.8,190.51,108.86,199.58,498.95,Single-ply,SBD,M,
Boys,99.79,8,Carson Cooper,Abilene Cooper,90.17,197.31,88.45,181.44,467.2,Single-ply,SBD,M,
Boys,99.79,9,Conner Boyd,Abilene Cooper,96.71,195.04,90.72,181.44,467.2,Single-ply,SBD,M,
Boys,99.79,10,Boss Brake,Abilene,99.16,192.78,95.25,176.9,464.93,Single-ply,SBD,M,
Boys,109.77,1,Alex Mehaffey,Abilene,100.52,229.06,113.4,217.72,560.19,Single-ply,SBD,M,
Boys,109.77,2,Marvin Ramos,Midland,107.95,201.85,145.15,210.92,557.92,Single-ply,SBD,M,
Boys,109.77,3,Caden Green,Abilene Wylie,100.7,181.44,154.22,188.24,523.9,Single-ply,SBD,M,
Boys,124.74,1,Jaxon Lunsford,Abilene Wylie,122.02,362.87,226.8,278.96,868.63,Single-ply,SBD,M,
Boys,124.74,2,Noel Herrera,Abilene Cooper,119.48,258.55,151.95,231.33,641.83,Single-ply,SBD,M,
Boys,124.74,3,Cayden Clay,Abilene Wylie,121.56,249.48,165.56,226.8,641.83,Single-ply,SBD,M,
Boys,124.74,4,Jacob Vasquez,Midland,124.19,249.48,158.76,215.46,623.69,Single-ply,SBD,M,
Boys,124.74,5,Julian Garcia,Abilene,118.48,235.87,142.88,226.8,605.55,Single-ply,SBD,M,
Boys,124.74,6,Amasyea Rollie,Midland,117.75,179.17,138.35,181.44,498.95,Single-ply,SBD,M,
Boys,124.74,7,Hayden Macke,Abilene Cooper,114.03,190.51,97.52,204.12,492.15,Single-ply,SBD,M,
Boys,124.74,8,Miguel Monroy,Midland,120.29,158.76,108.86,167.83,435.45,Single-ply,SBD,M,
Boys,139.71,1,Xzavier Collins,Abilene Wylie,137.44,376.48,192.78,337.93,907.18,Single-ply,SBD,M,
Boys,139.71,2,Brayden Flores,Abilene Cooper,137.53,272.16,167.83,233.6,673.58,Single-ply,SBD,M,
Boys,139.71,3,Goni Gjocaj,Abilene Wylie,133.36,204.12,170.1,183.7,557.92,Single-ply,SBD,M,
Boys,139.71,4,Miguel Hernandez,Abilene,138.07,210.92,115.67,185.97,512.56,Single-ply,SBD,M,
Boys,139.71,DQ,Justice McGuinness,Abilene Wylie,136.08,,,,,Single-ply,SBD,M,
Boys,139.71+,1,John Martinez-Guedry,Midland,151.14,283.5,195.04,265.35,743.89,Single-ply,SBD,M,
Boys,139.71+,2,Braxton Scott,Abilene,146.33,215.46,136.08,185.97,537.51,Single-ply,SBD,M,
Boys,139.71+,3,Brady Villanueva,Tuscola Jim Ned,164.38,199.58,108.86,190.51,498.95,Single-ply,SBD,M,
Boys,139.71+,4,Hoss Lozano,Abilene,166.92,188.24,106.59,183.7,478.54,Single-ply,SBD,M,
Boys,,NS,Devin Medina,Miles,,,,,,Single-ply,SBD,M,
Boys,,NS,Kevin Reyes,Abilene Cooper,,,,,,Single-ply,SBD,M,
