Division,WeightClassKg,Place,Name,Team,BodyweightKg,Best3SquatKg,Best3BenchKg,Best3DeadliftKg,TotalKg,Equipment,Event,Sex,BirthDate
Boys,67.13,1,Devin Bedford,Crockett,62.14,124.74,56.7,142.88,324.32,Single-ply,SBD,M,
Boys,67.13,2,Jack Recio,Chireno,61.23,79.38,56.7,106.59,242.67,Single-ply,SBD,M,
Boys,74.84,1,Crowly Pierce,Crockett,68.95,142.88,106.59,183.7,433.18,Single-ply,SBD,M,
Boys,74.84,2,Ross Byrd,Lufkin,74.84,154.22,111.13,145.15,410.5,Single-ply,SBD,M,
Boys,74.84,3,Juan Vasquez,Diboll,74.48,145.15,92.99,145.15,383.29,Single-ply,SBD,M,
Boys,74.84,4,Brandon Marrs,Crockett,73.94,115.67,74.84,151.95,342.46,Single-ply,SBD,M,
Boys,74.84,5,Trae Brooks,Diboll,73.53,124.74,74.84,136.08,335.66,Single-ply,SBD,M,
Boys,74.84,6,Dylan Porter,Crockett,70.76,117.93,88.45,124.74,331.12,Single-ply,SBD,M,
Boys,74.84,7,Detraveance Burns,Crockett,71.67,102.06,83.91,106.59,292.57,Single-ply,SBD,M,
Boys,82.1,1,Demarkus Chinn,Lufkin,80.29,158.76,95.25,158.76,412.77,Single-ply,SBD,M,
Boys,82.1,2,Juan Lara,Lufkin,78.93,151.95,88.45,156.49,396.89,Single-ply,SBD,M,
Boys,82.1,3,Chase Kovar,Lufkin,81.65,151.95,83.91,161.03,396.89,Single-ply,SBD,M,
Boys,82.1,4,Bryson Burton,Crockett,79.38,147.42,79.38,147.42,374.21,Single-ply,SBD,M,
Boys,82.1,5,Johnathon Gilbreath,Chireno,75.75,117.93,86.18,145.15,349.27,Single-ply,SBD,M,
Boys,82.1,6,Garen Dunlap,Diboll,81.74,136.08,61.23,147.42,344.73,Single-ply,SBD,M,
Boys,82.1,7,Corey Simon,Crockett,75.75,117.93,74.84,142.88,335.66,Single-ply,SBD,M,
Boys,82.1,8,Cole Steele,Chireno,79.38,86.18,79.38,129.27,294.84,Single-ply,SBD,M,
Boys,89.81,1,Trenton Hamilton,Diboll,88.81,147.42,122.47,161.03,430.91,Single-ply,SBD,M,
Boys,89.81,2,Cody Claude,Nacogdoches,89.81,147.42,90.72,165.56,403.7,Single-ply,SBD,M,
Boys,99.79,1,Javonte Monroe,Lufkin,95.25,183.7,142.88,181.44,508.02,Single-ply,SBD,M,
Boys,99.79,2,Jorden McClendon,Lufkin,95.71,158.76,99.79,158.76,417.3,Single-ply,SBD,M,
Boys,99.79,3,Brian Alvarez,Carthage,96.43,136.08,117.93,163.29,417.3,Single-ply,SBD,M,
Boys,99.79,4,Matt Chavez,Lufkin,93.89,147.42,108.86,156.49,412.77,Single-ply,SBD,M,
Boys,99.79,5,Jd Pellum,Carthage,98.75,149.69,90.72,170.1,410.5,Single-ply,SBD,M,
Boys,99.79,6,Ryan Montes,Diboll,90.76,136.08,83.91,158.76,378.75,Single-ply,SBD,M,
Boys,99.79,7,Colton Theriot,Chireno,99.79,102.06,70.31,129.27,301.64,Single-ply,SBD,M,
Boys,99.79,8,Garrett Rye,Diboll,91.53,83.91,68.04,129.27,281.23,Single-ply,SBD,M,
Boys,99.79,DQ,Luke Denby,Nacogdoches,99.79,136.08,102.06,,,Single-ply,SBD,M,
Boys,109.77,1,Michael Brown,Carthage,103.15,158.76,108.86,170.1,437.72,Single-ply,SBD,M,
Boys,109.77,2,Jaden Sanders,Nacogdoches,109.77,156.49,97.52,154.22,408.23,Single-ply,SBD,M,
Boys,109.77,3,Leon Venegas,Nacogdoches,109.77,147.42,99.79,158.76,405.97,Single-ply,SBD,M,
Boys,109.77,4,Geo Villegas,Lufkin,107.5,140.61,95.25,158.76,394.63,Single-ply,SBD,M,
Boys,124.74,1,Elijah Taylor,Crockett,119.75,226.8,145.15,165.56,537.51,Single-ply,SBD,M,
Boys,124.74,2,Elijah Alexander,Lufkin,122.47,165.56,113.4,195.04,474,Single-ply,SBD,M,
Boys,124.74,3,Eliant DeJesus,Diboll,110.95,147.42,92.99,176.9,417.3,Single-ply,SBD,M,
Boys,124.74,4,Payton Pearson,Chireno,124.74,142.88,102.06,163.29,408.23,Single-ply,SBD,M,
Boys,124.74,5,Kody Hall,Lufkin,113.85,129.27,90.72,156.49,376.48,Single-ply,SBD,M,
Boys,139.71,1,Zion Williams,Lufkin,127.46,222.26,117.93,222.26,562.45,Single-ply,SBD,M,
