Division,WeightClassKg,Place,Name,Team,BodyweightKg,Best3SquatKg,Best3BenchKg,Best3DeadliftKg,TotalKg,Equipment,Event,Sex,BirthDate
Boys,51.71,1,Braden Bluda,Hallettsville,51.12,102.06,52.16,102.06,256.28,Single-ply,SBD,M,
Boys,55.79,1,Derek Lopez,Somerville,55.79,108.86,65.77,111.13,285.76,Single-ply,SBD,M,
Boys,55.79,DQ,Dominic McKee,Altair Rice,54.43,,,,,Single-ply,SBD,M,
Boys,59.87,1,Verkobe Woodberry,Somerville,59.42,154.22,90.72,190.51,435.45,Single-ply,SBD,M,
Boys,59.87,2,Tamarion Turner,Altair Rice,59.42,115.67,61.23,129.27,306.17,Single-ply,SBD,M,
Boys,59.87,3,Mason Greenwood,Flatonia,58.51,115.67,72.57,111.13,299.37,Single-ply,SBD,M,
Boys,67.13,1,Clay Kohleffel,Columbus,66.72,147.42,95.25,156.49,399.16,Single-ply,SBD,M,
Boys,67.13,2,Kejun Wilson,Altair Rice,62.6,147.42,74.84,174.63,396.89,Single-ply,SBD,M,
Boys,67.13,3,Zane Zbranek,Altair Rice,67.09,124.74,83.91,145.15,353.8,Single-ply,SBD,M,
Boys,67.13,4,Keaton Borgstedte,Flatonia,61.42,102.06,54.43,129.27,285.76,Single-ply,SBD,M,
Boys,74.84,1,Jesse Reip,Columbus,69.44,201.85,131.54,197.31,530.7,Single-ply,SBD,M,
Boys,74.84,2,Juan Carlos Hernandez,Altair Rice,70.76,161.03,120.2,210.92,492.15,Single-ply,SBD,M,
Boys,74.84,3,Felipe Olmos,Flatonia,69.76,145.15,99.79,136.08,381.02,Single-ply,SBD,M,
Boys,74.84,4,Colby McCarthy,Columbus,68.9,127.01,77.11,140.61,344.73,Single-ply,SBD,M,
Boys,74.84,5,Tommy Linney,Bellville,74.84,92.99,61.23,97.52,251.74,Single-ply,SBD,M,
Boys,74.84,6,Max O'Brian,Bellville,74.84,61.23,40.82,70.31,172.37,Single-ply,SBD,M,
Boys,74.84,DQ,Aaron Matura,Flatonia,71.03,136.08,,,,Single-ply,SBD,M,
Boys,74.84,DQ,Jalen Porch,Altair Rice,68.99,,,,,Single-ply,SBD,M,
Boys,82.1,1,Michael Flores,Altair Rice,81.69,183.7,120.2,206.38,510.29,Single-ply,SBD,M,
Boys,82.1,2,Deven Green,Somerville,78.02,165.56,97.52,188.24,451.32,Single-ply,SBD,M,
Boys,82.1,3,Dyren Johnson,Altair Rice,78.74,151.95,90.72,174.63,417.3,Single-ply,SBD,M,
Boys,82.1,4,Noah Trevino,Bellville,82.1,142.88,95.25,145.15,383.29,Single-ply,SBD,M,
Boys,82.1,5,Brady Copley,Hallettsville,82.1,131.54,79.38,131.54,342.46,Single-ply,SBD,M,
Boys,82.1,6,Ruston Krenek,Altair Rice,81.74,97.52,74.84,129.27,301.64,Single-ply,SBD,M,
Boys,89.81,1,Caleb Hanks,Somerville,89.36,170.1,104.33,192.78,467.2,Single-ply,SBD,M,
Boys,89.81,2,Khristopher Toran,Flatonia,89.81,136.08,97.52,142.88,376.48,Single-ply,SBD,M,
Boys,89.81,3,Zach Herlong,Bellville,89.81,120.2,72.57,117.93,310.71,Single-ply,SBD,M,
Boys,89.81,DQ,Gage Staton,Hallettsville,83.32,127.01,,120.2,,Single-ply,SBD,M,
Boys,89.81,DQ,James Cotton,Altair Rice,89.4,,,,,Single-ply,SBD,M,
Boys,89.81,DQ,Adolfo Martinez,Altair Rice,83.46,,,,,Single-ply,SBD,M,
Boys,99.79,1,Mark Glover,Altair Rice,99.79,229.06,138.35,233.6,601.01,Single-ply,SBD,M,
Boys,99.79,2,Joshua Martin,Flatonia,99.16,192.78,131.54,192.78,517.1,Single-ply,SBD,M,
Boys,99.79,3,Morgan Machac,Altair Rice,97.07,183.7,138.35,188.24,510.29,Single-ply,SBD,M,
Boys,99.79,4,Carson Evans,Hallettsville,92.99,183.7,88.45,190.51,462.66,Single-ply,SBD,M,
Boys,99.79,5,Isaac Vasquez,Flatonia,99.34,176.9,113.4,172.37,462.66,Single-ply,SBD,M,
Boys,99.79,6,Cory Richardson,Bellville,99.79,192.78,124.74,145.15,462.66,Single-ply,SBD,M,
Boys,99.79,7,Payton Sprouse,Somerville,96.16,170.1,102.06,181.44,453.59,Single-ply,SBD,M,
Boys,99.79,8,Lyndon Chambers,Columbus,93.17,181.44,102.06,167.83,451.32,Single-ply,SBD,M,
Boys,99.79,9,Allec Mizera,Hallettsville,92.08,174.63,95.25,174.63,444.52,Single-ply,SBD,M,
Boys,99.79,10,Michael Havranek,Bloomington,98.79,147.42,77.11,147.42,371.95,Single-ply,SBD,M,
Boys,99.79,11,Victor Carrillo,Bellville,99.79,129.27,83.91,129.27,342.46,Single-ply,SBD,M,
Boys,99.79,12,Kohen Johnson,Bellville,99.79,120.2,79.38,115.67,315.25,Single-ply,SBD,M,
Boys,109.77,1,Austin Cummins,Columbus,109.72,224.53,140.61,201.85,566.99,Single-ply,SBD,M,
Boys,109.77,2,Hunter Mangum,Columbus,109.13,215.46,122.47,215.46,553.38,Single-ply,SBD,M,
Boys,109.77,3,Cameron Davis,Bloomington,100.56,185.97,147.42,206.38,539.77,Single-ply,SBD,M,
Boys,109.77,4,Andrew Vasquez,Somerville,109.77,215.46,129.27,183.7,528.44,Single-ply,SBD,M,
Boys,109.77,5,Sean Sims,Altair Rice,101.42,174.63,120.2,174.63,469.47,Single-ply,SBD,M,
Boys,124.74,1,Caden Espinosa,Somerville,119.75,208.65,151.95,249.48,610.08,Single-ply,SBD,M,
Boys,124.74,2,Sam Hermes,Hallettsville,112.81,213.19,131.54,204.12,548.85,Single-ply,SBD,M,
Boys,124.74,3,Canyon Surovik,Somerville,113.85,176.9,99.79,158.76,435.45,Single-ply,SBD,M,
Boys,139.71+,1,Cedric Hudgen,Somerville,151.05,204.12,102.06,90.72,396.89,Single-ply,SBD,M,
Boys,,NS,Matthew Shannon,Hallettsville,,,,,,Single-ply,SBD,M,
Boys,,NS,Anthony Scribellito,Hallettsville,,,,,,Single-ply,SBD,M,
Boys,,NS,Hudson Schobel,Columbus,,,,,,Single-ply,SBD,M,
Boys,,NS,Oscar Ramirez,Columbus,,,,,,Single-ply,SBD,M,
