Division,WeightClassKg,Place,Name,Team,BodyweightKg,Best3SquatKg,Best3BenchKg,Best3DeadliftKg,TotalKg,Equipment,Event,Sex,BirthDate
Boys,55.79,1,Cannon Smith,San Augustine,53.8,97.52,61.23,108.86,267.62,Single-ply,SBD,M,
Boys,59.87,1,Alex Stepp,Hemphill,58.42,83.91,95.25,165.56,344.73,Single-ply,SBD,M,
Boys,59.87,2,Kameron Striegel,Pineland West Sabine,59.6,136.08,74.84,113.4,324.32,Single-ply,SBD,M,
Boys,59.87,3,Daniel Palacios,San Augustine,58.24,79.38,65.77,111.13,256.28,Single-ply,SBD,M,
Boys,59.87,4,Alex McCary,Pineland West Sabine,58.97,83.91,54.43,88.45,226.8,Single-ply,SBD,M,
Boys,74.84,1,Carlos Garrett,Shelbyville,74.84,172.37,120.2,188.24,480.81,Single-ply,SBD,M,
Boys,74.84,2,DeKevin Smith,Hemphill,69.85,142.88,95.25,163.29,401.43,Single-ply,SBD,M,
Boys,74.84,3,Jed Wagstaff,Shelbyville,70.94,136.08,77.11,140.61,353.8,Single-ply,SBD,M,
Boys,74.84,4,Treyvion Jones,San Augustine,69.49,120.2,79.38,129.27,328.85,Single-ply,SBD,M,
Boys,74.84,5,Diego Prado,San Augustine,72.48,97.52,70.31,122.47,290.3,Single-ply,SBD,M,
Boys,74.84,6,Chris Williams,Hemphill,67.4,136.08,79.38,,215.46,Single-ply,SB,M,
Boys,82.1,1,Blaine Bourque,Pineland West Sabine,81.56,192.78,113.4,181.44,487.61,Single-ply,SBD,M,
Boys,89.81,1,Jolon Garner,San Augustine,85,201.85,120.2,208.65,530.7,Single-ply,SBD,M,
Boys,89.81,2,Joe Harris,Hemphill,88.18,183.7,106.59,142.88,433.18,Single-ply,SBD,M,
Boys,89.81,3,Jarren Jenkins,San Augustine,89.36,142.88,92.99,158.76,394.63,Single-ply,SBD,M,
Boys,89.81,4,Chance Gray,Shelbyville,84.64,158.76,90.72,140.61,390.09,Single-ply,SBD,M,
Boys,89.81,5,Ashton Bragg,Shelbyville,88.72,131.54,79.38,138.35,349.27,Single-ply,SBD,M,
Boys,89.81,6,Jb Metcalf,Pineland West Sabine,89.72,102.06,83.91,142.88,328.85,Single-ply,SBD,M,
Boys,99.79,1,JaMarrious Hall,Hemphill,97.43,208.65,142.88,204.12,555.65,Single-ply,SBD,M,
Boys,99.79,2,MiTelius Hoyle,Hemphill,94.89,133.81,86.18,149.69,369.68,Single-ply,SBD,M,
Boys,99.79,3,Edgar Yanez,San Augustine,92.44,108.86,74.84,136.08,319.78,Single-ply,SBD,M,
Boys,99.79,4,Trent Hoyt,San Augustine,97.25,102.06,79.38,115.67,297.1,Single-ply,SBD,M,
Boys,109.77,1,Briley Rogers,Pineland West Sabine,107.86,192.78,113.4,170.1,476.27,Single-ply,SBD,M,
Boys,109.77,2,Edvin Smith,San Augustine,103.15,147.42,124.74,192.78,464.93,Single-ply,SBD,M,
Boys,109.77,3,Dawson Jackson,Shelbyville,109.23,174.63,108.86,163.29,446.79,Single-ply,SBD,M,
Boys,124.74,1,Bo Conn,Hemphill,115.39,240.4,156.49,158.76,555.65,Single-ply,SBD,M,
Boys,124.74,2,Evan Sensat,Pineland West Sabine,117.21,151.95,92.99,158.76,403.7,Single-ply,SBD,M,
Boys,124.74,3,Leland Jenkins,San Augustine,110.5,124.74,104.33,149.69,378.75,Single-ply,SBD,M,
Boys,124.74,4,Jaylon Kirksey,San Augustine,120.75,102.06,90.72,158.76,351.53,Single-ply,SBD,M,
Boys,124.74,5,Stephen Morrison,Pineland West Sabine,115.94,83.91,65.77,124.74,274.42,Single-ply,SBD,M,
Boys,139.71+,1,Kei'Arriyen Parks,Hemphill,161.57,233.6,129.27,199.58,562.45,Single-ply,SBD,M,
