Name,BirthDate,Event,Equipment,Sex,Division,BodyweightKg,WeightClassKg,Squat1Kg,Squat2Kg,Squat3Kg,Best3SquatKg,Bench1Kg,Bench2Kg,Bench3Kg,Best3BenchKg,Deadlift1Kg,Deadlift2Kg,Deadlift3Kg,Best3DeadliftKg,TotalKg,Team,Place
Earl Fullenwider,1991-11-19,SBD,Single-ply,M,M-JV,51.75,52,132.5,-140,140,140,-77.5,-77.5,77.5,77.5,122.5,132.5,140,140,357.5,WDWRD,1
Brandon Unger,1992-02-08,SBD,Single-ply,M,M-JV,51.1,52,112.5,-117.5,-117.5,112.5,62.5,67.5,70,70,125,132.5,-137.5,132.5,315,S. MIL,2
Ivan Rodriguez,1991-07-11,SBD,Single-ply,M,M-JV,50.5,52,102.5,-107.5,-107.5,102.5,52.5,60,-65,60,115,117.5,120,120,282.5,CLRNDA,3
Tim Crampton,,SBD,Single-ply,M,M-JV,49.3,52,102.5,-107.5,-110,102.5,52.5,57.5,-62.5,57.5,102.5,110,120,120,280,LKSD AC,4
Jimmy Fairchild,1991-08-10,SBD,Single-ply,M,M-JV,54.9,56,-142.5,-142.5,142.5,142.5,82.5,85,87.5,87.5,160,-182.5,-182.5,160,390,PIONR,1
Antonio Mejia,1991-11-02,SBD,Single-ply,M,M-JV,54.55,56,122.5,137.5,-145,137.5,67.5,75,80,80,145,-157.5,157.5,157.5,375,WDWRD,2
Adam Hoff,1992-01-28,SBD,Single-ply,M,M-JV,55.65,56,100,-110,110,110,80,87.5,-97.5,87.5,135,147.5,152.5,152.5,350,G-E-T,3
Andrew Archuleta,1992-07-15,SBD,Single-ply,M,M-JV,55.45,56,115,-125,-125,115,-75,75,-80,75,125,-142.5,142.5,142.5,332.5,TM. ID,4
Kelby Kraft,1991-09-17,SBD,Single-ply,M,M-JV,59.9,60,150,167.5,-172.5,167.5,100,107.5,-115,107.5,-155,155,172.5,172.5,447.5,TM. NTRO,1
Dustin Devine,1991-11-15,SBD,Single-ply,M,M-JV,60,60,157.5,167.5,-175,167.5,80,85,-92.5,85,155,165,175,175,427.5,WHTNL,2
Keontae Moore,1991-10-17,SBD,Single-ply,M,M-JV,57.5,60,137.5,-140,140,140,82.5,-87.5,-87.5,82.5,177.5,185,-190,185,407.5,LKSD AC,3
Trenard Powell,1992-05-20,SBD,Single-ply,M,M-JV,58.25,60,142.5,-155,-155,142.5,87.5,-95,-95,87.5,157.5,170,-180,170,400,WDWRD,4
Sam Schouten,1993-07-08,SBD,Single-ply,M,M-JV,59.5,60,140,-142.5,142.5,142.5,75,77.5,80,80,155,160,-162.5,160,382.5,OSTBRG,5
Justin Flowers,1991-11-10,SBD,Single-ply,M,M-JV,59.75,60,-102.5,125,-127.5,125,92.5,100,-110,100,150,-172.5,-172.5,150,375,INLD LKS,6
Josh Miller,1993-03-09,SBD,Single-ply,M,M-JV,57.9,60,-125,130,145,145,65,70,-72.5,70,137.5,150,-157.5,150,365,S. MIL,7
Brandon Johnson,1992-12-21,SBD,Single-ply,M,M-JV,59.45,60,115,127.5,130,130,80,85,92.5,92.5,-125,130,135,135,357.5,CLRNDA,8
Tarrius Barksdale,1992-12-29,SBD,Single-ply,M,M-JV,59.95,60,117.5,125,-127.5,125,75,80,-85,80,142.5,150,-160,150,355,CLRNDA,9
Cale Schafer,1992-07-06,SBD,Single-ply,M,M-JV,59.8,60,125,135,-140,135,67.5,-70,-70,67.5,140,145,-152.5,145,347.5,WNCN,10
Jack Mui,1993-02-09,SBD,Single-ply,M,M-JV,59.6,60,100,110,117.5,117.5,55,60,-62.5,60,155,165,-170,165,342.5,NEENAH,11
Joseph Tower,1992-10-05,SBD,Single-ply,M,M-JV,57.3,60,-122.5,-122.5,-125,,-80,-80,-80,,122.5,125,127.5,127.5,,LKSD AC,DQ
Bryant Manning,1992-12-10,SBD,Single-ply,M,M-JV,59.8,60,115,-122.5,-122.5,115,70,75,-77.5,75,-125,,,,,CLRNDA,DQ
Deomonte Winton,1992-11-07,SBD,Single-ply,M,M-JV,59.55,60,107.5,115,127.5,127.5,-75,-75,-75,,-130,,,,,CLRNDA,DQ
Don Mitts,1991-08-06,SBD,Single-ply,M,M-JV,64.95,67.5,165,182.5,187.5,187.5,92.5,100,-105,100,157.5,165,182.5,182.5,470,WDWRD,1
Chas Frey,1991-04-16,SBD,Single-ply,M,M-JV,66.5,67.5,150,-157.5,157.5,157.5,110,115,122.5,122.5,172.5,180,-182.5,180,460,MRNCI,2
Evan Parker,1991-11-15,SBD,Single-ply,M,M-JV,64.35,67.5,135,150,155,155,82.5,90,-97.5,90,162.5,177.5,182.5,182.5,427.5,FLNT PWR,3
Brian Perry,1991-06-08,SBD,Single-ply,M,M-JV,66.25,67.5,145,160,172.5,172.5,87.5,-95,95,95,-150,150,-167.5,150,417.5,WDWRD,4
Tyler Daffinson,1992-07-28,SBD,Single-ply,M,M-JV,67.2,67.5,127.5,140,-145,140,97.5,-112.5,-115,97.5,-155,160,180,180,417.5,G-E-T,5
Jimmy Steinhorst,1991-06-08,SBD,Single-ply,M,M-JV,64.2,67.5,137.5,-152.5,-152.5,137.5,82.5,97.5,-102.5,97.5,150,167.5,-182.5,167.5,402.5,WI DELL,6
Dallas Shea,1991-06-15,SBD,Single-ply,M,M-JV,63.6,67.5,-115,122.5,137.5,137.5,107.5,112.5,117.5,117.5,-125,145,-150,145,400,CLRNDA,7
Lamonte Vaughn,1991-07-12,SBD,Single-ply,M,M-JV,67.3,67.5,120,125,140,140,85,-92.5,-97.5,85,147.5,160,170,170,395,CLRNDA,8
Matthew Cody,1992-08-13,SBD,Single-ply,M,M-JV,65.6,67.5,115,-125,-125,115,105,-110,110,110,135,145,-150,145,370,LKSD AC,9
Max Barren,1991-10-19,SBD,Single-ply,M,M-JV,66.2,67.5,-192.5,-205,-205,,,,,,,,,,,BRAVES,DQ
Jesse Norris,1993-08-12,SBD,Single-ply,M,M-JV,74.25,75,207.5,220,-227.5,220,120,132.5,,132.5,215,227.5,230,230,582.5,TM. ID,1
James Proctor,1992-03-05,SBD,Single-ply,M,M-JV,74.15,75,-215,-227.5,227.5,227.5,122.5,127.5,132.5,132.5,192.5,205,-220,205,565,PTSKY,2
Mark Beascochea,1993-07-09,SBD,Single-ply,M,M-JV,74.3,75,142.5,160,175,175,-117.5,125,-135,125,167.5,185,-195,185,485,CLRNDA,3
Alex Olson,1991-08-20,SBD,Single-ply,M,M-JV,73.95,75,162.5,172.5,177.5,177.5,90,97.5,102.5,102.5,182.5,195,200,200,480,G-E-T,4
Blake Woestman,1992-08-21,SBD,Single-ply,M,M-JV,73.7,75,155,167.5,177.5,177.5,90,-102.5,102.5,102.5,175,185,-190,185,465,G-E-T,5
Jorge Franco,1993-07-08,SBD,Single-ply,M,M-JV,73.1,75,150,165,-175,165,102.5,-110,110,110,167.5,180,187.5,187.5,462.5,WDWRD,6
Aaron Garcia,1992-05-25,SBD,Single-ply,M,M-JV,73.2,75,147.5,157.5,162.5,162.5,75,92.5,-102.5,92.5,165,185,195,195,450,ELZBTHN,7
Dontevous Loyd,1992-03-03,SBD,Single-ply,M,M-JV,74.65,75,-147.5,160,-172.5,160,97.5,105,-112.5,105,165,182.5,-200,182.5,447.5,CLRNDA,8
Bryn Worthington,1992-02-05,SBD,Single-ply,M,M-JV,71.1,75,-132.5,-137.5,137.5,137.5,95,97.5,-105,97.5,175,185,192.5,192.5,427.5,PNRDG,9
Jonathan Haneklaus,1992-05-12,SBD,Single-ply,M,M-JV,74.4,75,-145,-147.5,147.5,147.5,87.5,-95,-95,87.5,-172.5,190,-195,190,425,WDWRD,10
Trever Foss,1991-11-29,SBD,Single-ply,M,M-JV,81.75,82.5,217.5,225,-232.5,225,127.5,132.5,-142.5,132.5,222.5,232.5,-260,232.5,590,OSCLA,1
Demarcus Young,1991-06-18,SBD,Single-ply,M,M-JV,80.8,82.5,157.5,-185,185,185,112.5,130,-132.5,130,200,-220,-230,200,515,CLRNDA,2
Clarence Forshey III,1992-07-27,SBD,Single-ply,M,M-JV,81.8,82.5,182.5,-200,-200,182.5,115,122.5,-127.5,122.5,-190,200,-212.5,200,505,BRAVES,3
Kyle Waldvogel,1992-10-03,SBD,Single-ply,M,M-JV,78.8,82.5,152.5,167.5,175,175,92.5,110,-120,110,185,200,207.5,207.5,492.5,,4
Jake Menzel,1992-01-28,SBD,Single-ply,M,M-JV,79.5,82.5,180,187.5,-192.5,187.5,100,105,-107.5,105,182.5,190,-200,190,482.5,OSTBRG,5
Dalton Olson,1991-12-03,SBD,Single-ply,M,M-JV,80.45,82.5,165,175,-177.5,175,85,-95,95,95,210,-220,-220,210,480,G-E-T,6
Raymond Godard,1992-05-15,SBD,Single-ply,M,M-JV,77.5,82.5,120,130,145,145,110,-117.5,-117.5,110,177.5,182.5,195,195,450,LKSD AC,7
Dylan Kunz,1991-12-18,SBD,Single-ply,M,M-JV,78.35,82.5,120,135,147.5,147.5,85,100,-105,100,175,192.5,200,200,447.5,G-E-T,8
Casey Nelson,1992-09-02,SBD,Single-ply,M,M-JV,80.2,82.5,130,142.5,147.5,147.5,105,-110,-110,105,160,170,-185,170,422.5,PNRDG,9
Nikolaos Vlahos,1991-05-25,SBD,Single-ply,M,M-JV,88.45,90,200,210,217.5,217.5,130,137.5,-142.5,137.5,227.5,237.5,-247.5,237.5,592.5,WHTNL,1
Kyle Holzen,1993-04-02,SBD,Single-ply,M,M-JV,88.9,90,185,220,227.5,227.5,105,112.5,-127.5,112.5,200,230,-265,230,570,WI DELL,2
Ethan Kraus,1992-08-21,SBD,Single-ply,M,M-JV,88.5,90,-207.5,207.5,217.5,217.5,120,127.5,-137.5,127.5,172.5,187.5,-197.5,187.5,532.5,NCDH,3
Steve Bennett #1,1991-11-14,SBD,Single-ply,M,M-JV,85.3,90,160,175,182.5,182.5,107.5,-117.5,-117.5,107.5,182.5,205,225,225,515,HRSHY,4
Najieb Mahmoud,1991-06-05,SBD,Single-ply,M,M-JV,88.5,90,-167.5,-167.5,167.5,167.5,110,117.5,-122.5,117.5,192.5,202.5,-212.5,202.5,487.5,WHTNL,5
Jake Barren,1991-10-19,SBD,Single-ply,M,M-JV,88.95,90,142.5,157.5,-170,157.5,102.5,107.5,-112.5,107.5,185,202.5,-225,202.5,467.5,BRAVES,6
Matt Machtinger,1992-09-17,SBD,Single-ply,M,M-JV,89.3,90,162.5,-175,175,175,97.5,105,-110,105,-162.5,177.5,182.5,182.5,462.5,HRSHY,7
Nicholas Rieck,1991-09-05,SBD,Single-ply,M,M-JV,84.5,90,-155,155,167.5,167.5,77.5,-102.5,102.5,102.5,-160,170,182.5,182.5,452.5,G-E-T,8
Brock Erickson,1991-11-05,SBD,Single-ply,M,M-JV,86.4,90,157.5,-162.5,-167.5,157.5,72.5,77.5,-82.5,77.5,180,200,-210,200,435,G-E-T,9
Zachary Stuhr,1991-11-07,SBD,Single-ply,M,M-JV,82.6,90,147.5,-160,-167.5,147.5,90,-102.5,105,105,147.5,162.5,175,175,427.5,G-E-T,10
Benjamin Gable,1992-04-29,SBD,Single-ply,M,M-JV,87.85,90,-200,-200,-210,,130,-137.5,-137.5,130,217.5,-230,-230,217.5,,RDYD,DQ
Jordan Trompke,1992-08-11,SBD,Single-ply,M,M-JV,95,100,220,237.5,-252.5,237.5,-147.5,147.5,165,165,-210,-210,210,210,612.5,TM. ID,1
Matt Pattison,1991-06-22,SBD,Single-ply,M,M-JV,98,100,215,220,230,230,-115,117.5,-122.5,117.5,220,242.5,252.5,252.5,600,PNRDG,2
Travis Berg,1991-10-02,SBD,Single-ply,M,M-JV,96.1,100,210,217.5,-225,217.5,97.5,-115,115,115,225,235,240,240,572.5,WTHL WI,3
Neil Lacny,1992-08-30,SBD,Single-ply,M,M-JV,93.6,100,205,220,227.5,227.5,115,127.5,140,140,200,-215,-227.5,200,567.5,NCDH,4
Jacob Potter,1991-05-05,SBD,Single-ply,M,M-JV,97.2,100,160,172.5,-182.5,172.5,130,140,142.5,142.5,220,232.5,240,240,555,FRMNT,5
Zachary Gendreau,1991-09-25,SBD,Single-ply,M,M-JV,95.5,100,-190,-190,190,190,97.5,110,120,120,182.5,197.5,207.5,207.5,517.5,G-E-T,6
Demarco Allen-Crosby,1992-07-06,SBD,Single-ply,M,M-JV,96.6,100,130,142.5,170,170,110,115,122.5,122.5,180,190,205,205,497.5,LKSD AC,7
Joe Sullivan,1993-06-01,SBD,Single-ply,M,M-JV,97.8,100,182.5,-200,-200,182.5,97.5,107.5,112.5,112.5,155,-177.5,-190,155,450,PWRS,8
Paul Kerry,1992-05-12,SBD,Single-ply,M,M-JV,99,100,-167.5,172.5,182.5,182.5,105,110,-115,110,-210,-210,-210,,,CROS-LX,DQ
Nathan Marshall,1993-03-22,SBD,Single-ply,M,M-JV,101,110,185,195,-205,195,117.5,125,-135,125,197.5,212.5,222.5,222.5,542.5,WHTNL,1
Logan Wasielewski,1991-11-20,SBD,Single-ply,M,M-JV,104.3,110,187.5,205,-215,205,130,140,-142.5,140,-185,185,197.5,197.5,542.5,HRSHY,2
Richard Conaboy,1991-11-05,SBD,Single-ply,M,M-JV,100.8,110,125,160,172.5,172.5,122.5,-140,-140,122.5,197.5,212.5,215,215,510,ABNGTN,3
Sterling Kemmener,1991-11-22,SBD,Single-ply,M,M-JV,100.8,110,-167.5,167.5,185,185,110,112.5,-117.5,112.5,187.5,197.5,210,210,507.5,PNRDG,4
Kit Conrad,1991-11-26,SBD,Single-ply,M,M-JV,113.5,125,185,-212.5,225,225,92.5,100,-107.5,100,185,237.5,-262.5,237.5,562.5,WI DELL,1
Scott Erickson,1991-07-09,SBD,Single-ply,M,M-JV,110.1,125,-185,-185,-185,,132.5,140,147.5,147.5,215,227.5,-245,227.5,,WHTNL,DQ
Jacob Newby,1992-01-23,SBD,Single-ply,M,M-JV,143.9,125+,-207.5,-207.5,-207.5,,,,,,,,,,,TM. ID,DQ
Michael Hess,1992-11-03,SBD,Single-ply,M,M-V,50.7,52,105,125,-137.5,125,57.5,60,65,65,137.5,147.5,155,155,345,WI DELL,1
Sintom Vang,1992-02-05,SBD,Single-ply,M,M-V,49.05,52,110,122.5,-130,122.5,55,60,65,65,120,132.5,140,140,327.5,GL MILLS,2
Dylan Welch,1990-05-03,SBD,Single-ply,M,M-V,51.5,52,97.5,105,112.5,112.5,55,62.5,-65,62.5,130,145,-155,145,320,BRSLY,3
Brian Campbell,1990-12-16,SBD,Single-ply,M,M-V,51.2,52,115,-125,-125,115,55,62.5,-65,62.5,137.5,-147.5,-152.5,137.5,315,ASHLD,4
Noah Heller,1993-02-09,SBD,Single-ply,M,M-V,51.55,52,97.5,105,-115,105,52.5,-57.5,57.5,57.5,110,117.5,125,125,287.5,NEENAH,5
Tyler Thyssen,1990-12-10,SBD,Single-ply,M,M-V,51.05,52,82.5,90,-102.5,90,42.5,47.5,,47.5,125,135,-137.5,135,272.5,WNCN,6
Billy Naquin,1989-03-04,SBD,Single-ply,M,M-V,54.45,56,165,182.5,-190,182.5,80,92.5,97.5,97.5,210,222.5,-235,222.5,502.5,HOUMA,1
Phillip Rotar,1991-02-26,SBD,Single-ply,M,M-V,54.85,56,175,195,-200,195,112.5,117.5,120,120,165,175,-190,175,490,WIS. RPD,2
Sonage Azard,1991-08-02,SBD,Single-ply,M,M-V,55.45,56,110,125,132.5,132.5,70,-80,80,80,152.5,172.5,185,185,397.5,GL MILLS,3
Neil Steinmetz,1991-06-25,SBD,Single-ply,M,M-V,55.5,56,137.5,145,-150,145,87.5,-92.5,-92.5,87.5,152.5,157.5,-165,157.5,390,RCN HLK,4
DeMario Nealy,1991-01-10,SBD,Single-ply,M,M-V,55.25,56,137.5,147.5,157.5,157.5,65,-77.5,-77.5,65,165,-185,-185,165,387.5,PWRS,5
Mario Genovesi,1991-02-22,SBD,Single-ply,M,M-V,54.35,56,117.5,-130,-130,117.5,72.5,80,-82.5,80,137.5,140,147.5,147.5,345,GR. BLNC,6
Rene Carrizales,1989-09-16,SBD,Single-ply,M,M-V,55.9,56,110,112.5,117.5,117.5,67.5,70,75,75,142.5,147.5,152.5,152.5,345,CRZ SPR TX,7
Ian Larson,1990-05-10,SBD,Single-ply,M,M-V,55.2,56,-127.5,127.5,137.5,137.5,62.5,67.5,70,70,127.5,-137.5,-137.5,127.5,335,PHLLPS,8
Dominic MacDonald,1991-06-01,SBD,Single-ply,M,M-V,55.4,56,-137.5,-137.5,-137.5,,60,-65,,60,142.5,150,-165,150,,PIONR,DQ
Wes McCormick,1989-11-16,SBD,Single-ply,M,M-V,58.85,60,182.5,-195,-195,182.5,122.5,125,-127.5,125,205,-215,-215,205,512.5,DTRT BBL,1
Barry Mitchell,1990-02-18,SBD,Single-ply,M,M-V,59.35,60,-185,185,202.5,202.5,90,102.5,110,110,200,-215,-215,200,512.5,GL MILLS,2
Nick Stevenson,1990-03-30,SBD,Single-ply,M,M-V,59.5,60,200,-207.5,-207.5,200,-112.5,-112.5,112.5,112.5,190,-200,-217.5,190,502.5,TM. ID,3
Justin Nelson,1991-05-29,SBD,Single-ply,M,M-V,59.4,60,165,177.5,-185,177.5,90,95,97.5,97.5,167.5,-177.5,-180,167.5,442.5,E CLR N,4
Bobby Salm,1990-04-30,SBD,Single-ply,M,M-V,59.35,60,147.5,-155,-155,147.5,77.5,80,82.5,82.5,167.5,177.5,-185,177.5,407.5,NEENAH,5
DeAngelo Jones,1992-02-12,SBD,Single-ply,M,M-V,59.2,60,127.5,145,-150,145,85,97.5,-102.5,97.5,155,-172.5,-182.5,155,397.5,GL MILLS,6
Dave Stecker,1990-10-02,SBD,Single-ply,M,M-V,59.5,60,140,-145,145,145,80,82.5,-85,82.5,165,170,-172.5,170,397.5,OSTBRG,7
Kyle Culver,1992-03-17,SBD,Single-ply,M,M-V,58.25,60,-142.5,152.5,-162.5,152.5,72.5,-77.5,-77.5,72.5,142.5,155,170,170,395,E CLR N,8
Jeff Krukowski,1991-06-21,SBD,Single-ply,M,M-V,59,60,125,-135,137.5,137.5,80,95,-105,95,145,-162.5,162.5,162.5,395,WTHL WI,9
Max Grohoski,1990-07-10,SBD,Single-ply,M,M-V,59.25,60,142.5,-152.5,-152.5,142.5,80,-90,-90,80,152.5,162.5,-175,162.5,385,PWRS,10
Devin Roblyer,1992-02-26,SBD,Single-ply,M,M-V,59.45,60,132.5,140,150,150,72.5,-75,77.5,77.5,150,-167.5,-167.5,150,377.5,PLNWL,11
Jacob Williams,1991-03-26,SBD,Single-ply,M,M-V,59.8,60,-122.5,122.5,137.5,137.5,85,90,-95,90,130,137.5,150,150,377.5,BKL. CRK,12
Kelby Allen,1989-12-26,SBD,Single-ply,M,M-V,66.25,67.5,210,217.5,-225,217.5,117.5,-125,-125,117.5,197.5,205,210,210,545,MRNCI,1
Jon Lang,1991-12-20,SBD,Single-ply,M,M-V,66.6,67.5,215,-220,-220,215,-120,120,125,125,187.5,-200,-202.5,187.5,527.5,NEENAH,2
Mike Barrera,1991-02-25,SBD,Single-ply,M,M-V,67.15,67.5,190,200,-202.5,200,115,122.5,125,125,192.5,197.5,-202.5,197.5,522.5,TULOSSO,3
Schyler Turpin,1989-10-24,SBD,Single-ply,M,M-V,67.05,67.5,-185,185,195,195,115,120,-125,120,190,205,-210,205,520,CRZ SPR,4
Tony Schwebach,1990-07-28,SBD,Single-ply,M,M-V,65.65,67.5,155,167.5,182.5,182.5,102.5,-110,110,110,192.5,210,215,215,507.5,DLL RPD,5
Michael Mullins,1992-08-22,SBD,Single-ply,M,M-V,66.35,67.5,162.5,-177.5,185,185,107.5,115,120,120,170,185,197.5,197.5,502.5,CALHN,6
Martel Rooks,1991-02-01,SBD,Single-ply,M,M-V,66.3,67.5,182.5,-200,-200,182.5,97.5,105,-112.5,105,192.5,207.5,-222.5,207.5,495,WDWRD,7
Josh Leal,1991-12-22,SBD,Single-ply,M,M-V,66.3,67.5,152.5,170,177.5,177.5,97.5,105,107.5,107.5,192.5,205,-220,205,490,CALHN,8
Ryan LaVoy,1991-02-14,SBD,Single-ply,M,M-V,66.65,67.5,-172.5,-172.5,180,180,102.5,-107.5,107.5,107.5,175,190,202.5,202.5,490,NCDH,9
Mark Hollingsworth,1989-05-31,SBD,Single-ply,M,M-V,66.7,67.5,165,-177.5,177.5,177.5,115,125,-132.5,125,165,185,-190,185,487.5,JHNS CTY,10
Justin Runde,1991-05-24,SBD,Single-ply,M,M-V,66.7,67.5,170,185,-190,185,82.5,-87.5,87.5,87.5,187.5,200,212.5,212.5,485,KAUKNA,11
Joey Walton,1990-09-16,SBD,Single-ply,M,M-V,67.35,67.5,165,180,-190,180,112.5,-127.5,-127.5,112.5,170,180,192.5,192.5,485,TM. ID,12
Morgan Schulz,1989-12-23,SBD,Single-ply,M,M-V,66.25,67.5,150,167.5,172.5,172.5,92.5,100,-105,100,187.5,205,-212.5,205,477.5,FRMNT,13
Brad Bahr,1990-11-01,SBD,Single-ply,M,M-V,66.45,67.5,-152.5,155,167.5,167.5,90,95,100,100,197.5,-207.5,207.5,207.5,475,NEENAH,14
Codie Clymer,1990-10-09,SBD,Single-ply,M,M-V,66.65,67.5,-147.5,-147.5,147.5,147.5,120,-125,-125,120,170,177.5,185,185,452.5,MRNCI,15
Anthony Hill,1991-05-03,SBD,Single-ply,M,M-V,67.45,67.5,-165,-165,165,165,82.5,-95,-95,82.5,175,205,-225,205,452.5,GL MILLS,16
Thomas Monteverde,1990-04-09,SBD,Single-ply,M,M-V,65.95,67.5,140,147.5,-155,147.5,85,90,-95,90,200,-212.5,-212.5,200,437.5,OMRO,17
Phongyue Lo,1990-10-24,SBD,Single-ply,M,M-V,66.2,67.5,-162.5,162.5,180,180,95,-110,-110,95,147.5,160,-170,160,435,NEENAH,18
Derek Brester,1990-10-31,SBD,Single-ply,M,M-V,66.9,67.5,162.5,-167.5,-167.5,162.5,92.5,97.5,-100,97.5,162.5,172.5,-182.5,172.5,432.5,HOWELL,19
Matt Fauth,1990-09-20,SBD,Single-ply,M,M-V,64.2,67.5,157.5,-165,-165,157.5,67.5,80,-85,80,172.5,180,185,185,422.5,GDRCH,20
Jacob Kiessling,1989-06-25,SBD,Single-ply,M,M-V,67.2,67.5,147.5,-162.5,-175,147.5,-120,-120,-120,,185,-200,,185,,SPRFLD,DQ
Kipp Hinz,1989-07-24,SBD,Single-ply,M,M-V,74,75,222.5,232.5,-245,232.5,115,125,-130,125,245,-262.5,262.5,262.5,620,OSCLA,1
Eddie Moody,1990-05-20,SBD,Single-ply,M,M-V,73.4,75,-182.5,182.5,210,210,120,132.5,-140,132.5,207.5,230,242.5,242.5,585,GL MILLS,2
Jordan Rank,1990-08-23,SBD,Single-ply,M,M-V,73.4,75,207.5,-220,-220,207.5,-135,135,142.5,142.5,-210,210,232.5,232.5,582.5,LNCN HS,3
Terrell Jones,1990-04-11,SBD,Single-ply,M,M-V,74.6,75,175,197.5,-207.5,197.5,112.5,125,135,135,182.5,205,220,220,552.5,GL MILLS,4
Luke Schmidt,1990-08-10,SBD,Single-ply,M,M-V,69.8,75,210,-225,225,225,102.5,107.5,-122.5,107.5,202.5,212.5,-217.5,212.5,545,NEENAH,5
David Szymanski,1990-06-13,SBD,Single-ply,M,M-V,73.8,75,187.5,195,-200,195,-115,120,-122.5,120,225,-230,-230,225,540,OMAHA,6
Antwuan Gomez,1990-04-29,SBD,Single-ply,M,M-V,74.4,75,175,197.5,-207.5,197.5,-90,90,100,100,212.5,235,-250,235,532.5,GL MILLS,7
Blake Hudak,1990-02-16,SBD,Single-ply,M,M-V,73.6,75,-170,170,180,180,115,120,-125,120,180,192.5,200,200,500,GDRCH,8
Dexter Hobdy,1991-11-22,SBD,Single-ply,M,M-V,70.5,75,157.5,-175,-175,157.5,100,105,-115,105,195,210,217.5,217.5,480,PWRS,9
Phil Eggert,1989-01-25,SBD,Single-ply,M,M-V,72.5,75,170,180,-185,180,110,-120,-120,110,175,185,-190,185,475,ATHRTN,10
Saul Tirado,1990-11-08,SBD,Single-ply,M,M-V,80.5,82.5,205,230,250,250,127.5,150,157.5,157.5,207.5,232.5,250,250,657.5,GL MILLS,1
Larry Morgan,1991-10-31,SBD,Single-ply,M,M-V,80.7,82.5,205,227.5,-240,227.5,120,137.5,-142.5,137.5,250,275,-285,275,640,GL MILLS,2
Charlie Conner,1989-09-15,SBD,Single-ply,M,M-V,80.8,82.5,225,240,250,250,142.5,-155,-160,142.5,210,-240,-240,210,602.5,JNSBRO,3
Kyle Zuleger,1990-07-01,SBD,Single-ply,M,M-V,76.6,82.5,210,222.5,237.5,237.5,122.5,-132.5,-135,122.5,212.5,225,235,235,595,APPL. E.,4
Levi Hoffman,1991-06-19,SBD,Single-ply,M,M-V,81.7,82.5,225,-237.5,-237.5,225,140,142.5,-145,142.5,227.5,-240,-240,227.5,595,MRNCI,5
Shaquan Armour,1990-11-18,SBD,Single-ply,M,M-V,79.7,82.5,-175,175,200,200,115,125,135,135,217.5,237.5,-262.5,237.5,572.5,GL MILLS,6
Doug Winters,1990-11-04,SBD,Single-ply,M,M-V,82.1,82.5,182.5,200,-215,200,135,142.5,-150,142.5,205,217.5,-230,217.5,560,CLRNDA,7
Bob Sariego,1990-09-10,SBD,Single-ply,M,M-V,79.5,82.5,165,185,192.5,192.5,122.5,-127.5,-127.5,122.5,190,205,222.5,222.5,537.5,PNRDG,8
Joshua Smith,1989-11-24,SBD,Single-ply,M,M-V,81.6,82.5,-190,-190,190,190,102.5,112.5,122.5,122.5,220,-252.5,-252.5,220,532.5,PWRS,9
Tony Boyd,1989-10-31,SBD,Single-ply,M,M-V,80.3,82.5,157.5,172.5,185,185,100,110,-115,110,200,217.5,-232.5,217.5,512.5,BLLVUE,10
Zach Newmeyer,1990-01-23,SBD,Single-ply,M,M-V,80.7,82.5,155,175,180,180,110,120,-130,120,185,195,205,205,505,PLNWL,11
Lucas Triggs,1991-02-18,SBD,Single-ply,M,M-V,81.5,82.5,160,187.5,-200,187.5,92.5,-105,-105,92.5,197.5,-217.5,-220,197.5,477.5,WI DELL,12
Evan Davidson,1990-05-16,SBD,Single-ply,M,M-V,80.7,82.5,185,-220,-222.5,185,,,,,,,,,,LKSD AC,DQ
Tim Parker #3,1990-02-15,SBD,Single-ply,M,M-V,87,90,245,260,265,265,145,155,160,160,227.5,240,247.5,247.5,672.5,HRSHY,1
Andrew Hare,1990-03-01,SBD,Single-ply,M,M-V,87.7,90,225,242.5,-250,242.5,122.5,162.5,170,170,225,240,250,250,662.5,CINCI,2
Josef Stachowicz,1989-12-09,SBD,Single-ply,M,M-V,89.25,90,237.5,252.5,-260,252.5,125,132.5,137.5,137.5,242.5,255,-260,255,645,WTHL MI,3
Bernard Pierce,1991-05-10,SBD,Single-ply,M,M-V,89.35,90,195,215,237.5,237.5,115,130,140,140,217.5,250,260,260,637.5,GL MILLS,4
Luke Haarsma,1990-12-03,SBD,Single-ply,M,M-V,89.25,90,230,-237.5,-245,230,150,157.5,162.5,162.5,232.5,242.5,-247.5,242.5,635,WLDCTS,5
Max Fuller,1990-03-06,SBD,Single-ply,M,M-V,88,90,220,232.5,240,240,145,157.5,165,165,-215,227.5,-232.5,227.5,632.5,FULLER,6
Nicholas Jacobson,1990-08-31,SBD,Single-ply,M,M-V,87.35,90,217.5,230,235,235,-147.5,150,-155,150,215,227.5,237.5,237.5,622.5,S. MIL,7
Brett Blakely,1991-01-04,SBD,Single-ply,M,M-V,84.95,90,160,182.5,-205,182.5,137.5,142.5,147.5,147.5,242.5,247.5,252.5,252.5,582.5,STD STRL,8
Shaquille McAdory,1991-02-13,SBD,Single-ply,M,M-V,88.9,90,185,205,217.5,217.5,107.5,117.5,127.5,127.5,217.5,235,-250,235,580,GL MILLS,9
Jonathan Mayes,1991-02-28,SBD,Single-ply,M,M-V,86.65,90,-220,225,-250,225,112.5,122.5,-127.5,122.5,210,227.5,-255,227.5,575,PNRDG,10
Dustin Meeker,1990-10-26,SBD,Single-ply,M,M-V,90,90,-205,205,-217.5,205,117.5,122.5,-127.5,122.5,-195,195,202.5,202.5,530,WI DELL,11
Kyle Canar,1990-02-22,SBD,Single-ply,M,M-V,84.15,90,-162.5,162.5,-170,162.5,95,110,-122.5,110,200,205,-210,205,477.5,G-E-T,12
Jeremy Bartz,1989-07-07,SBD,Single-ply,M,M-V,98.25,100,215,245,265,265,110,122.5,-127.5,122.5,217.5,245,257.5,257.5,645,GL MILLS,1
Mike Prahl,1990-02-07,SBD,Single-ply,M,M-V,98.65,100,-252.5,-252.5,252.5,252.5,-137.5,142.5,152.5,152.5,240,-247.5,-247.5,240,645,NEENAH,2
Travis Jorgensen,1989-09-09,SBD,Single-ply,M,M-V,93.75,100,-220,230,237.5,237.5,142.5,152.5,-157.5,152.5,230,242.5,247.5,247.5,637.5,NCDH,3
Abel Hill,1992-04-20,SBD,Single-ply,M,M-V,94.9,100,195,215,237.5,237.5,107.5,122.5,130,130,207.5,245,255,255,622.5,GL MILLS,4
Jacob Winston,1991-03-22,SBD,Single-ply,M,M-V,95,100,242.5,-255,-255,242.5,130,-137.5,137.5,137.5,240,-260,-260,240,620,GDRCH,5
Ryan Fredrickson,1990-06-28,SBD,Single-ply,M,M-V,99.5,100,250,265,-282.5,265,105,110,115,115,210,222.5,-237.5,222.5,602.5,HLMN,6
Daniel Gustinis,1991-04-13,SBD,Single-ply,M,M-V,94.5,100,210,232.5,-240,232.5,127.5,135,142.5,142.5,200,215,225,225,600,GDRCH,7
Aaron Winkle,1990-10-30,SBD,Single-ply,M,M-V,98.1,100,205,227.5,235,235,115,-127.5,127.5,127.5,205,227.5,232.5,232.5,595,PWRS,8
Erick Marinelli,1990-02-16,SBD,Single-ply,M,M-V,92.7,100,200,217.5,-222.5,217.5,120,130,137.5,137.5,205,225,227.5,227.5,582.5,HRSHY,9
Dana Calhoun,1990-06-04,SBD,Single-ply,M,M-V,96.7,100,172.5,-182.5,-182.5,172.5,117.5,-127.5,127.5,127.5,255,270,277.5,277.5,577.5,PHLLPS,10
Martell Bloxson,1990-08-20,SBD,Single-ply,M,M-V,99.9,100,187.5,200,-215,200,130,142.5,-145,142.5,205,217.5,230,230,572.5,CLRNDA,11
Tanner Stimpson,1991-06-04,SBD,Single-ply,M,M-V,96.9,100,220,227.5,232.5,232.5,115,-125,-125,115,207.5,-215,-215,207.5,555,TM. ID,12
Brandon Waters,1990-06-17,SBD,Single-ply,M,M-V,99.25,100,200,-217.5,217.5,217.5,130,142.5,-150,142.5,190,-205,-205,190,550,WDWRD,13
Nick Stowell,1990-09-05,SBD,Single-ply,M,M-V,94.4,100,200,-217.5,-220,200,85,-92.5,-95,85,215,-232.5,232.5,232.5,517.5,E CLR N,14
Austin Shields,1990-09-13,SBD,Single-ply,M,M-V,98.5,100,162.5,172.5,190,190,100,102.5,105,105,167.5,180,-200,180,475,PLNWL,15
Bryan King,1990-11-13,SBD,Single-ply,M,M-V,99.45,100,-220,-237.5,-237.5,,-182.5,,,,,,,,,CALHN,DQ
Mike McCoy,1991-07-09,SBD,Single-ply,M,M-V,102.9,110,220,235,242.5,242.5,185,197.5,205,205,250,270,285,285,732.5,MTTW,1
Tanner Pray,1990-07-09,SBD,Single-ply,M,M-V,106.7,110,-267.5,267.5,272.5,272.5,-167.5,185,-190,185,240,252.5,-262.5,252.5,710,MT. MRRS,2
Quintin Meyer,1991-08-22,SBD,Single-ply,M,M-V,102.3,110,237.5,-250,250,250,142.5,-150,150,150,237.5,247.5,255,255,655,NEENAH,3
Jerome Bowman,1989-09-16,SBD,Single-ply,M,M-V,109.3,110,192.5,215,227.5,227.5,120,137.5,152.5,152.5,202.5,235,252.5,252.5,632.5,GL MILLS,4
Brandon Nava,1990-06-19,SBD,Single-ply,M,M-V,107.6,110,-215,-215,215,215,-130,137.5,-150,137.5,215,237.5,257.5,257.5,610,TM. ID,5
Christopher Jones,1989-08-15,SBD,Single-ply,M,M-V,101.5,110,-237.5,257.5,-272.5,257.5,127.5,-137.5,-137.5,127.5,210,220,-230,220,605,WNCN,6
Brandon Watkins,1989-04-18,SBD,Single-ply,M,M-V,103.1,110,195,215,227.5,227.5,130,137.5,142.5,142.5,210,220,227.5,227.5,597.5,TM. ID,7
Chase Edwards,1990-03-17,SBD,Single-ply,M,M-V,108.4,110,-185,197.5,-215,197.5,185,-197.5,-207.5,185,185,200,212.5,212.5,595,UNICOL,8
Zachary Balwinski,1990-02-23,SBD,Single-ply,M,M-V,105.5,110,-235,235,-250,235,-137.5,137.5,142.5,142.5,212.5,-222.5,-227.5,212.5,590,GARBER,9
Joshua Povlich,1989-09-26,SBD,Single-ply,M,M-V,105,110,200,215,225,225,120,125,127.5,127.5,210,225,235,235,587.5,S. MIL,10
Bobby Jeffries,1991-04-17,SBD,Single-ply,M,M-V,107.5,110,195,212.5,217.5,217.5,145,160,-162.5,160,185,-202.5,202.5,202.5,580,HRSHY,11
Adam Carrillo,1991-08-09,SBD,Single-ply,M,M-V,107,110,207.5,-215,-215,207.5,125,130,-137.5,130,210,225,237.5,237.5,575,TM. ID,12
Robert Leon,1990-05-08,SBD,Single-ply,M,M-V,105.8,110,185,195,-207.5,195,137.5,145,150,150,190,205,215,215,560,WHTNL,13
Ryan Mason,1989-10-25,SBD,Single-ply,M,M-V,103,110,-200,-200,200,200,120,-127.5,127.5,127.5,222.5,-230,230,230,557.5,KNTN RD,14
Cory Mareno,1990-02-09,SBD,Single-ply,M,M-V,109.1,110,192.5,202.5,207.5,207.5,125,-130,130,130,215,-230,-230,215,552.5,PHLLPS,15
Joseph Billups,1989-06-02,SBD,Single-ply,M,M-V,107.6,110,-185,-185,185,185,-115,125,137.5,137.5,185,205,215,215,537.5,GL MILLS,16
Palmer Allain,1989-10-20,SBD,Single-ply,M,M-V,117.5,125,260,272.5,-292.5,272.5,175,-182.5,182.5,182.5,255,267.5,275,275,730,LNCN HS HS,1
Zach Collins,1990-05-08,SBD,Single-ply,M,M-V,115.8,125,232.5,260,272.5,272.5,117.5,132.5,140,140,210,250,267.5,267.5,680,GL MILLS,2
Nick Hannah,1989-07-21,SBD,Single-ply,M,M-V,116.9,125,-212.5,212.5,222.5,222.5,155,167.5,-175,167.5,-262.5,-262.5,262.5,262.5,652.5,SPRFLD,3
Trey Cahill,1990-06-01,SBD,Single-ply,M,M-V,110.5,125,197.5,205,215,215,147.5,152.5,-155,152.5,227.5,240,245,245,612.5,AUBURN,4
Tyler Gordon,1989-09-03,SBD,Single-ply,M,M-V,122.1,125,197.5,215,230,230,147.5,155,162.5,162.5,197.5,212.5,215,215,607.5,BRKFLD,5
Bobby Ruth,1989-05-08,SBD,Single-ply,M,M-V,114.9,125,-212.5,217.5,-230,217.5,-117.5,117.5,127.5,127.5,192.5,215,222.5,222.5,567.5,HRSHY,6
Maurice Sims,1991-08-24,SBD,Single-ply,M,M-V,112.2,125,182.5,210,-222.5,210,117.5,127.5,137.5,137.5,182.5,212.5,-225,212.5,560,GL MILLS,7
Alex Summers,1990-07-12,SBD,Single-ply,M,M-V,113.9,125,210,-237.5,-237.5,210,115,127.5,135,135,-210,-210,210,210,555,PWRS,8
Joe Sulfaro,1990-11-21,SBD,Single-ply,M,M-V,119.7,125,170,-190,-190,170,142.5,155,-162.5,155,202.5,220,-230,220,545,PWRS,9
Thomas Gappa,1990-11-17,SBD,Single-ply,M,M-V,122.9,125,-190,-190,190,190,132.5,137.5,142.5,142.5,-200,-200,200,200,532.5,WTHL WI,10
Kyle Grant,1990-07-19,SBD,Single-ply,M,M-V,120.9,125,-200,-207.5,-212.5,,132.5,-147.5,-147.5,132.5,185,-205,-205,185,,WTHL MI,DQ
Philip Tucker,1991-03-16,SBD,Single-ply,M,M-V,114.1,125,247.5,265,280,280,152.5,167.5,172.5,172.5,-250,-250,-250,,,FLSHNG,DQ
Maurice Gooden,1989-03-03,SBD,Single-ply,M,M-V,160.8,125+,295,317.5,-350,317.5,187.5,207.5,220,220,270,295,-325,295,832.5,GL MILLS,1
Anthony Lepri,1990-01-15,SBD,Single-ply,M,M-V,126.6,125+,262.5,287.5,310,310,145,152.5,-157.5,152.5,225,232.5,237.5,237.5,700,ABNGTN,2
Greg Moyer,1991-04-07,SBD,Single-ply,M,M-V,153,125+,217.5,245,260,260,150,157.5,-162.5,157.5,205,227.5,-235,227.5,645,ABNGTN,3
James Bowen,1990-11-08,SBD,Single-ply,M,M-V,165.3,125+,265,280,-295,280,115,-120,-120,115,250,-272.5,-272.5,250,645,MSKGO,4
Travis van Note,1989-10-01,SBD,Single-ply,M,M-V,165.2,125+,227.5,-250,,227.5,160,170,175,175,205,227.5,240,240,642.5,PWRS,5
Hakeim Cooper,1991-02-02,SBD,Single-ply,M,M-V,156.2,125+,215,-227.5,227.5,227.5,120,135,-145,135,240,255,275,275,637.5,GL MILLS,6
Enea Gjika,1991-05-20,SBD,Single-ply,M,M-V,129.3,125+,245,265,-280,265,132.5,142.5,150,150,205,215,-220,215,630,S. MIL,7
Josh Linthicum,1990-01-28,SBD,Single-ply,M,M-V,131.9,125+,200,-210,210,210,165,175,-182.5,175,230,-237.5,-237.5,230,615,SPRFLD,8
Tyler Dammerman,1990-09-18,SBD,Single-ply,M,M-V,138,125+,225,-250,-257.5,225,130,140,145,145,195,215,227.5,227.5,597.5,TM. ID,9
Carl Evans,1990-12-12,SBD,Single-ply,M,M-V,143.5,125+,192.5,215,247.5,247.5,117.5,122.5,127.5,127.5,195,220,-250,220,595,GL MILLS,10
Patrick Cullen,1989-11-10,SBD,Single-ply,M,M-V,138.6,125+,255,-277.5,-277.5,255,132.5,145,155,155,-217.5,-217.5,-225,,,S. MIL,DQ
Bridget Hinz,1993-02-01,SBD,Single-ply,F,F-JV,43.1,44,-75,75,77.5,77.5,-32.5,32.5,-37.5,32.5,90,-102.5,105,105,215,OSCLA,1
Taylor Smith #12,1993-07-21,SBD,Single-ply,F,F-JV,42.5,44,65,70,72.5,72.5,25,-32.5,-32.5,25,70,-80,-80,70,167.5,WTHL WI,2
Megan Helein,1992-01-28,SBD,Single-ply,F,F-JV,47.2,48,115,125,-130,125,52.5,57.5,62.5,62.5,-97.5,97.5,110,110,297.5,SYMR,1
Alivia McKey,1992-10-27,SBD,Single-ply,F,F-JV,47.1,48,82.5,-92.5,-95,82.5,35,40,45,45,85,92.5,105,105,232.5,BRSLY,2
Heather Puzinas,1992-07-21,SBD,Single-ply,F,F-JV,47.7,48,77.5,-85,87.5,87.5,30,-35,35,35,72.5,82.5,95,95,217.5,PNRDG,3
Alexa Schillinger,1991-11-21,SBD,Single-ply,F,F-JV,51.2,52,137.5,145,147.5,147.5,62.5,-65,65,65,150,155,-160,155,367.5,PHLLPS,1
Brandy Taylor,1992-02-26,SBD,Single-ply,F,F-JV,50.6,52,107.5,-120,-122.5,107.5,52.5,-57.5,-57.5,52.5,107.5,120,-130,120,280,BLLVUE,2
Naomi Hoffman,1993-03-15,SBD,Single-ply,F,F-JV,51.3,52,-87.5,87.5,95,95,47.5,-50,-50,47.5,85,90,95,95,237.5,MRNCI,3
Amanda Kolar,1991-07-05,SBD,Single-ply,F,F-JV,55.6,56,115,-127.5,-127.5,115,67.5,-80,-85,67.5,115,-130,,115,297.5,TM. ID,1
Amber Brixius,1992-07-09,SBD,Single-ply,F,F-JV,55.1,56,100,-110,110,110,45,-50,-50,45,107.5,120,130,130,285,MNTWC,2
Victoria Burke,1991-06-20,SBD,Single-ply,F,F-JV,55.1,56,-107.5,107.5,112.5,112.5,45,50,-52.5,50,112.5,117.5,120,120,282.5,CROS-LX,3
Salena Keller,1991-12-09,SBD,Single-ply,F,F-JV,55.8,56,95,102.5,-107.5,102.5,-45,-45,45,45,105,112.5,115,115,262.5,MRNCI,4
Samantha Olson,1993-06-05,SBD,Single-ply,F,F-JV,55.3,56,82.5,-90,90,90,40,47.5,55,55,95,102.5,115,115,260,G-E-T,5
April Glasspoole,1991-04-29,SBD,Single-ply,F,F-JV,55.8,56,70,80,85,85,32.5,45,-47.5,45,90,100,110,110,240,WTHL WI,6
Alyssa Roehrig,1993-03-10,SBD,Single-ply,F,F-JV,55.4,56,77.5,90,-95,90,40,-45,-45,40,95,102.5,105,105,235,NEENAH,7
Alicia Doyle,1993-07-03,SBD,Single-ply,F,F-JV,53.2,56,-87.5,-87.5,87.5,87.5,32.5,37.5,-40,37.5,87.5,95,102.5,102.5,227.5,CROS-LX,8
Brianna Dahm,1993-04-30,SBD,Single-ply,F,F-JV,58.9,60,115,125,-135,125,52.5,57.5,-62.5,57.5,-135,135,,135,317.5,LNCN HS,1
Katie Kronstedt,1991-09-26,SBD,Single-ply,F,F-JV,59,60,-97.5,100,110,110,52.5,57.5,60,60,100,110,-120,110,280,WIS. RPD,2
Mary Caringello,1992-07-30,SBD,Single-ply,F,F-JV,57.8,60,95,-115,115,115,40,-47.5,47.5,47.5,105,115,-125,115,277.5,NEENAH,3
Jenna Anderson,1992-10-14,SBD,Single-ply,F,F-JV,58.4,60,75,-87.5,87.5,87.5,45,47.5,50,50,110,117.5,-120,117.5,255,PNRDG,4
Lisa Larson,1992-04-21,SBD,Single-ply,F,F-JV,58.7,60,105,-115,-117.5,105,47.5,52.5,-55,52.5,92.5,-107.5,-107.5,92.5,250,HLMN,5
Taylor Towner,1992-10-27,SBD,Single-ply,F,F-JV,56.4,60,75,80,85,85,30,35,37.5,37.5,100,117.5,-132.5,117.5,240,G-E-T,6
Nicole Moyer,1993-04-23,SBD,Single-ply,F,F-JV,59.2,60,72.5,85,90,90,35,37.5,40,40,85,90,-100,90,220,PNRDG,7
Beverly Crawford,1992-07-23,SBD,Single-ply,F,F-JV,65.8,67.5,117.5,-130,130,130,55,60,62.5,62.5,125,140,,140,332.5,PNRDG,1
Kirsten Olson,1992-07-29,SBD,Single-ply,F,F-JV,66.7,67.5,125,-132.5,-132.5,125,-65,65,70,70,122.5,132.5,-137.5,132.5,327.5,PHLLPS,2
Jessica Thornton,1992-06-16,SBD,Single-ply,F,F-JV,66.2,67.5,110,-117.5,120,120,57.5,62.5,-67.5,62.5,117.5,125,135,135,317.5,NCDH,3
Amanda Berg,1992-03-04,SBD,Single-ply,F,F-JV,66.5,67.5,112.5,120,-125,120,45,47.5,-62.5,47.5,102.5,110,-115,110,277.5,WTHL WI,4
Portia Napravnik,1992-10-16,SBD,Single-ply,F,F-JV,66.2,67.5,95,100,-115,100,-60,60,67.5,67.5,90,102.5,-112.5,102.5,270,BLLVUE,5
Nicole Auer,1993-07-12,SBD,Single-ply,F,F-JV,66.5,67.5,-77.5,-77.5,77.5,77.5,30,47.5,-50,47.5,80,115,-120,115,240,G-E-T,6
Emily Semmens,1992-06-15,SBD,Single-ply,F,F-JV,63.2,67.5,67.5,70,87.5,87.5,37.5,40,-45,40,92.5,97.5,105,105,232.5,PNRDG,7
Kenisha Dupree,1992-05-03,SBD,Single-ply,F,F-JV,60.3,67.5,-67.5,70,77.5,77.5,35,-40,-40,35,80,92.5,-100,92.5,205,CLRNDA,8
Amanda Youngheim,1992-12-04,SBD,Single-ply,F,F-JV,73.5,75,-120,120,137.5,137.5,45,57.5,-62.5,57.5,112.5,137.5,-142.5,137.5,332.5,CROS-LX,1
Kelly Schnautz,1992-03-31,SBD,Single-ply,F,F-JV,78.9,82.5,112.5,-120,120,120,55,60,-62.5,60,125,135,142.5,142.5,322.5,,1
Lynn Poetzel,1991-10-03,SBD,Single-ply,F,F-JV,85.8,90,152.5,162.5,167.5,167.5,87.5,92.5,-97.5,92.5,157.5,167.5,172.5,172.5,432.5,PHLLPS,1
Olivia Bundy,1991-11-20,SBD,Single-ply,F,F-JV,88.8,90,140,150,-160,150,50,-70,-70,50,120,-130,132.5,132.5,332.5,WTHL WI,2
Alexandria Shearer,1992-08-08,SBD,Single-ply,F,F-JV,100.2,90+,67.5,100,112.5,112.5,-37.5,47.5,-72.5,47.5,72.5,120,-140,120,280,CLRNDA,1
Steph Seebruck,1990-04-04,SBD,Single-ply,F,F-V,43.9,44,97.5,102.5,107.5,107.5,47.5,50,-52.5,50,115,120,122.5,122.5,280,NCDH,1
Valeria Maltos,1991-01-02,SBD,Single-ply,F,F-V,43.7,44,90,97.5,102.5,102.5,32.5,35,-37.5,35,100,110,-112.5,110,247.5,CRZ SPR,2
Kelly Naquin,1992-12-02,SBD,Single-ply,F,F-V,43.1,44,87.5,97.5,-105,97.5,25,35,-42.5,35,87.5,97.5,-102.5,97.5,230,HOUMA,3
Kayla Vopelak,1992-03-14,SBD,Single-ply,F,F-V,41.7,44,75,80,82.5,82.5,32.5,35,-37.5,35,77.5,85,87.5,87.5,205,NCDH,4
Bailey Terebinski,1992-06-08,SBD,Single-ply,F,F-V,42,44,57.5,-72.5,-72.5,57.5,30,35,-37.5,35,67.5,82.5,95,95,187.5,PWRS,5
Michelle Van Dusen,1993-02-12,SBD,Single-ply,F,F-V,47.4,48,125,137.5,145,145,-57.5,57.5,60,60,127.5,137.5,-145,137.5,342.5,NCDH,1
Britta Carlson,1991-05-12,SBD,Single-ply,F,F-V,48,48,110,117.5,120,120,60,65,-67.5,65,115,122.5,-127.5,122.5,307.5,PSHTG,2
Kati Durham,1993-05-01,SBD,Single-ply,F,F-V,47.5,48,125,-130,-130,125,55,57.5,-60,57.5,112.5,117.5,-125,117.5,300,CALHN,3
Sommer Binash,1990-06-27,SBD,Single-ply,F,F-V,44.2,48,110,115,-120,115,52.5,-55,55,55,115,117.5,-120,117.5,287.5,S. MIL,4
Jamae Pennings,1989-02-23,SBD,Single-ply,F,F-V,47.5,48,-107.5,107.5,-110,107.5,40,45,47.5,47.5,115,120,122.5,122.5,277.5,NEENAH,5
Tanya Roldan,1992-06-11,SBD,Single-ply,F,F-V,46.5,48,87.5,-97.5,-97.5,87.5,-42.5,42.5,-45,42.5,102.5,110,-117.5,110,240,WLSCO,6
Elizabeth Bennett,1991-06-29,SBD,Single-ply,F,F-V,47.7,48,80,90,97.5,97.5,37.5,42.5,-45,42.5,80,-92.5,-92.5,80,220,HLMN,7
Megan Preston,1990-08-10,SBD,Single-ply,F,F-V,47.8,48,60,70,-82.5,70,45,50,-52.5,50,77.5,90,100,100,220,PLNWL,8
Jayna van de Voort,1989-11-19,SBD,Single-ply,F,F-V,51.6,52,-140,-145,145,145,75,80,-85,80,152.5,157.5,162.5,162.5,387.5,SYMR,1
Stephanie Byrom,1989-11-23,SBD,Single-ply,F,F-V,50,52,100,-105,110,110,65,-70,70,70,132.5,-140,140,140,320,GRSBK,2
Roxanne Shankster,1991-04-17,SBD,Single-ply,F,F-V,51.3,52,-120,120,-127.5,120,55,60,-62.5,60,115,-125,-125,115,295,MRNCI,3
Sarah Valdez,1991-01-12,SBD,Single-ply,F,F-V,50.3,52,110,-115,115,115,50,55,-60,55,112.5,117.5,122.5,122.5,292.5,CALHN,4
Mercedes Cernicka,1990-09-26,SBD,Single-ply,F,F-V,51.5,52,107.5,115,120,120,42.5,45,-50,45,112.5,122.5,-125,122.5,287.5,NCDH,5
Jackie Pineda,1992-02-26,SBD,Single-ply,F,F-V,51.3,52,97.5,-105,-105,97.5,47.5,50,-52.5,50,110,117.5,-122.5,117.5,265,WLSCO,6
Jerissa Rice,1991-07-17,SBD,Single-ply,F,F-V,51.3,52,70,77.5,85,85,45,50,55,55,88.75,-105,107.5,107.5,247.5,JHNS CTY,7
Erica Parker,1993-03-05,SBD,Single-ply,F,F-V,51,52,77.5,90,-100,90,40,47.5,50,50,80,90,95,95,235,PWRS,8
Meghann Pawlak,1990-08-15,SBD,Single-ply,F,F-V,51,52,77.5,-85,85,85,37.5,-40,40,40,87.5,97.5,102.5,102.5,227.5,OMRO,9
Charlie Lauer,1991-12-04,SBD,Single-ply,F,F-V,50.1,52,-122.5,122.5,-137.5,122.5,-50,-52.5,-52.5,,-110,,,,,NEENAH,DQ
Jenna Britzke,1991-12-21,SBD,Single-ply,F,F-V,49.5,52,105,-112.5,-112.5,105,-52.5,-52.5,,,,,,,,NEENAH,DQ
Kendra Miller #1,1992-04-19,SBD,Single-ply,F,F-V,55.7,56,142.5,150,-160,150,67.5,75,80,80,135,145,-150,145,375,PLNWL,1
Jennifer Gaona,1991-04-11,SBD,Single-ply,F,F-V,54.4,56,125,132.5,137.5,137.5,50,55,-57.5,55,115,122.5,127.5,127.5,320,CALHN,2
Brittany Coulman,1990-05-08,SBD,Single-ply,F,F-V,55.3,56,107.5,115,-122.5,115,62.5,-70,-70,62.5,125,132.5,140,140,317.5,GDRCH,3
Maggie Cox,1991-05-07,SBD,Single-ply,F,F-V,54.5,56,110,117.5,-120,117.5,50,55,-57.5,55,120,125,-137.5,125,297.5,OSCLA,4
Haley Horbinski,1992-11-04,SBD,Single-ply,F,F-V,55.7,56,105,110,-115,110,57.5,62.5,67.5,67.5,112.5,117.5,120,120,297.5,NCDH,5
Jayna Rouse,1992-08-10,SBD,Single-ply,F,F-V,55.6,56,95,102.5,112.5,112.5,-47.5,50,52.5,52.5,112.5,120,-125,120,285,PSHTG,6
Victoria Salazar,1990-07-11,SBD,Single-ply,F,F-V,52.6,56,102.5,107.5,110,110,47.5,52.5,-55,52.5,120,-125,-125,120,282.5,CRZ SPR TX,7
Karina Martinez #7,1990-11-13,SBD,Single-ply,F,F-V,53.8,56,100,-107.5,107.5,107.5,47.5,50,-55,50,115,122.5,-127.5,122.5,280,WLSCO,8
Laura Jo Vosters,1991-06-15,SBD,Single-ply,F,F-V,54.3,56,97.5,105,110,110,-52.5,52.5,57.5,57.5,102.5,-110,-110,102.5,270,KAUKNA,9
Samantha Katt,1991-03-28,SBD,Single-ply,F,F-V,55.4,56,97.5,105,112.5,112.5,45,-52.5,-52.5,45,105,112.5,-120,112.5,270,RCN HLK,10
Ashlee Ann Hanson,1990-02-27,SBD,Single-ply,F,F-V,55.3,56,100,115,-125,115,37.5,-45,45,45,100,-112.5,-112.5,100,260,OSHKH,11
Sara Christensen,1991-01-16,SBD,Single-ply,F,F-V,52.4,56,82.5,-92.5,-92.5,82.5,45,52.5,-57.5,52.5,100,110,-115,110,245,BLLVUE,12
Kimberley Douglas,1990-08-13,SBD,Single-ply,F,F-V,57.7,60,117.5,130,-137.5,130,75,80,82.5,82.5,127.5,137.5,142.5,142.5,355,PLNWL,1
Sheila Hinz,1990-09-02,SBD,Single-ply,F,F-V,58.8,60,112.5,120,-125,120,55,60,-62.5,60,155,162.5,-177.5,162.5,342.5,OSCLA,2
Jasmine Moxley,1990-01-31,SBD,Single-ply,F,F-V,56.6,60,115,-125,132.5,132.5,62.5,65,-67.5,65,115,132.5,140,140,337.5,BRSLY,3
Chelsea Saenz,1992-07-02,SBD,Single-ply,F,F-V,57.1,60,125,132.5,140,140,50,-55,-57.5,50,115,122.5,127.5,127.5,317.5,CALHN,4
Tailor Castillo,1991-12-04,SBD,Single-ply,F,F-V,58.7,60,110,122.5,-132.5,122.5,50,-55,55,55,102.5,110,137.5,137.5,315,NEENAH,5
Kelsey King,1993-05-10,SBD,Single-ply,F,F-V,56.5,60,122.5,-130,-130,122.5,50,55,57.5,57.5,120,127.5,-137.5,127.5,307.5,CALHN,6
Lauren Ladd,1989-10-30,SBD,Single-ply,F,F-V,56.8,60,112.5,120,-125,120,60,-65,-65,60,115,-125,127.5,127.5,307.5,SMRFLD,7
Lizette Galvan,1990-08-30,SBD,Single-ply,F,F-V,59.2,60,112.5,-120,-120,112.5,52.5,-55,55,55,125,137.5,-142.5,137.5,305,WLSCO,8
Alada Oens,1990-03-07,SBD,Single-ply,F,F-V,59.8,60,105,110,115,115,47.5,-55,-55,47.5,110,115,120,120,282.5,NCDH,9
Katie Flaherty,1990-05-23,SBD,Single-ply,F,F-V,63.9,67.5,125,135,145,145,57.5,67.5,77.5,77.5,127.5,140,150,150,372.5,G-E-T,1
Kamie Bluell,1991-08-20,SBD,Single-ply,F,F-V,67.1,67.5,137.5,145,-155,145,57.5,62.5,-67.5,62.5,142.5,152.5,165,165,372.5,NCDH,2
Kaitlyn Roberts,1991-02-07,SBD,Single-ply,F,F-V,66.6,67.5,137.5,145,-152.5,145,65,67.5,-70,67.5,135,145,-152.5,145,357.5,ABNGTN,3
Shantel Noel,1993-01-15,SBD,Single-ply,F,F-V,67.5,67.5,-135,135,-147.5,135,62.5,70,75,75,135,142.5,-155,142.5,352.5,CALHN,4
Andrea Roldan,1990-09-27,SBD,Single-ply,F,F-V,66,67.5,127.5,-135,135,135,65,-70,-70,65,125,132.5,140,140,340,WLSCO,5
Jade Hrabak,1989-12-09,SBD,Single-ply,F,F-V,65.6,67.5,117.5,127.5,-137.5,127.5,72.5,75,-77.5,75,120,130,-142.5,130,332.5,PHLLPS,6
Katelyn Aseltine,1990-08-24,SBD,Single-ply,F,F-V,66.8,67.5,105,117.5,125,125,-52.5,57.5,62.5,62.5,135,145,-150,145,332.5,GDRCH,7
Samantha White #1,1990-04-26,SBD,Single-ply,F,F-V,63.9,67.5,115,125,-137.5,125,50,55,-60,55,115,-127.5,130,130,310,HLMN,8
Kendra Stanfield,1989-10-26,SBD,Single-ply,F,F-V,61.9,67.5,-95,-95,95,95,52.5,60,-62.5,60,102.5,110,135,135,290,PWRS,9
Amanda Moe,1990-07-19,SBD,Single-ply,F,F-V,73.7,75,165,-170,-170,165,70,75,-80,75,155,167.5,170,170,410,TM. ID,1
Kate Wellensiek,1990-09-24,SBD,Single-ply,F,F-V,74.8,75,120,132.5,140,140,77.5,87.5,95,95,137.5,152.5,157.5,157.5,392.5,JHNS CT,2
Brittany Gamble,1991-09-12,SBD,Single-ply,F,F-V,69.9,75,-142.5,142.5,-145,142.5,72.5,77.5,80,80,142.5,-152.5,152.5,152.5,375,CALHN,4
Emily Lowney,1990-01-01,SBD,Single-ply,F,F-V,73.7,75,142.5,-150,150,150,57.5,60,-67.5,60,155,167.5,-182.5,167.5,377.5,OSCLA,3
Amanda Ruiz,1990-06-27,SBD,Single-ply,F,F-V,72.3,75,145,155,-165,155,72.5,77.5,-80,77.5,122.5,-127.5,-127.5,122.5,355,CALHN,5
Dannielle Wagner,1991-11-28,SBD,Single-ply,F,F-V,73.3,75,127.5,132.5,142.5,142.5,60,65,70,70,127.5,137.5,142.5,142.5,355,NCDH,6
Taylor Jensen,1991-10-02,SBD,Single-ply,F,F-V,72.1,75,105,115,-120,115,62.5,67.5,-72.5,67.5,137.5,160,-172.5,160,342.5,BLLVUE,7
Erin Spicer,1990-12-07,SBD,Single-ply,F,F-V,73.4,75,117.5,127.5,-142.5,127.5,62.5,70,75,75,-115,115,127.5,127.5,330,BLLVUE,8
Stacey Johnson,1990-10-11,SBD,Single-ply,F,F-V,74.7,75,130,-135,135,135,45,-62.5,62.5,62.5,112.5,-122.5,-122.5,112.5,310,WTHL WI,9
Devin Cunningham,1990-09-26,SBD,Single-ply,F,F-V,72.3,75,-102.5,107.5,115,115,47.5,57.5,-62.5,57.5,107.5,117.5,130,130,302.5,PNRDG,10
Jamie Pendzich,1991-04-24,SBD,Single-ply,F,F-V,69.4,75,102.5,110,120,120,47.5,-52.5,55,55,117.5,-125,-125,117.5,292.5,S. MIL,11
Brandi Decker,1991-08-17,SBD,Single-ply,F,F-V,77.5,82.5,175,185,197.5,197.5,82.5,87.5,97.5,97.5,165,177.5,190,190,485,NCDH,1
Marci Hise,1990-04-04,SBD,Single-ply,F,F-V,76.9,82.5,172.5,190,210,210,102.5,-120,-122.5,102.5,170,-190,-190,170,482.5,GRGTWN,2
Stacie Pomrening,1992-05-18,SBD,Single-ply,F,F-V,78.3,82.5,137.5,150,-157.5,150,75,80,82.5,82.5,130,137.5,-142.5,137.5,370,NEENAH,3
Samantha Balajka,1992-10-14,SBD,Single-ply,F,F-V,80.6,82.5,140,150,-160,150,62.5,-67.5,67.5,67.5,130,140,-157.5,140,357.5,CALHN,4
Emily Kijek,1991-04-30,SBD,Single-ply,F,F-V,82.3,82.5,112.5,122.5,130,130,47.5,55,-60,55,112.5,117.5,-125,117.5,302.5,S. MIL,5
Emilie Bourque,1993-02-03,SBD,Single-ply,F,F-V,78.6,82.5,-102.5,102.5,-140,102.5,55,60,-67.5,60,102.5,110,-122.5,110,272.5,PWRS,6
Tanesha Harris,1990-08-06,SBD,Single-ply,F,F-V,79.7,82.5,-77.5,77.5,-105,77.5,42.5,55,-60,55,107.5,122.5,132.5,132.5,265,CLRNDA,7
Kenzie Hower,1991-04-04,SBD,Single-ply,F,F-V,78.6,82.5,-175,-175,-175,,52.5,75,-82.5,75,130,-132.5,-142.5,130,,TM. ID,DQ
Ashley Kueffer,1989-11-14,SBD,Single-ply,F,F-V,89.2,90,197.5,-215,-215,197.5,-137.5,137.5,-150,137.5,145,152.5,-160,152.5,487.5,BLLVUE,1
Vanessa Gauthier,1989-09-26,SBD,Single-ply,F,F-V,88.8,90,152.5,162.5,177.5,177.5,90,100,105,105,145,157.5,-177.5,157.5,440,TM. NTRO,2
Samantha Robillard,1990-12-21,SBD,Single-ply,F,F-V,89,90,-170,170,182.5,182.5,87.5,92.5,-100,92.5,150,165,-177.5,165,440,BRSLY,3
Anna Sharpless,1990-09-11,SBD,Single-ply,F,F-V,83.3,90,155,165,172.5,172.5,72.5,-77.5,77.5,77.5,140,150,160,160,410,NEENAH,4
Amanda Buckner,1990-02-08,SBD,Single-ply,F,F-V,88.3,90,137.5,-152.5,-155,137.5,80,85,87.5,87.5,142.5,155,-160,155,380,WHTMR,5
Lisa Knaack,1989-07-12,SBD,Single-ply,F,F-V,88.5,90,147.5,-157.5,157.5,157.5,60,72.5,77.5,77.5,135,145,-157.5,145,380,WNCN,6
Sarah-Jayne Lamb,1992-04-08,SBD,Single-ply,F,F-V,89.5,90,-145,-145,145,145,-65,65,-77.5,65,122.5,132.5,-150,132.5,342.5,PWRS,7
Amanda Court,1989-11-05,SBD,Single-ply,F,F-V,118.7,90+,200,-215,220,220,102.5,-115,115,115,150,160,167.5,167.5,502.5,SYMR,1
Jamie Pasch,1989-06-01,SBD,Single-ply,F,F-V,108.9,90+,205,-220,-225,205,90,95,102.5,102.5,160,172.5,-195,172.5,480,SYMR,3
Crystal Costello,1990-12-18,SBD,Single-ply,F,F-V,119.7,90+,175,190,195,195,90,97.5,100,100,175,187.5,-210,187.5,482.5,NEENAH,2
Rebecka Cook,1993-06-20,SBD,Single-ply,F,F-V,123.2,90+,175,182.5,-197.5,182.5,75,82.5,-85,82.5,167.5,175,182.5,182.5,447.5,NCDH,4
Sasha Malenie Martinez,1992-06-01,SBD,Single-ply,F,F-V,109.5,90+,157.5,165,180,180,80,85,-87.5,85,157.5,170,-180,170,435,WLSCO,5
Claire Seeke,1991-10-06,SBD,Single-ply,F,F-V,109.3,90+,-192.5,-192.5,192.5,192.5,62.5,-92.5,-95,62.5,167.5,177.5,-185,177.5,432.5,NEENAH,6
Priscilla Ortiz,,SBD,Single-ply,F,F-V,99,90+,-147.5,147.5,157.5,157.5,65,70,-75,70,137.5,147.5,-152.5,147.5,375,WLSCO,7
Katy McKellar,1989-03-15,SBD,Single-ply,F,F-V,100.6,90+,122.5,-137.5,-140,122.5,-55,55,-60,55,122.5,132.5,140,140,317.5,,8
Alex Robbins,1991-02-11,SBD,Single-ply,F,F-V,91.8,90+,-125,137.5,-142.5,137.5,57.5,60,-62.5,60,102.5,-125,-125,102.5,300,PWRS,9
Melissa Smaby,1990-11-10,SBD,Single-ply,F,F-V,117.6,90+,-125,-125,-125,,-57.5,,,,-110,,,,,HLMN,DQ
