Division,WeightClassKg,Place,Name,Team,BodyweightKg,Best3SquatKg,Best3BenchKg,Best3DeadliftKg,TotalKg,Equipment,Event,Sex,BirthDate
Boys,51.71,1,Alejandro Netro,New London West Rusk,50.89,140.61,58.97,129.27,328.85,Single-ply,SBD,M,
Boys,51.71,2,Kolby Lynn,Rusk,48.08,56.7,24.95,72.57,154.22,Single-ply,SBD,M,
Boys,55.79,1,Logan Huerta,Lindale,55.7,102.06,70.31,106.59,278.96,Single-ply,SBD,M,
Boys,59.87,1,Quintin Taylor,Troup,59.87,172.37,108.86,185.97,467.2,Single-ply,SBD,M,
Boys,59.87,2,Darren Parrish,Troup,57.33,92.99,63.5,102.06,258.55,Single-ply,SBD,M,
Boys,67.13,1,Kaden Mahoney,Troup,66.5,190.51,113.4,188.24,492.15,Single-ply,SBD,M,
Boys,67.13,2,Jalin Hines,Lindale,65.77,172.37,95.25,185.97,453.59,Single-ply,SBD,M,
Boys,67.13,3,Carson Bobbitt,New London West Rusk,66.77,167.83,104.33,179.17,451.32,Single-ply,SBD,M,
Boys,67.13,4,Hayden Dyess,Rusk,65.59,170.1,88.45,165.56,424.11,Single-ply,SBD,M,
Boys,67.13,5,Tanner Keys,Troup,62.41,156.49,88.45,165.56,410.5,Single-ply,SBD,M,
Boys,67.13,6,Dante Lindsay,Whitehouse,65.23,136.08,97.52,154.22,387.82,Single-ply,SBD,M,
Boys,67.13,7,Wesley Griffin,New London West Rusk,67.04,138.35,97.52,140.61,376.48,Single-ply,SBD,M,
Boys,67.13,8,Christian Ward,Arp,61.33,129.27,79.38,127.01,335.66,Single-ply,SBD,M,
Boys,67.13,DQ,Alan Rojo,Rusk,67.13,161.03,95.25,,,Single-ply,SBD,M,
Boys,67.13,DQ,Dylan McGregor,Whitehouse,63.23,145.15,88.45,,,Single-ply,SBD,M,
Boys,74.84,1,Thomas Fuller,Arp,74.84,195.04,136.08,226.8,557.92,Single-ply,SBD,M,
Boys,74.84,2,Jaydon Spradlin,Arp,72.76,183.7,124.74,181.44,489.88,Single-ply,SBD,M,
Boys,74.84,3,Cole Murry,Whitehouse,67.68,172.37,108.86,185.97,467.2,Single-ply,SBD,M,
Boys,74.84,4,Miles Miller,Lindale,73.48,167.83,117.93,167.83,453.59,Single-ply,SBD,M,
Boys,74.84,5,Abraham Rosales,Rusk,74.21,172.37,113.4,167.83,453.59,Single-ply,SBD,M,
Boys,74.84,6,Mason Trowbridge,Rusk,74.75,145.15,92.99,188.24,426.38,Single-ply,SBD,M,
Boys,74.84,7,Kyle Duffy,Arp,69.58,147.42,97.52,165.56,410.5,Single-ply,SBD,M,
Boys,74.84,8,Wyatt Hurst,Arp,68.13,147.42,92.99,167.83,408.23,Single-ply,SBD,M,
Boys,74.84,9,Shawn Sawyer,Arp,68.67,145.15,88.45,147.42,381.02,Single-ply,SBD,M,
Boys,74.84,10,Drew Tyra,New London West Rusk,72.12,124.74,70.31,124.74,319.78,Single-ply,SBD,M,
Boys,82.1,1,Raul Lechuga,Whitehouse,81.74,213.19,113.4,190.51,517.1,Single-ply,SBD,M,
Boys,82.1,2,Koal Minor,New London West Rusk,76.2,174.63,97.52,208.65,480.81,Single-ply,SBD,M,
Boys,82.1,3,Antonio Ponce,Arp,77.38,170.1,117.93,183.7,471.74,Single-ply,SBD,M,
Boys,82.1,4,Omarion Anthony,New London West Rusk,75.02,179.17,97.52,192.78,469.47,Single-ply,SBD,M,
Boys,82.1,5,Emmanuel Ponce,Arp,79.02,181.44,99.79,170.1,451.32,Single-ply,SBD,M,
Boys,82.1,6,John Kwak,Rusk,82.1,174.63,102.06,172.37,449.06,Single-ply,SBD,M,
Boys,82.1,7,Pedro Alonzo,Rusk,77.2,156.49,95.25,174.63,426.38,Single-ply,SBD,M,
Boys,89.81,1,Jacob Baker,Troup,88.54,181.44,111.13,229.06,521.63,Single-ply,SBD,M,
Boys,89.81,2,Cameron Hicks,Lindale,87.63,206.38,115.67,197.31,519.36,Single-ply,SBD,M,
Boys,89.81,3,Joshua Arredondo,Rusk,87.63,199.58,122.47,195.04,517.1,Single-ply,SBD,M,
Boys,89.81,4,Cason Watts,Lindale,83.46,174.63,127.01,197.31,498.95,Single-ply,SBD,M,
Boys,89.81,5,Shawn Rios,Whitehouse,83.82,156.49,113.4,188.24,458.13,Single-ply,SBD,M,
Boys,89.81,6,Jj Jenkins,Rusk,89.63,124.74,83.91,149.69,358.34,Single-ply,SBD,M,
Boys,99.79,1,Calvin Mason,New London West Rusk,98.07,210.92,138.35,213.19,562.45,Single-ply,SBD,M,
Boys,99.79,2,Cory Watts,Lindale,99.61,192.78,151.95,192.78,537.51,Single-ply,SBD,M,
Boys,99.79,3,Drew Ragland,Lindale,91.44,208.65,127.01,195.04,530.7,Single-ply,SBD,M,
Boys,99.79,4,Craver Green,New London West Rusk,95.16,183.7,102.06,213.19,498.95,Single-ply,SBD,M,
Boys,99.79,5,Peyton Bryan,Whitehouse,99.34,181.44,133.81,176.9,492.15,Single-ply,SBD,M,
Boys,99.79,6,Gunner Johnson,Lindale,92.62,183.7,115.67,188.24,487.61,Single-ply,SBD,M,
Boys,99.79,7,Sean Flood,Troup,95.44,145.15,90.72,149.69,385.55,Single-ply,SBD,M,
Boys,109.77,1,Gabe Hart,Lindale,106.78,238.14,138.35,238.14,614.62,Single-ply,SBD,M,
Boys,109.77,2,Adain Wilson,New London West Rusk,104.24,188.24,122.47,226.8,537.51,Single-ply,SBD,M,
Boys,109.77,3,Blake Archie,Arp,100.97,181.44,124.74,185.97,492.15,Single-ply,SBD,M,
Boys,124.74,1,Casey Poe,Lindale,113.62,213.19,140.61,238.14,591.94,Single-ply,SBD,M,
Boys,124.74,2,Kyren McCullough,Whitehouse,120.38,210.92,147.42,215.46,573.79,Single-ply,SBD,M,
Boys,124.74,3,Trey Mazratian,Lindale,114.49,229.06,140.61,201.85,571.53,Single-ply,SBD,M,
Boys,124.74,4,Anthony Yarbrough,Whitehouse,120.56,195.04,138.35,195.04,528.44,Single-ply,SBD,M,
Boys,124.74,5,Micha Givens,Rusk,115.12,192.78,124.74,192.78,510.29,Single-ply,SBD,M,
Boys,124.74,6,Leonel Ortega,Rusk,120.2,183.7,120.2,181.44,485.34,Single-ply,SBD,M,
Boys,124.74,DQ,Ladarius Pitts,Whitehouse,120.02,195.04,129.27,,,Single-ply,SBD,M,
Boys,124.74,DQ,Kason Reed,New London West Rusk,113.4,197.31,111.13,,,Single-ply,SBD,M,
Boys,139.71,1,Johnathan Bush,Whitehouse,125.92,249.48,147.42,240.4,637.3,Single-ply,SBD,M,
Boys,139.71,2,Lance Langenbau,Arp,130,206.38,147.42,215.46,569.26,Single-ply,SBD,M,
Boys,139.71,3,Joe Richard,Lindale,132,215.46,136.08,204.12,555.65,Single-ply,SBD,M,
Boys,139.71,4,Cole Feiden,Whitehouse,125.28,181.44,129.27,179.17,489.88,Single-ply,SBD,M,
Boys,139.71+,1,Bryce Everett,Arp,150.96,226.8,147.42,192.78,566.99,Single-ply,SBD,M,
Boys,139.71+,2,Cameron Clark,Whitehouse,140.61,181.44,161.03,181.44,523.9,Single-ply,SBD,M,
Boys,139.71+,3,Braden Brawner,Rusk,149.69,213.19,113.4,183.7,510.29,Single-ply,SBD,M,
