Division,WeightClassKg,Place,Name,Team,BodyweightKg,Best3SquatKg,Best3BenchKg,Best3DeadliftKg,TotalKg,Equipment,Event,Sex,BirthDate
Boys,51.71,1,Deion Vega,Agua Dulce,51.35,131.54,86.18,154.22,371.95,Single-ply,SBD,M,
Boys,51.71,2,Christian Trevino,San Diego,51.71,124.74,77.11,145.15,347,Single-ply,SBD,M,
Boys,51.71,3,Christian Lazo,San Diego,50.8,113.4,70.31,136.08,319.78,Single-ply,SBD,M,
Boys,51.71,4,Ethan Sanchez,San Diego,48.26,108.86,79.38,122.47,310.71,Single-ply,SBD,M,
Boys,51.71,5,Ayden Benavidez,Corpus Christi London,51.53,124.74,68.04,117.93,310.71,Single-ply,SBD,M,
Boys,51.71,6,Diego Guzman,Bishop,51.71,86.18,61.23,104.33,251.74,Single-ply,SBD,M,
Boys,51.71,DQ,Austin Maldonado,Falfurrias,51.71,127.01,,,,Single-ply,SBD,M,
Boys,55.79,1,Sammy Ronje,Bishop,55.79,158.76,97.52,165.56,421.84,Single-ply,SBD,M,
Boys,55.79,2,Antonio Gallegos,San Diego,55.34,151.95,106.59,142.88,401.43,Single-ply,SBD,M,
Boys,55.79,3,Tanner Weaver,Orange Grove,55.52,151.95,83.91,156.49,392.36,Single-ply,SBD,M,
Boys,55.79,4,Michael Contreras,Alice,54.61,136.08,90.72,163.29,390.09,Single-ply,SBD,M,
Boys,55.79,5,Caleb De La Cerda,Corpus Christi Tuloso-Midway,55.79,136.08,106.59,133.81,376.48,Single-ply,SBD,M,
Boys,55.79,6,Trenton Budell,Orange Grove,55.79,117.93,86.18,131.54,335.66,Single-ply,SBD,M,
Boys,55.79,7,Juan Ramirez,Agua Dulce,54.43,115.67,56.7,142.88,315.25,Single-ply,SBD,M,
Boys,55.79,8,Maximus Middagh,Ingleside,54.88,104.33,72.57,127.01,303.91,Single-ply,SBD,M,
Boys,59.87,1,Ashton Garcia,San Diego,59.87,170.1,129.27,192.78,492.15,Single-ply,SBD,M,
Boys,59.87,2,Austin Lopez,Banquete,59.42,188.24,102.06,197.31,487.61,Single-ply,SBD,M,
Boys,59.87,3,Ezra Salazar,Corpus Christi Tuloso-Midway,59.24,188.24,99.79,190.51,478.54,Single-ply,SBD,M,
Boys,59.87,4,Zak Chapa,Corpus Christi London,59.69,167.83,106.59,172.37,446.79,Single-ply,SBD,M,
Boys,59.87,5,James Cuevas,Corpus Christi London,58.69,142.88,86.18,183.7,412.77,Single-ply,SBD,M,
Boys,59.87,6,Rene Ramirez,Agua Dulce,59.87,136.08,79.38,167.83,383.29,Single-ply,SBD,M,
Boys,59.87,7,John Ryan Dimicali,Bishop,59.87,127.01,83.91,158.76,369.68,Single-ply,SBD,M,
Boys,59.87,8,Teo Pelagio,Bishop,59.42,127.01,86.18,154.22,367.41,Single-ply,SBD,M,
Boys,59.87,9,Luis Lopez,Hebbronville,59.33,140.61,74.84,145.15,360.61,Single-ply,SBD,M,
Boys,59.87,10,Antonio Pena,Ingleside,57.88,127.01,83.91,136.08,347,Single-ply,SBD,M,
Boys,59.87,11,Anthonie Cordova,Ingleside,59.06,127.01,72.57,142.88,342.46,Single-ply,SBD,M,
Boys,59.87,12,Mel Garcia,Pettus,59.78,124.74,61.23,145.15,331.12,Single-ply,SBD,M,
Boys,59.87,13,Cristian Cantu,Hebbronville,59.69,108.86,74.84,115.67,299.37,Single-ply,SBD,M,
Boys,59.87,14,Christopher Benavides,Hebbronville,57.7,83.91,52.16,106.59,242.67,Single-ply,SBD,M,
Boys,67.13,1,Andres Garza,San Diego,67.13,224.53,142.88,217.72,585.13,Single-ply,SBD,M,
Boys,67.13,2,John Chupe,Rockport-Fulton,66.41,176.9,117.93,199.58,494.42,Single-ply,SBD,M,
Boys,67.13,3,Juan Castillo,Bishop,66.22,183.7,113.4,195.04,492.15,Single-ply,SBD,M,
Boys,67.13,4,Gilbert Perez,Corpus Christi Tuloso-Midway,65.32,179.17,111.13,192.78,483.08,Single-ply,SBD,M,
Boys,67.13,5,GianCarlo Mirabal,Corpus Christi London,66.32,185.97,102.06,190.51,478.54,Single-ply,SBD,M,
Boys,67.13,6,Ben Neely,Banquete,66.04,176.9,106.59,183.7,467.2,Single-ply,SBD,M,
Boys,67.13,7,Douglas Escobedo,Aransas Pass,65.68,174.63,97.52,176.9,449.06,Single-ply,SBD,M,
Boys,67.13,8,Ian Lockard,Orange Grove,66.04,181.44,88.45,156.49,426.38,Single-ply,SBD,M,
Boys,67.13,9,Tyler Adams,Pettus,66.5,147.42,97.52,163.29,408.23,Single-ply,SBD,M,
Boys,67.13,10,Aiden Favela,Bruni,65.41,142.88,90.72,165.56,399.16,Single-ply,SBD,M,
Boys,67.13,11,Jaime Ruelas,Falfurrias,65.14,142.88,83.91,147.42,374.21,Single-ply,SBD,M,
Boys,67.13,12,Brayden Davis,Ingleside,65.5,136.08,70.31,165.56,371.95,Single-ply,SBD,M,
Boys,67.13,13,Javier Lozano,Hebbronville,63.5,149.69,65.77,136.08,351.53,Single-ply,SBD,M,
Boys,67.13,14,Alejandro Gonzalez,Freer,61.05,140.61,120.2,,260.82,Single-ply,SB,M,
Boys,67.13,DQ,Michael Longoria,Falfurrias,61.78,,,,,Single-ply,SBD,M,
Boys,67.13,DQ,David Salazar,Falfurrias,60.87,127.01,,,,Single-ply,SBD,M,
Boys,67.13,DQ,Aaron Flores,Banquete,66.5,,,,,Single-ply,SBD,M,
Boys,67.13,DQ,Alex Gonzalez,Banquete,66.68,208.65,86.18,145.15,,Single-ply,SBD,M,
Boys,67.13,DQ,Isaac Tamayo,Ingleside,66.04,167.83,120.2,,,Single-ply,SBD,M,
Boys,74.84,1,Lucas Salaiz,San Diego,74.21,269.89,174.63,256.28,700.8,Single-ply,SBD,M,
Boys,74.84,2,Jack Edwards,Santa Gertrudis Academy,74.12,226.8,129.27,204.12,560.19,Single-ply,SBD,M,
Boys,74.84,3,Damien Jimenez,Bishop,74.84,235.87,106.59,201.85,544.31,Single-ply,SBD,M,
Boys,74.84,4,Carson Cable,Corpus Christi London,74.21,197.31,106.59,231.33,535.24,Single-ply,SBD,M,
Boys,74.84,5,Nick Garza,Alice,74.84,183.7,106.59,190.51,480.81,Single-ply,SBD,M,
Boys,74.84,6,Nygel Hudson,Ingleside,70.58,192.78,104.33,181.44,478.54,Single-ply,SBD,M,
Boys,74.84,7,Antonio Vasquez,Orange Grove,70.85,145.15,90.72,158.76,394.63,Single-ply,SBD,M,
Boys,74.84,8,Jesus Jimenez,Hebbronville,69.94,156.49,61.23,174.63,392.36,Single-ply,SBD,M,
Boys,74.84,9,Wyatt Sharp,Hebbronville,68.49,131.54,74.84,136.08,342.46,Single-ply,SBD,M,
Boys,74.84,DQ,Ivan Alaniz,Falfurrias,72.76,136.08,83.91,,,Single-ply,SBD,M,
Boys,82.1,1,Jaime Salinas,San Diego,81.83,272.16,170.1,222.26,664.51,Single-ply,SBD,M,
Boys,82.1,2,Justin Fowler,George West,80.83,233.6,154.22,208.65,596.47,Single-ply,SBD,M,
Boys,82.1,3,Nick Lazo,Corpus Christi Tuloso-Midway,82.01,215.46,127.01,233.6,576.06,Single-ply,SBD,M,
Boys,82.1,4,Aiden Wilde,Alice,80.74,201.85,124.74,215.46,542.04,Single-ply,SBD,M,
Boys,82.1,5,Austin Neil,Ingleside,81.37,206.38,106.59,210.92,523.9,Single-ply,SBD,M,
Boys,82.1,6,Ramiro Ramos,Bruni,76.2,199.58,127.01,192.78,519.36,Single-ply,SBD,M,
Boys,82.1,7,Juan DelaRosa,San Diego,82.1,201.85,113.4,185.97,501.22,Single-ply,SBD,M,
Boys,82.1,8,Devin Garza,Orange Grove,79.2,195.04,106.59,195.04,496.68,Single-ply,SBD,M,
Boys,82.1,9,Regino Molina,San Diego,78.65,174.63,92.99,210.92,478.54,Single-ply,SBD,M,
Boys,82.1,10,Ayden Garcia,Santa Gertrudis Academy,79.65,185.97,102.06,172.37,460.4,Single-ply,SBD,M,
Boys,82.1,11,Dominick Hinojosa,Bishop,80.29,158.76,102.06,185.97,446.79,Single-ply,SBD,M,
Boys,82.1,12,Chase Mrazek,Bishop,80.29,170.1,81.65,170.1,421.84,Single-ply,SBD,M,
Boys,82.1,13,Andrew Johnson,Bruni,75.75,136.08,95.25,147.42,378.75,Single-ply,SBD,M,
Boys,82.1,14,Jake Martinez,Freer,82.1,142.88,79.38,154.22,376.48,Single-ply,SBD,M,
Boys,82.1,DQ,Donovan Lozano,Alice,80.29,,,,,Single-ply,SBD,M,
Boys,82.1,DQ,Donald Mann,Agua Dulce,81.47,,,,,Single-ply,SBD,M,
Boys,82.1,DQ,Carlos Vinton,Agua Dulce,81.92,183.7,120.2,,,Single-ply,SBD,M,
Boys,82.1,DQ,Evan Vega,Freer,79.65,158.76,,,,Single-ply,SBD,M,
Boys,82.1,DQ,Henry Engelking,Orange Grove,78.83,142.88,,,,Single-ply,SBD,M,
Boys,89.81,1,Matthew Ortiz,Orange Grove,87.54,242.67,149.69,226.8,619.15,Single-ply,SBD,M,
Boys,89.81,2,Adrian Estrada,Rockport-Fulton,88.54,229.06,115.67,217.72,562.45,Single-ply,SBD,M,
Boys,89.81,3,Kaleb Garza,Freer,88.9,208.65,127.01,208.65,544.31,Single-ply,SBD,M,
Boys,89.81,4,Lupe Chapa,Hebbronville,83.82,204.12,124.74,174.63,503.49,Single-ply,SBD,M,
Boys,89.81,5,Steven Paschal,Bishop,85.28,167.83,124.74,183.7,476.27,Single-ply,SBD,M,
Boys,89.81,6,Jallen Medina,George West,88.45,170.1,90.72,147.42,408.23,Single-ply,SBD,M,
Boys,89.81,DQ,Jadon Rodriguez,San Diego,87,195.04,142.88,,,Single-ply,SBD,M,
Boys,99.79,1,Matthias Esparza,Rockport-Fulton,96.16,249.48,142.88,219.99,612.35,Single-ply,SBD,M,
Boys,99.79,2,Justin Navarro,Falfurrias,93.44,215.46,113.4,204.12,532.97,Single-ply,SBD,M,
Boys,99.79,3,Alex Guerra,Banquete,94.98,183.7,120.2,174.63,478.54,Single-ply,SBD,M,
Boys,99.79,4,Ramiro Cantu,Alice,97.52,176.9,97.52,170.1,444.52,Single-ply,SBD,M,
Boys,99.79,5,Dominick Huerta,Agua Dulce,95.44,90.72,102.06,154.22,347,Single-ply,SBD,M,
Boys,99.79,DQ,Phillip Krupa,Rockport-Fulton,99.79,240.4,161.03,,,Single-ply,SBD,M,
Boys,99.79,DQ,Shawn Morin,San Diego,96.62,,,,,Single-ply,SBD,M,
Boys,99.79,DQ,Jeren Nava,Banquete,92.8,213.19,145.15,,,Single-ply,SBD,M,
Boys,109.77,1,Victor DelBosque,Orange Grove,106.23,258.55,158.76,233.6,650.91,Single-ply,SBD,M,
Boys,109.77,2,Ivan Rangel,Agua Dulce,108.14,260.82,145.15,244.94,650.91,Single-ply,SBD,M,
Boys,109.77,3,Eric Stapp,Ingleside,107.68,226.8,156.49,195.04,578.33,Single-ply,SBD,M,
Boys,109.77,4,Donnie Mireles,Freer,109.13,192.78,129.27,190.51,512.56,Single-ply,SBD,M,
Boys,109.77,5,Ethan Sanchez,Alice,102.51,147.42,81.65,172.37,401.43,Single-ply,SBD,M,
Boys,109.77,6,Ruben Contreras,Freer,107.95,176.9,68.04,142.88,387.82,Single-ply,SBD,M,
Boys,109.77,DQ,Frank Voigt,Hebbronville,104.51,136.08,90.72,,,Single-ply,SBD,M,
Boys,109.77,DQ,James Garza,Falfurrias,105.05,109.77,,,,Single-ply,SBD,M,
Boys,109.77,DQ,Thomas Vela,Falfurrias,106.78,154.22,,,,Single-ply,SBD,M,
Boys,109.77,DQ,Ryan Salinas,Banquete,103.42,,,,,Single-ply,SBD,M,
Boys,109.77,DQ,Jonaven Villarreal,Bruni,107.32,,,,,Single-ply,SBD,M,
Boys,109.77,DQ,Dakota Cardona,Alice,107.32,124.74,,,,Single-ply,SBD,M,
Boys,124.74,1,Isaac Caldera,Bishop,117.93,263.08,151.95,231.33,646.37,Single-ply,SBD,M,
Boys,124.74,2,Eric Garcia,San Diego,120.2,244.94,183.7,210.92,639.57,Single-ply,SBD,M,
Boys,124.74,3,Victor Espinoza,Agua Dulce,121.11,231.33,151.95,235.87,619.15,Single-ply,SBD,M,
Boys,124.74,4,Aaron Lichtenberger,Corpus Christi London,121.83,231.33,151.95,174.63,557.92,Single-ply,SBD,M,
Boys,124.74,5,Jordan De La Rosa,Santa Gertrudis Academy,110.86,206.38,133.81,213.19,553.38,Single-ply,SBD,M,
Boys,124.74,6,Alejandro Delgado,Agua Dulce,112.67,190.51,122.47,183.7,496.68,Single-ply,SBD,M,
Boys,124.74,7,Miguel Lopez,Bruni,117.3,217.72,97.52,176.9,492.15,Single-ply,SBD,M,
Boys,124.74,8,Logan McGrath,Ingleside,119.39,190.51,113.4,179.17,483.08,Single-ply,SBD,M,
Boys,124.74,9,Tucker Carpenter,George West,114.12,195.04,102.06,174.63,471.74,Single-ply,SBD,M,
Boys,124.74,10,Matthew Cabarilla,Freer,121.83,104.33,52.16,127.01,283.5,Single-ply,SBD,M,
Boys,124.74,DQ,Aaron Molina,Falfurrias,110.04,204.12,154.22,,,Single-ply,SBD,M,
Boys,124.74,DQ,Eian Meza,Aransas Pass,110.22,,,,,Single-ply,SBD,M,
Boys,139.71,1,Jayden Valderas,Hebbronville,131.09,204.12,147.42,195.04,546.58,Single-ply,SBD,M,
Boys,139.71,2,Omar Carbajal,Falfurrias,127.46,204.12,111.13,206.38,521.63,Single-ply,SBD,M,
Boys,139.71,3,Rual Pacheco,Alice,125.01,215.46,138.35,165.56,519.36,Single-ply,SBD,M,
Boys,139.71,4,Jacob Ramos,Agua Dulce,128.91,215.46,108.86,190.51,514.83,Single-ply,SBD,M,
Boys,139.71,5,Martin Hernandez,Aransas Pass,139.71,188.24,106.59,204.12,498.95,Single-ply,SBD,M,
Boys,139.71+,1,Pablo Vega,San Diego,140.16,204.12,149.69,226.8,580.6,Single-ply,SBD,M,
Boys,139.71+,2,Louis Pena,San Diego,140.89,224.53,124.74,219.99,569.26,Single-ply,SBD,M,
Boys,139.71+,3,Jose Alaniz,Hebbronville,140.02,183.7,131.54,199.58,514.83,Single-ply,SBD,M,
Boys,139.71+,4,Joseph Gonzalez,Falfurrias,153.4,170.1,120.2,163.29,453.59,Single-ply,SBD,M,
Boys,139.71+,DQ,Damian Delgado,Bishop,139.75,,,,,Single-ply,SBD,M,
Boys,,NS,Jonte Gidrey,Banquete,,,,,,Single-ply,SBD,M,
Boys,,NS,Deven Beltran,Banquete,,,,,,Single-ply,SBD,M,
Boys,,NS,Nemo Jacobo,Agua Dulce,,,,,,Single-ply,SBD,M,
Boys,,NS,Evan Bernal,Alice,,,,,,Single-ply,SBD,M,
Boys,,NS,Thaddeus Cisneros,Alice,,,,,,Single-ply,SBD,M,
Boys,,NS,Noah Estrada,Agua Dulce,,,,,,Single-ply,SBD,M,
Boys,,NS,Jim Aguillon,Freer,,,,,,Single-ply,SBD,M,
Boys,,NS,Andrew Alaniz,Bruni,,,,,,Single-ply,SBD,M,
Boys,,NS,Santana Gonzalez,Bruni,,,,,,Single-ply,SBD,M,
Boys,,NS,Esterban Chapa,Bruni,,,,,,Single-ply,SBD,M,
Boys,,NS,Leo Pena,Bruni,,,,,,Single-ply,SBD,M,
Boys,,NS,James Dorsey,Corpus Christi London,,,,,,Single-ply,SBD,M,
Boys,,NS,Kendan Henicke,George West,,,,,,Single-ply,SBD,M,
Boys,,NS,Mikal Niembro,George West,,,,,,Single-ply,SBD,M,
Boys,,NS,Cameron Oliver,Hebbronville,,,,,,Single-ply,SBD,M,
Boys,,NS,Leo Herrera,Hebbronville,,,,,,Single-ply,SBD,M,
Boys,,NS,Parker Dolejsi,Ingleside,,,,,,Single-ply,SBD,M,
Boys,,NS,Raul Vasquez,Ingleside,,,,,,Single-ply,SBD,M,
Boys,,NS,Nathan Edlin,Ingleside,,,,,,Single-ply,SBD,M,
