Division,WeightClassKg,Place,Name,Team,BodyweightKg,Best3SquatKg,Best3BenchKg,Best3DeadliftKg,TotalKg,Equipment,Event,Sex,BirthDate
Boys,51.71,1,Juan Rocha Flores,Lubbock Cooper,50.71,83.91,52.16,120.2,256.28,Single-ply,SBD,M,
Boys,51.71,DQ,Daniel Ritchie,Plainview,48.9,92.99,,,,Single-ply,SBD,M,
Boys,55.79,1,Seunghak Lee,Lubbock Cooper,55.66,183.7,83.91,192.78,460.4,Single-ply,SBD,M,
Boys,55.79,2,Santos Torres,Plainview,54.7,99.79,58.97,120.2,278.96,Single-ply,SBD,M,
Boys,55.79,3,David Hester,Ropesville Ropes,54.34,102.06,49.9,86.18,238.14,Single-ply,SBD,M,
Boys,59.87,1,Alejandro Garcia,Plainview,58.79,149.69,86.18,172.37,408.23,Single-ply,SBD,M,
Boys,59.87,2,Aaron Dominguez,Lubbock Cooper,59.87,120.2,92.99,149.69,362.87,Single-ply,SBD,M,
Boys,59.87,DQ,Bronson Putman,Ropesville Ropes,57.29,,,,,Single-ply,SBD,M,
Boys,67.13,1,Maximus Foster,Canyon Randall,63.23,190.51,115.67,226.8,532.97,Single-ply,SBD,M,
Boys,67.13,2,Gavin Parrott,Lubbock Cooper,65.18,179.17,88.45,192.78,460.4,Single-ply,SBD,M,
Boys,67.13,3,Alexis Delgado,Plainview,65.82,158.76,83.91,170.1,412.77,Single-ply,SBD,M,
Boys,67.13,4,Hamilton Mitchell,Lubbock Cooper,65.77,151.95,92.99,165.56,410.5,Single-ply,SBD,M,
Boys,67.13,5,Carlo Piccio,Lubbock Cooper,60.6,131.54,77.11,165.56,374.21,Single-ply,SBD,M,
Boys,67.13,6,Noah Killough,Canyon Randall,66.36,117.93,77.11,149.69,344.73,Single-ply,SBD,M,
Boys,74.84,1,Izik Godino,Plainview,70.53,210.92,113.4,190.51,514.83,Single-ply,SBD,M,
Boys,74.84,2,Christian Enriquez,Morton,68.13,170.1,113.4,181.44,464.93,Single-ply,SBD,M,
Boys,74.84,3,Casen Bice,Canyon,70.22,142.88,99.79,156.49,399.16,Single-ply,SBD,M,
Boys,74.84,4,Zachary Ortega,Plainview,74.8,124.74,81.65,122.47,328.85,Single-ply,SBD,M,
Boys,74.84,DQ,Rece Davis,Canyon,74.84,,,,,Single-ply,SBD,M,
Boys,82.1,1,Marcos Del Fierro,Canyon Randall,81.28,195.04,149.69,199.58,544.31,Single-ply,SBD,M,
Boys,82.1,2,Jacob Lewis,Canyon Randall,75.75,201.85,115.67,210.92,528.44,Single-ply,SBD,M,
Boys,82.1,3,Mason Gallarneau,Lubbock Cooper,81.19,195.04,106.59,195.04,496.68,Single-ply,SBD,M,
Boys,82.1,4,Ethan Morton,Lubbock,81.51,188.24,122.47,181.44,492.15,Single-ply,SBD,M,
Boys,82.1,5,Josh Ford,Lubbock,81.69,158.76,122.47,192.78,474,Single-ply,SBD,M,
Boys,82.1,6,Xzavier Torres,Ropesville Ropes,82.1,158.76,81.65,181.44,421.84,Single-ply,SBD,M,
Boys,82.1,DQ,Drake Wyatt,Ropesville Ropes,80.56,,,,,Single-ply,SBD,M,
Boys,82.1,DQ,Cameron Garner,Ropesville Ropes,82.1,,,,,Single-ply,SBD,M,
Boys,82.1,DQ,Zanien Urteaga,Canyon,82.1,,,,,Single-ply,SBD,M,
Boys,89.81,1,Jaquim Rodriguez,Lubbock Cooper,88,222.26,117.93,190.51,530.7,Single-ply,SBD,M,
Boys,89.81,2,Zachary Barrientes,Lubbock Cooper,89.81,199.58,97.52,195.04,492.15,Single-ply,SBD,M,
Boys,89.81,3,Ilir Haliti,Canyon Randall,82.96,174.63,124.74,183.7,483.08,Single-ply,SBD,M,
Boys,89.81,4,Gerardo Rivera,Plainview,88.36,185.97,108.86,181.44,476.27,Single-ply,SBD,M,
Boys,89.81,5,Avery Stringer,Canyon Randall,85.91,158.76,120.2,183.7,462.66,Single-ply,SBD,M,
Boys,89.81,DQ,Tobi Bernal,Ropesville Ropes,89.81,,,,,Single-ply,SBD,M,
Boys,89.81,DQ,Jalileel Ross,Lubbock Cooper,82.74,208.65,,,,Single-ply,SBD,M,
Boys,99.79,1,Dawson Hall,Canyon Randall,99.79,226.8,147.42,217.72,591.94,Single-ply,SBD,M,
Boys,99.79,2,Aj Servin,Lubbock,99.29,195.04,138.35,204.12,537.51,Single-ply,SBD,M,
Boys,99.79,3,Nathan Carrillo,Plainview,97.98,226.8,120.2,181.44,528.44,Single-ply,SBD,M,
Boys,99.79,4,Abel Vizcarra,Morton,99.79,183.7,102.06,181.44,467.2,Single-ply,SBD,M,
Boys,109.77,1,Brandon Ortega,Plainview,109.72,235.87,113.4,188.24,537.51,Single-ply,SBD,M,
Boys,109.77,2,Samuel Teran,Lubbock,107.86,197.31,136.08,185.97,519.36,Single-ply,SBD,M,
Boys,109.77,3,Evan Sullivan,Ropesville Ropes,103.92,149.69,77.11,138.35,365.14,Single-ply,SBD,M,
Boys,109.77,DQ,Reid McCaleb,Ropesville Ropes,109.77,,,,,Single-ply,SBD,M,
Boys,109.77,DQ,Logan Castaneda,Meadow,103.65,208.65,108.86,,,Single-ply,SBD,M,
Boys,124.74,1,John Peralez,Lubbock Cooper,124.1,208.65,170.1,226.8,605.55,Single-ply,SBD,M,
Boys,124.74,2,Zemere Perez,Plainview,124.6,206.38,136.08,215.46,557.92,Single-ply,SBD,M,
Boys,124.74,3,Derek Mata,Plainview,113.76,224.53,124.74,197.31,546.58,Single-ply,SBD,M,
Boys,124.74,4,Aiden Drerup,Canyon Randall,111.13,183.7,158.76,158.76,501.22,Single-ply,SBD,M,
Boys,139.71,1,Niko Castaneda,Meadow,133.86,317.51,170.1,265.35,752.96,Single-ply,SBD,M,
